<?xml version="1.0" encoding="UTF-8" standalone="no"?>
<!-- Created with Inkscape (http://www.inkscape.org/) -->
<svg
   xmlns:svg="http://www.w3.org/2000/svg"
   xmlns="http://www.w3.org/2000/svg"
   xmlns:xlink="http://www.w3.org/1999/xlink"
   xmlns:inkscape="http://www.inkscape.org/namespaces/inkscape"
   version="1.0"
   width="48"
   height="48"
   id="svg2">
  <defs
     id="defs4">
    <linearGradient
       id="linearGradient4978">
      <stop
         id="stop4980"
         style="stop-color:#009100;stop-opacity:1"
         offset="0" />
      <stop
         id="stop4982"
         style="stop-color:#ccff42;stop-opacity:1"
         offset="1" />
    </linearGradient>
    <linearGradient
       id="linearGradient3814">
      <stop
         id="stop3816"
         style="stop-color:#70838a;stop-opacity:1"
         offset="0" />
      <stop
         id="stop3818"
         style="stop-color:#ebeeef;stop-opacity:1"
         offset="1" />
    </linearGradient>
    <linearGradient
       id="linearGradient4304">
      <stop
         id="stop4306"
         style="stop-color:#000000;stop-opacity:0"
         offset="0" />
      <stop
         id="stop4312"
         style="stop-color:#000000;stop-opacity:1"
         offset="0.42045453" />
      <stop
         id="stop4308"
         style="stop-color:#000000;stop-opacity:0"
         offset="1" />
    </linearGradient>
    <linearGradient
       x1="324.849"
       y1="78.968689"
       x2="357.40515"
       y2="78.968689"
       id="linearGradient3094"
       xlink:href="#linearGradient4304"
       gradientUnits="userSpaceOnUse" />
    <linearGradient
       x1="345.03757"
       y1="67.263832"
       x2="340.81677"
       y2="54.841518"
       id="linearGradient4441"
       xlink:href="#linearGradient3814"
       gradientUnits="userSpaceOnUse"
       gradientTransform="matrix(1.2671024,0,0,1.2671024,-90.531984,-18.218784)" />
    <linearGradient
       x1="340.53568"
       y1="84.215462"
       x2="354.38956"
       y2="40.215462"
       id="linearGradient4986"
       xlink:href="#linearGradient4978"
       gradientUnits="userSpaceOnUse" />
    <filter
       width="1.2085075"
       height="2.0599134"
       id="filter3282"
       y="-0.52995664"
       x="-0.10425377">
      <feGaussianBlur
         id="feGaussianBlur3284"
         inkscape:collect="always"
         stdDeviation="1.3273316" />
    </filter>
  </defs>
  <g
     id="artwork"
     style="display:inline">
    <g
       transform="translate(-318,-38.000011)"
       id="g5001">
      <path
         d="M 356.40516,78.968689 A 15.278085,3.0055249 0 1 1 325.84899,78.968689 A 15.278085,3.0055249 0 1 1 356.40516,78.968689 z"
         transform="matrix(1.3936838,0,0,0.8262864,-131.61719,14.076897)"
         id="path4302"
         style="opacity:0.37089203;fill:url(#linearGradient3094);fill-opacity:1;stroke:none;stroke-width:2;stroke-linecap:round;stroke-linejoin:round;stroke-miterlimit:4;stroke-dasharray:none;stroke-opacity:0.94117647;filter:url(#filter3282)" />
      <path
         d="M 353.7458,42.364551 C 352.94668,42.432618 352.18229,42.673438 351.495,43.058957 L 348.03988,45.395816 C 347.53123,45.740642 347.07668,46.170564 346.69754,46.680618 C 343.6119,50.707826 341.43613,54.493441 339.5701,58.124137 L 336.44194,55.550336 C 334.88533,54.137648 332.68075,53.697161 330.70037,54.402025 C 330.16665,54.591989 329.6782,54.85916 329.24073,55.187783 L 326.35773,57.131867 C 325.94048,57.425716 325.56653,57.773089 325.24466,58.163387 C 324.60093,58.943983 324.16549,59.896281 324.00849,60.935522 C 323.69447,63.014003 324.54216,65.101878 326.22592,66.360303 L 336.24396,74.675663 L 341.78752,79.229312 L 344.75729,77.209868 L 347.96465,70.795162 C 351.35541,63.971575 353.78965,58.084646 358.73501,51.630238 C 360.08664,49.943394 360.35357,47.613701 359.44776,45.651098 C 358.54193,43.688492 356.61909,42.430389 354.45854,42.364551 C 354.2238,42.355712 353.97672,42.344882 353.7458,42.364551 z"
         id="path4443"
         style="fill:none;fill-opacity:1;fill-rule:evenodd;stroke:#364e59;stroke-width:1.5;stroke-linecap:round;stroke-linejoin:round;stroke-miterlimit:4;stroke-dasharray:none;stroke-opacity:1" />
      <path
         d="M 353.7458,42.364551 C 352.94668,42.432618 352.18229,42.673438 351.495,43.058957 L 348.03988,45.395816 C 347.53123,45.740642 347.07668,46.170564 346.69754,46.680618 C 343.6119,50.707826 341.43613,54.493441 339.5701,58.124137 L 336.44194,55.550336 C 334.88533,54.137648 332.68075,53.697161 330.70037,54.402025 C 330.16665,54.591989 329.6782,54.85916 329.24073,55.187783 L 326.35773,57.131867 C 325.94048,57.425716 325.56653,57.773089 325.24466,58.163387 C 324.60093,58.943983 324.16549,59.896281 324.00849,60.935522 C 323.69447,63.014003 324.54216,65.101878 326.22592,66.360303 L 336.24396,74.675663 L 341.78752,79.229312 L 344.75729,77.209868 L 347.96465,70.795162 C 351.35541,63.971575 353.78965,58.084646 358.73501,51.630238 C 360.08664,49.943394 360.35357,47.613701 359.44776,45.651098 C 358.54193,43.688492 356.61909,42.430389 354.45854,42.364551 C 354.2238,42.355712 353.97672,42.344882 353.7458,42.364551 z"
         id="path3944"
         style="fill:url(#linearGradient4441);fill-opacity:1;fill-rule:evenodd;stroke:none;stroke-width:9;stroke-linecap:round;stroke-linejoin:miter;stroke-miterlimit:4;stroke-dasharray:none;stroke-opacity:1" />
      <path
         d="M 351.48877,44.383995 C 349.61085,44.313295 347.81862,45.172369 346.69754,46.680618 C 342.70437,51.892298 340.22896,56.704711 337.98622,61.291893 L 333.47217,57.569781 C 331.91556,56.157095 329.70801,55.715317 327.72764,56.420179 C 325.74728,57.12504 324.31527,58.862226 324.00125,60.940708 C 323.68724,63.01919 324.54216,65.101878 326.22592,66.360303 L 336.24396,74.675663 L 341.78752,79.229312 L 344.99487,72.814607 C 348.38563,65.991023 350.81989,60.10409 355.76525,53.649682 C 357.11686,51.96284 357.39857,49.656793 356.49275,47.694189 C 355.58694,45.731584 353.64932,44.449833 351.48877,44.383995 z"
         id="path3223"
         style="fill:#ffffff;fill-opacity:1;fill-rule:evenodd;stroke:none;stroke-width:9;stroke-linecap:round;stroke-linejoin:miter;stroke-miterlimit:4;stroke-dasharray:none;stroke-opacity:1" />
      <path
         d="M 329.84952,61.955332 L 339.8945,70.268047 C 343.16827,63.679839 345.80213,57.236342 351.22181,50.162878"
         id="path3231"
         style="fill:none;fill-rule:evenodd;stroke:url(#linearGradient4986);stroke-width:6.33551216;stroke-linecap:round;stroke-linejoin:miter;stroke-miterlimit:4;stroke-dasharray:none;stroke-opacity:1" />
    </g>
  </g>
</svg>
