<?xml version="1.0" encoding="UTF-8"?>
<svg xmlns="http://www.w3.org/2000/svg" xmlns:dc="http://purl.org/dc/elements/1.1/" xmlns:cc="http://web.resource.org/cc/" xmlns:rdf="http://www.w3.org/1999/02/22-rdf-syntax-ns#" xmlns:svg="http://www.w3.org/2000/svg" xmlns:xlink="http://www.w3.org/1999/xlink" width="48" height="48" id="svg2080" version="1.0">
  <defs id="defs2082">
    <linearGradient id="XMLID_27_" gradientUnits="userSpaceOnUse" x1="77.150398" y1="54.374001" x2="91.878502" y2="83.279503" gradientTransform="translate(-5.300873,0.449266)">
      <stop offset="0" style="stop-color:#FFFFFF" id="stop2475"/>
      <stop offset="1" style="stop-color:#4A626E" id="stop2477"/>
    </linearGradient>
    <linearGradient id="XMLID_26_" gradientUnits="userSpaceOnUse" x1="54.6133" y1="38.6777" x2="54.9571" y2="37.478901">
      <stop offset="0" style="stop-color:#3F667A" id="stop178"/>
      <stop offset="0.1242" style="stop-color:#2D4E5E" id="stop180"/>
      <stop offset="0.2741" style="stop-color:#1C3644" id="stop182"/>
      <stop offset="0.4079" style="stop-color:#122834" id="stop184"/>
      <stop offset="0.5112" style="stop-color:#0E232E" id="stop186"/>
      <stop offset="0.5784" style="stop-color:#142833" id="stop188"/>
      <stop offset="0.6643" style="stop-color:#233741" id="stop190"/>
      <stop offset="0.7603" style="stop-color:#3E5059" id="stop192"/>
      <stop offset="0.8638" style="stop-color:#62737A" id="stop194"/>
      <stop offset="0.9721" style="stop-color:#919FA4" id="stop196"/>
      <stop offset="1" style="stop-color:#9EABB0" id="stop198"/>
    </linearGradient>
    <linearGradient id="XMLID_25_" gradientUnits="userSpaceOnUse" x1="47.088902" y1="45.255901" x2="38.843899" y2="72.2239">
      <stop offset="0.0056" style="stop-color:#039CF0" id="stop163"/>
      <stop offset="0.2921" style="stop-color:#027ABB" id="stop165"/>
      <stop offset="0.5193" style="stop-color:#025887" id="stop167"/>
      <stop offset="0.7324" style="stop-color:#013E5E" id="stop169"/>
      <stop offset="0.8995" style="stop-color:#012D44" id="stop171"/>
      <stop offset="1" style="stop-color:#01273B" id="stop173"/>
    </linearGradient>
    <linearGradient id="XMLID_24_" gradientUnits="userSpaceOnUse" x1="44.690399" y1="4.1630998" x2="44.562" y2="14.4456">
      <stop offset="0.0056" style="stop-color:#858585" id="stop152"/>
      <stop offset="0.0612" style="stop-color:#898989" id="stop154"/>
      <stop offset="0.6848" style="stop-color:#B6B6B6" id="stop156"/>
      <stop offset="1" style="stop-color:#C7C7C7" id="stop158"/>
    </linearGradient>
    <linearGradient id="XMLID_23_" gradientUnits="userSpaceOnUse" x1="41.265598" y1="10.7402" x2="37.557701" y2="7.1595998">
      <stop offset="0" style="stop-color:#FFFFFF" id="stop133"/>
      <stop offset="0.2554" style="stop-color:#FCFCFC" id="stop135"/>
      <stop offset="0.4223" style="stop-color:#F4F4F4" id="stop137"/>
      <stop offset="0.5637" style="stop-color:#E5E5E5" id="stop139"/>
      <stop offset="0.691" style="stop-color:#D0D0D0" id="stop141"/>
      <stop offset="0.8088" style="stop-color:#B4B5B5" id="stop143"/>
      <stop offset="0.9182" style="stop-color:#939495" id="stop145"/>
      <stop offset="1" style="stop-color:#757677" id="stop147"/>
    </linearGradient>
    <linearGradient id="XMLID_22_" gradientUnits="userSpaceOnUse" x1="48.159199" y1="5.0321999" x2="27.7061" y2="28.5179">
      <stop offset="0" style="stop-color:#9EABB0" id="stop120"/>
      <stop offset="0.0973" style="stop-color:#8E9CA1" id="stop122"/>
      <stop offset="0.529" style="stop-color:#495B63" id="stop124"/>
      <stop offset="0.8412" style="stop-color:#1E323D" id="stop126"/>
      <stop offset="1" style="stop-color:#0E232E" id="stop128"/>
    </linearGradient>
    <linearGradient id="XMLID_21_" gradientUnits="userSpaceOnUse" x1="32.536098" y1="15.2305" x2="38.5383" y2="20.8276">
      <stop offset="0" style="stop-color:#9CA3A3" id="stop105"/>
      <stop offset="0.1011" style="stop-color:#B4B8BA" id="stop107"/>
      <stop offset="0.1311" style="stop-color:#B7BBBD" id="stop109"/>
      <stop offset="0.5102" style="stop-color:#DEE0E1" id="stop111"/>
      <stop offset="0.8131" style="stop-color:#F6F7F7" id="stop113"/>
      <stop offset="1" style="stop-color:#FFFFFF" id="stop115"/>
    </linearGradient>
    <linearGradient id="XMLID_20_" gradientUnits="userSpaceOnUse" x1="31.2139" y1="65.905296" x2="68.952698" y2="27.9168">
      <stop offset="0" style="stop-color:#C2C5C7" id="stop73"/>
      <stop offset="0.1461" style="stop-color:#C3C5C7" id="stop75"/>
      <stop offset="0.4531" style="stop-color:#DEDFE0" id="stop77"/>
      <stop offset="0.7908" style="stop-color:#F6F6F7" id="stop79"/>
      <stop offset="1" style="stop-color:#FFFFFF" id="stop81"/>
    </linearGradient>
    <linearGradient id="XMLID_19_" gradientUnits="userSpaceOnUse" x1="72.223602" y1="26.919901" x2="80.426201" y2="19.663799">
      <stop offset="0.0056" style="stop-color:#858585" id="stop62"/>
      <stop offset="0.0612" style="stop-color:#898989" id="stop64"/>
      <stop offset="0.6848" style="stop-color:#B6B6B6" id="stop66"/>
      <stop offset="1" style="stop-color:#C7C7C7" id="stop68"/>
    </linearGradient>
    <linearGradient id="XMLID_18_" gradientUnits="userSpaceOnUse" x1="80.828102" y1="13.0938" x2="9.3305998" y2="95.1922">
      <stop offset="0" style="stop-color:#9EABB0" id="stop49"/>
      <stop offset="0.0973" style="stop-color:#8E9CA1" id="stop51"/>
      <stop offset="0.529" style="stop-color:#495B63" id="stop53"/>
      <stop offset="0.8412" style="stop-color:#1E323D" id="stop55"/>
      <stop offset="1" style="stop-color:#0E232E" id="stop57"/>
    </linearGradient>
    <linearGradient id="XMLID_16_" gradientUnits="userSpaceOnUse" x1="52.756802" y1="36.586899" x2="41.977798" y2="63.266102">
      <stop offset="0" style="stop-color:#FFFFFF" id="stop22"/>
      <stop offset="0.1116" style="stop-color:#F8F9FA" id="stop24"/>
      <stop offset="0.2719" style="stop-color:#E5E9EA" id="stop26"/>
      <stop offset="0.4617" style="stop-color:#C6CED1" id="stop28"/>
      <stop offset="0.6741" style="stop-color:#9BA9AF" id="stop30"/>
      <stop offset="0.9025" style="stop-color:#647983" id="stop32"/>
      <stop offset="1" style="stop-color:#4A636E" id="stop34"/>
    </linearGradient>
    <linearGradient xlink:href="#XMLID_18_" id="linearGradient2312" gradientUnits="userSpaceOnUse" gradientTransform="matrix(0.931494,0,0,1,3.238429,0)" x1="70.274918" y1="14.089348" x2="4.2955327" y2="96.563576"/>
    <linearGradient xlink:href="#XMLID_27_" id="linearGradient2314" gradientUnits="userSpaceOnUse" gradientTransform="translate(-5.300873,0.449266)" x1="77.150398" y1="54.374001" x2="91.878502" y2="83.279503"/>
    <linearGradient xlink:href="#XMLID_16_" id="linearGradient2316" gradientUnits="userSpaceOnUse" gradientTransform="matrix(1.059243,-0.271623,0,0.931442,6.426471,22.93963)" x1="52.756802" y1="36.586899" x2="41.977798" y2="63.266102"/>
    <linearGradient xlink:href="#XMLID_18_" id="linearGradient2318" gradientUnits="userSpaceOnUse" gradientTransform="matrix(0.931442,-0.271623,0,0.931442,64.76411,17.95681)" x1="80.828102" y1="13.0938" x2="9.3305998" y2="95.1922"/>
    <linearGradient xlink:href="#XMLID_19_" id="linearGradient2320" gradientUnits="userSpaceOnUse" x1="72.223602" y1="26.919901" x2="80.426201" y2="19.663799"/>
    <linearGradient xlink:href="#XMLID_20_" id="linearGradient2322" gradientUnits="userSpaceOnUse" x1="31.2139" y1="65.905296" x2="68.952698" y2="27.9168"/>
    <linearGradient xlink:href="#XMLID_21_" id="linearGradient2324" gradientUnits="userSpaceOnUse" x1="32.536098" y1="15.2305" x2="38.5383" y2="20.8276"/>
    <linearGradient xlink:href="#XMLID_22_" id="linearGradient2326" gradientUnits="userSpaceOnUse" gradientTransform="matrix(0.931442,-0.271623,0,0.931442,64.76411,17.95681)" x1="48.159199" y1="5.0321999" x2="27.7061" y2="28.5179"/>
    <linearGradient xlink:href="#XMLID_23_" id="linearGradient2328" gradientUnits="userSpaceOnUse" gradientTransform="matrix(0.931442,-0.271623,0,0.931442,64.76411,17.95681)" x1="41.265598" y1="10.7402" x2="37.557701" y2="7.1595998"/>
    <linearGradient xlink:href="#XMLID_24_" id="linearGradient2330" gradientUnits="userSpaceOnUse" gradientTransform="matrix(0.931442,-0.271623,0,0.931442,64.76411,17.95681)" x1="44.690399" y1="4.1630998" x2="44.562" y2="14.4456"/>
    <linearGradient xlink:href="#XMLID_25_" id="linearGradient2332" gradientUnits="userSpaceOnUse" gradientTransform="matrix(1.162018,-0.271623,0,0.931442,3.54873,22.93963)" x1="47.088902" y1="45.255901" x2="38.843899" y2="72.2239"/>
    <linearGradient xlink:href="#XMLID_26_" id="linearGradient2334" gradientUnits="userSpaceOnUse" x1="54.6133" y1="38.6777" x2="54.9571" y2="37.478901"/>
  </defs>
  <metadata id="metadata2085">
    <rdf:RDF>
      <cc:Work rdf:about="">
        <dc:format>image/svg+xml</dc:format>
        <dc:type rdf:resource="http://purl.org/dc/dcmitype/StillImage"/>
      </cc:Work>
    </rdf:RDF>
  </metadata>
  <g id="layer1">
    <g id="g2286" transform="matrix(0.4799939,0,0,0.4799939,-2.6212068e-5,6.3491395e-4)">
      <path id="rect4997" d="M 11.829273,37.972507 L 90.069236,37.972507 C 91.720589,37.972507 93.050017,39.399707 93.050017,41.172508 L 93.371777,81.132211 C 93.371777,82.905011 87.215953,90.549828 85.5646,90.549828 L 10.220475,90.549828 C 8.5691214,90.549828 7.2396927,89.122628 7.2396927,87.349828 C 6.9124009,71.784676 4.3220194,57.278891 8.8484912,41.172508 C 8.8484912,39.399707 10.177919,37.972507 11.829273,37.972507 z " style="fill:url(#linearGradient2312);fill-opacity:1;stroke:none;stroke-width:4;stroke-miterlimit:4;stroke-dashoffset:0;stroke-opacity:1"/>
      <path style="fill:url(#linearGradient2314)" id="path2479" d="M 84.331423,40.141074 C 87.714001,38.961209 90.867674,40.609651 90.867674,46.670651 C 91.326776,53.432053 91.256303,73.234554 90.962347,81.245557 C 89.737347,81.975557 85.594447,87.911152 85.594447,87.911152 C 83.07014,88.405883 84.359688,82.696637 83.941255,77.992209 C 82.386851,60.343363 83.413679,44.412016 84.331423,40.141074 z "/>
      <path style="fill:url(#linearGradient2316)" id="path36" d="M 86.327803,39.876878 C 82.239743,55.075803 84.69841,71.411195 85.17905,87.178353 C 82.322272,87.502948 14.607002,87.112116 9.9728156,87.058854 C 10.404053,71.379984 6.7476863,55.701115 11.266528,40.022245 C 11.266528,40.022245 80.501969,39.81809 86.327803,39.876878 z "/>
      <g transform="matrix(1.11264,0,0,1,-81.46311,0.508609)" id="g4964">
        <path d="M 138.0183,63.303692 C 137.45012,63.855931 136.46093,64.514177 135.67572,65.136223 C 131.18058,65.398272 95.069507,65.193024 93.905204,65.010014 C 93.847455,62.276306 93.905204,23.650263 93.905204,22.844566 C 93.905204,22.015582 97.657053,17.342885 98.923814,15.751426 C 100.04154,14.345937 105.25296,8.419554 107.17266,7.5532945 C 110.02474,7.130488 129.60831,7.4143751 138.07605,7.344445 C 138.19248,11.50105 138.0183,58.008444 138.0183,63.303692 z " id="path59" style="fill:url(#linearGradient2318)"/>
        <polygon points="76.809,70.995 76.255,71.308 35.566,58.374 44.907,2.954 45.626,2.61 76.833,11.904 76.809,70.995 " id="polygon70" style="fill:url(#linearGradient2320)" transform="matrix(0.931442,-0.271623,0,0.931442,64.76411,17.95681)"/>
        <polygon points="76.216,71.338 32.16,58.546 32.129,14.248 44.911,2.962 76.216,12.295 76.216,71.338 " id="polygon83" style="fill:url(#linearGradient2322)" transform="matrix(0.931442,-0.271623,0,0.931442,64.76411,17.95681)"/>
        <polygon points="76.216,71.338 32.16,58.546 32.129,14.248 44.911,2.962 76.216,12.295 76.216,71.338 " id="polygon117" style="fill:url(#linearGradient2324)" transform="matrix(0.931442,-0.271623,0,0.931442,64.76411,17.95681)"/>
        <g id="text_1_" transform="matrix(0.931442,-0.271623,0,0.931442,64.76411,17.95681)">
          <line x1="41.158001" y1="10.39" x2="70.835999" y2="19.011999" id="line86" style="fill:none;stroke:#858585;stroke-width:2;stroke-linecap:round"/>
          <line x1="41.347" y1="15.575" x2="70.710999" y2="24.197001" id="line88" style="fill:none;stroke:#858585;stroke-width:2;stroke-linecap:round"/>
          <line x1="36.509998" y1="22.639999" x2="70.827003" y2="32.487999" id="line90" style="fill:none;stroke:#858585;stroke-width:2;stroke-linecap:round"/>
          <line x1="36.629002" y1="27.947001" x2="70.683998" y2="37.805" id="line92" style="fill:none;stroke:#858585;stroke-width:2;stroke-linecap:round"/>
          <line x1="36.500999" y1="32.359001" x2="70.959999" y2="42.362999" id="line94" style="fill:none;stroke:#858585;stroke-width:2;stroke-linecap:round"/>
          <line x1="36.561001" y1="37.396" x2="44.148998" y2="39.509998" id="line96" style="fill:none;stroke:#858585;stroke-width:2;stroke-linecap:round"/>
          <line x1="36.555" y1="43.604" x2="70.959999" y2="53.646" id="line98" style="fill:none;stroke:#858585;stroke-width:2;stroke-linecap:round"/>
          <line x1="36.612" y1="49.623001" x2="70.775002" y2="59.442001" id="line100" style="fill:none;stroke:#858585;stroke-width:2;stroke-linecap:round"/>
          <line x1="36.547001" y1="53.407001" x2="70.910004" y2="63.493" id="line102" style="fill:none;stroke:#858585;stroke-width:2;stroke-linecap:round"/>
        </g>
        <path d="M 105.83698,23.687897 C 103.78222,23.918247 95.389923,23.446431 94.65781,24.794423 C 94.65781,24.140551 94.637318,22.883491 94.65781,22.604603 C 96.908173,18.077289 106.23377,8.3626697 106.85691,8.5181359 C 107.29748,8.5126086 107.53406,8.5050915 107.67471,8.5190315 C 107.39155,8.6230281 107.16335,8.6569752 106.83641,8.862225 C 104.68571,10.306277 106.97054,23.560387 105.83698,23.687897 z " id="path130" style="opacity:0.68999999;fill:url(#linearGradient2326)"/>
        <path d="M 94.710902,22.529508 C 94.964254,22.062558 96.286902,21.701071 96.829001,21.643582 C 98.923814,21.42577 105.5799,21.998714 105.5799,21.998714 L 105.48303,11.213853 C 105.48303,11.213853 105.50073,10.1543 105.68981,9.7079546 C 105.91894,9.1716886 106.48619,8.5601095 107.30493,8.0149084 C 104.8068,9.0163138 93.982514,22.348849 94.710902,22.529508 z " id="path149" style="fill:url(#linearGradient2328)"/>
        <path d="M 107.50146,8.0023052 C 106.29152,7.8633421 105.34145,9.7443407 105.28649,11.341955 C 105.20546,13.723997 105.50725,20.553811 105.57152,22.013268 C 105.66745,21.962936 105.75501,21.892694 105.75501,21.892694 C 105.75501,21.892694 105.45322,12.051528 105.52587,11.15758 C 105.55382,10.811318 105.63858,10.280828 105.79972,9.829591 C 106.00743,9.2455487 106.54115,8.5766842 107.07673,8.3990778 C 107.24066,8.2292532 107.25091,8.1293954 107.50146,8.0023052 z " id="path160" style="fill:url(#linearGradient2330)"/>
      </g>
      <path style="fill:url(#linearGradient2332)" id="path175" d="M 18.888101,42.918984 C 22.906357,42.949342 72.907198,43.123818 76.829008,43.254963 C 72.951597,54.341722 74.972028,71.991522 75.562446,87.39607 C 70.333367,87.454071 22.400142,87.364786 17.752072,87.170545 C 17.26719,72.074602 15.991193,55.506758 18.888101,42.918984 z "/>
      <polygon transform="matrix(0.690051,-0.271623,1.56066,0.931442,-49.83508,22.59421)" style="fill:url(#linearGradient2334)" id="polygon200" points="77.765,46.648 27.181,31.815 32.181,29.565 82.348,44.481 77.765,46.648 "/>
      <path style="fill:#00ff00" id="path209" d="M 77.126087,57.458118 C 77.157568,56.88565 77.501639,56.832461 77.771355,56.846756 L 81.249925,56.790894 C 81.518517,56.807867 81.557827,56.872408 81.604285,57.300977 L 81.650891,58.881586 C 81.62658,59.277319 81.274977,59.509649 81.005805,59.491745 L 77.526654,59.546675 C 77.259805,59.532497 77.228099,59.297895 77.20084,58.880699 L 77.126087,57.458118 z "/>
    </g>
  </g>
</svg>
