<?xml version="1.0" encoding="UTF-8"?>
<svg xmlns="http://www.w3.org/2000/svg" xmlns:dc="http://purl.org/dc/elements/1.1/" xmlns:cc="http://web.resource.org/cc/" xmlns:rdf="http://www.w3.org/1999/02/22-rdf-syntax-ns#" xmlns:svg="http://www.w3.org/2000/svg" xmlns:xlink="http://www.w3.org/1999/xlink" version="1.0" width="48" height="48" viewBox="0 0 68.906 86.245" id="svg2">
  <metadata id="metadata3715">
    <rdf:RDF>
      <cc:Work rdf:about="">
        <dc:format>image/svg+xml</dc:format>
        <dc:type rdf:resource="http://purl.org/dc/dcmitype/StillImage"/>
      </cc:Work>
    </rdf:RDF>
  </metadata>
  <defs id="defs139"/>
  <g id="switch6">
    <foreignObject requiredExtensions="http://ns.adobe.com/AdobeIllustrator/10.0/" x="0" y="0" width="1" height="1" content="structured text" id="foreignObject8"/>
    <g id="g10">
      <g id="Layer_1">
        <g id="selectAll_1_">
          <linearGradient x1="25.6875" y1="26.523399" x2="44.1889" y2="92.278099" id="XMLID_8_" gradientUnits="userSpaceOnUse">
            <stop style="stop-color:#9eabb0;stop-opacity:1" offset="0" id="stop15"/>
            <stop style="stop-color:#8e9ca1;stop-opacity:1" offset="0.0973" id="stop17"/>
            <stop style="stop-color:#495b63;stop-opacity:1" offset="0.52899998" id="stop19"/>
            <stop style="stop-color:#1e323d;stop-opacity:1" offset="0.84119999" id="stop21"/>
            <stop style="stop-color:#0e232e;stop-opacity:1" offset="1" id="stop23"/>
          </linearGradient>
          <path d="M 0.043,1.653 C -0.052,15.536 0.037,79.289 0.037,86.245 C 6.955,86.245 48.393,86.111 65.664,86.111 C 67.164,85.486 68.068,84.668 68.881,84.23 C 68.964,80.339 68.819,30.16 68.819,29.007 C 68.819,27.819 62.757,18.496 60.944,15.695 C 59.343,13.221 52.944,3.058 50.194,1.027 C 45.694,-0.285 16.557,-0.121 2.88,0.321 C 2.191,0.571 1.119,1.216 0.043,1.653 z " style="fill:url(#XMLID_8_)" id="path25"/>
          <linearGradient x1="42.715801" y1="42.007801" x2="-16.9366" y2="48.589699" id="XMLID_9_" gradientUnits="userSpaceOnUse">
            <stop style="stop-color:#858585;stop-opacity:1" offset="0.0056" id="stop28"/>
            <stop style="stop-color:#898989;stop-opacity:1" offset="0.0612" id="stop30"/>
            <stop style="stop-color:#b6b6b6;stop-opacity:1" offset="0.68480003" id="stop32"/>
            <stop style="stop-color:#c7c7c7;stop-opacity:1" offset="1" id="stop34"/>
          </linearGradient>
          <polygon points="1.307,2.092 2.222,84.036 65.318,84.48 66.881,83.73 66.901,28.716 64.443,26.341 49.443,3.569 49.162,2.449 47.881,1.155 2.848,1.438 1.307,2.092 " style="fill:url(#XMLID_9_)" id="polygon36"/>
          <linearGradient x1="213.0625" y1="57.783199" x2="270.69861" y2="136.2309" id="XMLID_10_" gradientUnits="userSpaceOnUse" gradientTransform="matrix(-1,-0.5798,0,1,281.6562,81.4594)">
            <stop style="stop-color:#585c61;stop-opacity:1" offset="0" id="stop39"/>
            <stop style="stop-color:#c3c5c7;stop-opacity:1" offset="0.28650001" id="stop41"/>
            <stop style="stop-color:#dedfe0;stop-opacity:1" offset="0.5431" id="stop43"/>
            <stop style="stop-color:#f6f6f7;stop-opacity:1" offset="0.82520002" id="stop45"/>
            <stop style="stop-color:#ffffff;stop-opacity:1" offset="1" id="stop47"/>
          </linearGradient>
          <polygon points="1.263,84.542 65.296,84.562 65.338,27.093 48.291,2.302 1.263,2.034 1.263,84.542 " style="fill:url(#XMLID_10_)" id="polygon49"/>
          <polyline points="        48.843,3.629 2.51,3.162 2.628,81.34 " id="polyline66" style="opacity:0.75;fill:none;stroke:#ffffff;stroke-width:2;stroke-linecap:round"/>
          <linearGradient x1="212.49899" y1="76.662102" x2="221.6635" y2="85.208199" id="XMLID_11_" gradientUnits="userSpaceOnUse" gradientTransform="matrix(-0.9943,-0.5952,-1e-4,1.0057,278.4545,81.5009)">
            <stop style="stop-color:#9ca3a3;stop-opacity:1" offset="0" id="stop69"/>
            <stop style="stop-color:#b4b8ba;stop-opacity:1" offset="0.1011" id="stop71"/>
            <stop style="stop-color:#b7bbbd;stop-opacity:1" offset="0.1311" id="stop73"/>
            <stop style="stop-color:#dee0e1;stop-opacity:1" offset="0.51020002" id="stop75"/>
            <stop style="stop-color:#f6f7f7;stop-opacity:1" offset="0.81309998" id="stop77"/>
            <stop style="stop-color:#ffffff;stop-opacity:1" offset="1" id="stop79"/>
          </linearGradient>
          <linearGradient x1="238.37109" y1="59.439499" x2="211.16299" y2="90.681702" id="XMLID_12_" gradientUnits="userSpaceOnUse" gradientTransform="matrix(-1,-0.5798,0,1,281.6562,81.4594)">
            <stop style="stop-color:#9eabb0;stop-opacity:1" offset="0" id="stop84"/>
            <stop style="stop-color:#8e9ca1;stop-opacity:1" offset="0.0973" id="stop86"/>
            <stop style="stop-color:#495b63;stop-opacity:1" offset="0.52899998" id="stop88"/>
            <stop style="stop-color:#1e323d;stop-opacity:1" offset="0.84119999" id="stop90"/>
            <stop style="stop-color:#0e232e;stop-opacity:1" offset="1" id="stop92"/>
          </linearGradient>
          <path d="M 47.714,24.278 C 50.654,25.456 64.338,28.159 65.385,30.391 C 65.385,29.453 65.416,27.663 65.385,27.255 C 62.164,19.844 49.172,1.932 48.278,1.895 C 47.649,1.707 47.064,1.809 46.861,1.77 C 47.267,2.037 47.585,2.396 48.053,2.824 C 51.131,5.781 46.089,23.627 47.714,24.278 z " style="opacity:0.68999999;fill:url(#XMLID_12_)" id="path94"/>
          <linearGradient x1="228.1602" y1="66.284203" x2="223.0302" y2="61.3302" id="XMLID_13_" gradientUnits="userSpaceOnUse" gradientTransform="matrix(-1,-0.5798,0,1,281.6562,81.4594)">
            <stop style="stop-color:#ffffff;stop-opacity:1" offset="0" id="stop97"/>
            <stop style="stop-color:#fcfcfc;stop-opacity:1" offset="0.2554" id="stop99"/>
            <stop style="stop-color:#f4f4f4;stop-opacity:1" offset="0.42230001" id="stop101"/>
            <stop style="stop-color:#e5e5e5;stop-opacity:1" offset="0.56370002" id="stop103"/>
            <stop style="stop-color:#d0d0d0;stop-opacity:1" offset="0.69099998" id="stop105"/>
            <stop style="stop-color:#b4b5b5;stop-opacity:1" offset="0.80879998" id="stop107"/>
            <stop style="stop-color:#939495;stop-opacity:1" offset="0.91820002" id="stop109"/>
            <stop style="stop-color:#757677;stop-opacity:1" offset="1" id="stop111"/>
          </linearGradient>
          <path d="M 65.309,27.125 C 64.948,26.354 63.053,25.289 62.276,24.984 C 59.276,23.806 49.745,21.88 49.745,21.88 L 49.886,6.621 C 49.886,6.621 49.862,5.098 49.589,4.381 C 49.261,3.519 49.367,2.387 48.195,1.27 C 52.022,2.896 66.354,27.169 65.309,27.125 z " style="fill:url(#XMLID_13_)" id="path113"/>
          <linearGradient x1="232.6611" y1="57.334" x2="232.4861" y2="71.344803" id="XMLID_14_" gradientUnits="userSpaceOnUse" gradientTransform="matrix(-1,-0.5798,0,1,281.6562,81.4594)">
            <stop style="stop-color:#858585;stop-opacity:1" offset="0.0056" id="stop116"/>
            <stop style="stop-color:#898989;stop-opacity:1" offset="0.0612" id="stop118"/>
            <stop style="stop-color:#b6b6b6;stop-opacity:1" offset="0.68480003" id="stop120"/>
            <stop style="stop-color:#c7c7c7;stop-opacity:1" offset="1" id="stop122"/>
          </linearGradient>
          <path d="M 50.166,6.744 C 50.302,10.188 49.85,19.842 49.76,21.906 C 49.621,21.794 49.047,21.612 49.047,21.612 C 49.047,21.612 49.882,9.923 49.678,6.523 C 49.648,6.015 49.548,5.084 49.319,4.371 C 49.022,3.449 48.054,2.069 47.82,1.585 C 48.027,0.293 50.021,3.086 50.166,6.744 z " style="fill:url(#XMLID_14_)" id="path124"/>
          <g id="g126">
            <rect width="1.717" height="10.088" x="45.390999" y="64.292" id="rect128"/>
            <polygon points="49.223,62.73 47.098,62.738 47.098,64.365 49.223,64.357 49.223,62.73 " id="polygon130"/>
            <polygon points="45.396,62.736 43.271,62.743 43.271,64.37 45.396,64.363 45.396,62.736 " id="polygon132"/>
            <polygon points="49.223,74.338 47.098,74.345 47.098,75.899 49.223,75.893 49.223,74.338 " id="polygon134"/>
            <polygon points="45.396,74.358 43.271,74.365 43.271,75.992 45.396,75.985 45.396,74.358 " id="polygon136"/>
          </g>
          <polygon points="4.111,84.093 65.318,84.543 65.443,27.051 48.328,1.285 4.031,2.08 4.111,84.093 " style="fill:url(#XMLID_11_)" id="polygon81"/>
          <polygon points="8.455,75.898 8.443,9.797 49.969,9.81 58.299,22.697 58.299,64.26 45.401,64.311 45.391,75.877 8.455,75.898 " style="fill:#add2ff" id="polygon64"/>
          <g id="text_5_">
            <line x1="11.202" y1="68.682999" x2="45.568001" y2="68.685997" id="line52" style="fill:none;stroke:#858585;stroke-width:2;stroke-linecap:round"/>
            <line x1="11.202" y1="55.580002" x2="55.026001" y2="55.599998" id="line54" style="fill:none;stroke:#858585;stroke-width:2;stroke-linecap:round"/>
            <line x1="11.202" y1="43.585999" x2="55.026001" y2="43.533001" id="line56" style="fill:none;stroke:#858585;stroke-width:2;stroke-linecap:round"/>
            <line x1="33.551998" y1="31.364" x2="54.785" y2="31.323999" id="line58" style="fill:none;stroke:#858585;stroke-width:2;stroke-linecap:round"/>
            <line x1="33.801998" y1="20.377001" x2="53.526001" y2="20.364" id="line60" style="fill:none;stroke:#858585;stroke-width:2;stroke-linecap:round"/>
            <polygon points="30.13,34.908 12.344,34.871 12.352,16.898 30.137,16.863 30.13,34.908 " style="fill:#858585" id="polygon62"/>
          </g>
        </g>
      </g>
    </g>
  </g>
</svg>
