<?xml version="1.0" encoding="UTF-8"?>
<svg xmlns="http://www.w3.org/2000/svg" xmlns:dc="http://purl.org/dc/elements/1.1/" xmlns:cc="http://web.resource.org/cc/" xmlns:rdf="http://www.w3.org/1999/02/22-rdf-syntax-ns#" xmlns:svg="http://www.w3.org/2000/svg" xmlns:xlink="http://www.w3.org/1999/xlink" version="1.0" width="48" height="48" viewBox="0 0 68.906 86.245" id="svg374">
  <metadata id="metadata4945">
    <rdf:RDF>
      <cc:Work rdf:about="">
        <dc:format>image/svg+xml</dc:format>
        <dc:type rdf:resource="http://purl.org/dc/dcmitype/StillImage"/>
      </cc:Work>
    </rdf:RDF>
  </metadata>
  <defs id="defs520"/>
  <g id="switch378">
    <foreignObject id="foreignObject380" content="structured text" height="1" width="1" y="0" x="0" requiredExtensions="http://ns.adobe.com/AdobeIllustrator/10.0/"/>
    <g id="g382">
      <g id="Layer_1">
        <g id="indentMore">
          <linearGradient x1="25.6875" y1="26.523399" x2="44.1889" y2="92.278099" id="XMLID_9_" gradientUnits="userSpaceOnUse">
            <stop style="stop-color:#9eabb0;stop-opacity:1" offset="0" id="stop387"/>
            <stop style="stop-color:#8e9ca1;stop-opacity:1" offset="0.0973" id="stop389"/>
            <stop style="stop-color:#495b63;stop-opacity:1" offset="0.52899998" id="stop391"/>
            <stop style="stop-color:#1e323d;stop-opacity:1" offset="0.84119999" id="stop393"/>
            <stop style="stop-color:#0e232e;stop-opacity:1" offset="1" id="stop395"/>
          </linearGradient>
          <path d="M 0.043,1.653 C -0.052,15.536 0.037,79.289 0.037,86.245 C 6.955,86.245 48.393,86.111 65.664,86.111 C 67.164,85.486 68.068,84.668 68.881,84.23 C 68.964,80.339 68.819,30.16 68.819,29.007 C 68.819,27.819 62.757,18.496 60.944,15.695 C 59.343,13.221 52.944,3.058 50.194,1.027 C 45.694,-0.285 16.557,-0.121 2.88,0.321 C 2.191,0.571 1.119,1.216 0.043,1.653 z " style="fill:url(#XMLID_9_)" id="path397"/>
          <linearGradient x1="42.715801" y1="42.007801" x2="-16.9366" y2="48.589699" id="XMLID_10_" gradientUnits="userSpaceOnUse">
            <stop style="stop-color:#858585;stop-opacity:1" offset="0.0056" id="stop400"/>
            <stop style="stop-color:#898989;stop-opacity:1" offset="0.0612" id="stop402"/>
            <stop style="stop-color:#b6b6b6;stop-opacity:1" offset="0.68480003" id="stop404"/>
            <stop style="stop-color:#c7c7c7;stop-opacity:1" offset="1" id="stop406"/>
          </linearGradient>
          <polygon points="1.307,2.092 2.222,84.036 65.318,84.48 66.881,83.73 66.901,28.716 64.443,26.341 49.443,3.569 49.162,2.449 47.881,1.155 2.848,1.438 1.307,2.092 " style="fill:url(#XMLID_10_)" id="polygon408"/>
          <linearGradient x1="213.0625" y1="57.783199" x2="270.69861" y2="136.2309" id="XMLID_11_" gradientUnits="userSpaceOnUse" gradientTransform="matrix(-1,-0.5798,0,1,281.6562,81.4594)">
            <stop style="stop-color:#585c61;stop-opacity:1" offset="0" id="stop411"/>
            <stop style="stop-color:#c3c5c7;stop-opacity:1" offset="0.28650001" id="stop413"/>
            <stop style="stop-color:#dedfe0;stop-opacity:1" offset="0.5431" id="stop415"/>
            <stop style="stop-color:#f6f6f7;stop-opacity:1" offset="0.82520002" id="stop417"/>
            <stop style="stop-color:#ffffff;stop-opacity:1" offset="1" id="stop419"/>
          </linearGradient>
          <polygon points="1.263,84.542 65.296,84.562 65.338,27.093 48.291,2.302 1.263,2.034 1.263,84.542 " style="fill:url(#XMLID_11_)" id="polygon421"/>
          <polyline points="        48.843,3.268 2.293,3.018 2.628,81.34 " id="polyline430" style="opacity:0.75;fill:none;stroke:#ffffff;stroke-width:2;stroke-linecap:round"/>
          <linearGradient x1="212.49899" y1="76.662102" x2="221.6635" y2="85.208199" id="XMLID_12_" gradientUnits="userSpaceOnUse" gradientTransform="matrix(-0.9943,-0.5952,-1e-4,1.0057,278.4545,81.5009)">
            <stop style="stop-color:#9ca3a3;stop-opacity:1" offset="0" id="stop433"/>
            <stop style="stop-color:#b4b8ba;stop-opacity:1" offset="0.1011" id="stop435"/>
            <stop style="stop-color:#b7bbbd;stop-opacity:1" offset="0.1311" id="stop437"/>
            <stop style="stop-color:#dee0e1;stop-opacity:1" offset="0.51020002" id="stop439"/>
            <stop style="stop-color:#f6f7f7;stop-opacity:1" offset="0.81309998" id="stop441"/>
            <stop style="stop-color:#ffffff;stop-opacity:1" offset="1" id="stop443"/>
          </linearGradient>
          <polygon points="4.111,84.093 65.318,84.543 65.443,27.051 48.328,1.285 4.031,2.08 4.111,84.093 " style="fill:url(#XMLID_12_)" id="polygon445"/>
          <g id="text_6_">
            <line x1="32.583" y1="37.664001" x2="57.285" y2="37.629002" id="line424" style="fill:none;stroke:#666666;stroke-width:2;stroke-linecap:round"/>
            <line x1="32.583" y1="27.502001" x2="57.285" y2="27.539" id="line426" style="fill:none;stroke:#666666;stroke-width:2;stroke-linecap:round"/>
            <line x1="32.833" y1="16.66" x2="56.026001" y2="16.645" id="line428" style="fill:none;stroke:#666666;stroke-width:2;stroke-linecap:round"/>
          </g>
          <linearGradient x1="238.37109" y1="59.439499" x2="211.16299" y2="90.681702" id="XMLID_13_" gradientUnits="userSpaceOnUse" gradientTransform="matrix(-1,-0.5798,0,1,281.6562,81.4594)">
            <stop style="stop-color:#9eabb0;stop-opacity:1" offset="0" id="stop448"/>
            <stop style="stop-color:#8e9ca1;stop-opacity:1" offset="0.0973" id="stop450"/>
            <stop style="stop-color:#495b63;stop-opacity:1" offset="0.52899998" id="stop452"/>
            <stop style="stop-color:#1e323d;stop-opacity:1" offset="0.84119999" id="stop454"/>
            <stop style="stop-color:#0e232e;stop-opacity:1" offset="1" id="stop456"/>
          </linearGradient>
          <path d="M 47.714,24.278 C 50.654,25.456 64.338,28.159 65.385,30.391 C 65.385,29.453 65.416,27.663 65.385,27.255 C 62.164,19.844 49.172,1.932 48.278,1.895 C 47.649,1.707 47.064,1.809 46.861,1.77 C 47.267,2.037 47.585,2.396 48.053,2.824 C 51.131,5.781 46.089,23.627 47.714,24.278 z " style="opacity:0.68999999;fill:url(#XMLID_13_)" id="path458"/>
          <linearGradient x1="228.1602" y1="66.284203" x2="223.0302" y2="61.3302" id="XMLID_14_" gradientUnits="userSpaceOnUse" gradientTransform="matrix(-1,-0.5798,0,1,281.6562,81.4594)">
            <stop style="stop-color:#ffffff;stop-opacity:1" offset="0" id="stop461"/>
            <stop style="stop-color:#fcfcfc;stop-opacity:1" offset="0.2554" id="stop463"/>
            <stop style="stop-color:#f4f4f4;stop-opacity:1" offset="0.42230001" id="stop465"/>
            <stop style="stop-color:#e5e5e5;stop-opacity:1" offset="0.56370002" id="stop467"/>
            <stop style="stop-color:#d0d0d0;stop-opacity:1" offset="0.69099998" id="stop469"/>
            <stop style="stop-color:#b4b5b5;stop-opacity:1" offset="0.80879998" id="stop471"/>
            <stop style="stop-color:#939495;stop-opacity:1" offset="0.91820002" id="stop473"/>
            <stop style="stop-color:#757677;stop-opacity:1" offset="1" id="stop475"/>
          </linearGradient>
          <path d="M 65.309,27.125 C 64.948,26.354 63.053,25.289 62.276,24.984 C 59.276,23.806 49.745,21.88 49.745,21.88 L 49.886,6.621 C 49.886,6.621 49.862,5.098 49.589,4.381 C 49.261,3.519 49.367,2.387 48.195,1.27 C 52.022,2.896 66.354,27.169 65.309,27.125 z " style="fill:url(#XMLID_14_)" id="path477"/>
          <linearGradient x1="232.6611" y1="57.334" x2="232.4861" y2="71.344803" id="XMLID_15_" gradientUnits="userSpaceOnUse" gradientTransform="matrix(-1,-0.5798,0,1,281.6562,81.4594)">
            <stop style="stop-color:#858585;stop-opacity:1" offset="0.0056" id="stop480"/>
            <stop style="stop-color:#898989;stop-opacity:1" offset="0.0612" id="stop482"/>
            <stop style="stop-color:#b6b6b6;stop-opacity:1" offset="0.68480003" id="stop484"/>
            <stop style="stop-color:#c7c7c7;stop-opacity:1" offset="1" id="stop486"/>
          </linearGradient>
          <path d="M 50.166,6.744 C 50.302,10.188 49.85,19.842 49.76,21.906 C 49.621,21.794 49.047,21.612 49.047,21.612 C 49.047,21.612 49.882,9.923 49.678,6.523 C 49.648,6.015 49.548,5.084 49.319,4.371 C 49.022,3.449 48.054,2.069 47.82,1.585 C 48.027,0.293 50.021,3.086 50.166,6.744 z " style="fill:url(#XMLID_15_)" id="path488"/>
          <linearGradient x1="6.2842002" y1="32.255901" x2="44.9678" y2="32.255901" id="XMLID_16_" gradientUnits="userSpaceOnUse" gradientTransform="matrix(0.9711,-0.2908,-3.1e-3,1.0307,1.2568,39.7706)">
            <stop style="stop-color:#ffffff;stop-opacity:1" offset="0.0056" id="stop491"/>
            <stop style="stop-color:#d6ebf6;stop-opacity:1" offset="0.0332" id="stop493"/>
            <stop style="stop-color:#aad5ec;stop-opacity:1" offset="0.0681" id="stop495"/>
            <stop style="stop-color:#81c1e3;stop-opacity:1" offset="0.1066" id="stop497"/>
            <stop style="stop-color:#5eafdc;stop-opacity:1" offset="0.1477" id="stop499"/>
            <stop style="stop-color:#41a1d5;stop-opacity:1" offset="0.19239999" id="stop501"/>
            <stop style="stop-color:#2995d0;stop-opacity:1" offset="0.24160001" id="stop503"/>
            <stop style="stop-color:#168ccc;stop-opacity:1" offset="0.2974" id="stop505"/>
            <stop style="stop-color:#0a86c9;stop-opacity:1" offset="0.3635" id="stop507"/>
            <stop style="stop-color:#0282c7;stop-opacity:1" offset="0.4501" id="stop509"/>
            <stop style="stop-color:#0081c7;stop-opacity:1" offset="0.63480002" id="stop511"/>
            <stop style="stop-color:#0074b4;stop-opacity:1" offset="0.76419997" id="stop513"/>
            <stop style="stop-color:#005787;stop-opacity:1" offset="1" id="stop515"/>
          </linearGradient>
          <polygon points="44.812,64.198 30.393,79.241 30.354,72.325 7.281,72.285 7.303,56.604 30.303,56.64 30.385,49.285 44.812,64.198 " style="fill:url(#XMLID_16_)" id="polygon517"/>
        </g>
      </g>
    </g>
  </g>
</svg>
