<?xml version="1.0" encoding="UTF-8" standalone="no"?>
<!-- Created with Inkscape (http://www.inkscape.org/) -->
<svg
   xmlns:svg="http://www.w3.org/2000/svg"
   xmlns="http://www.w3.org/2000/svg"
   xmlns:xlink="http://www.w3.org/1999/xlink"
   xmlns:inkscape="http://www.inkscape.org/namespaces/inkscape"
   version="1.0"
   width="48"
   height="48"
   id="svg2">
  <defs
     id="defs4">
    <linearGradient
       id="linearGradient3227">
      <stop
         id="stop3229"
         style="stop-color:#74878e;stop-opacity:1"
         offset="0" />
      <stop
         id="stop3231"
         style="stop-color:#eef0f1;stop-opacity:1"
         offset="1" />
    </linearGradient>
    <linearGradient
       id="linearGradient3179">
      <stop
         id="stop3181"
         style="stop-color:#0084c8;stop-opacity:1"
         offset="0" />
      <stop
         id="stop3187"
         style="stop-color:#19aeff;stop-opacity:1"
         offset="0.50983179" />
      <stop
         id="stop3183"
         style="stop-color:#ffffff;stop-opacity:1"
         offset="1" />
    </linearGradient>
    <filter
       width="1.0989774"
       height="1.6886297"
       id="filter3317"
       y="-0.34431484"
       x="-0.049488679">
      <feGaussianBlur
         id="feGaussianBlur3319"
         inkscape:collect="always"
         stdDeviation="0.62549465" />
    </filter>
    <linearGradient
       x1="335"
       y1="147"
       x2="347"
       y2="119"
       id="linearGradient3441"
       xlink:href="#linearGradient3179"
       gradientUnits="userSpaceOnUse"
       gradientTransform="matrix(1.4691428,0,0,1.4691428,-160.84586,-137.45397)" />
    <linearGradient
       x1="340.06912"
       y1="73.602005"
       x2="338.27423"
       y2="40.785675"
       id="linearGradient3969"
       xlink:href="#linearGradient3227"
       gradientUnits="userSpaceOnUse" />
  </defs>
  <g
     id="artwork"
     style="display:inline">
    <g
       transform="translate(-318,-38.000011)"
       id="g3973">
      <path
         d="M 341.76095,39.96875 C 337.39317,40.104703 332.44806,41.088714 328.875,43.71875 C 328.56421,43.949265 328.25892,44.191986 327.96875,44.46875 C 327.95823,44.478784 327.94799,44.48991 327.9375,44.5 C 327.65133,44.683112 327.36877,44.860062 327.09375,45.0625 C 324.60742,46.906621 322.61264,50.380182 323.9375,53.46875 C 324.70884,55.365329 327.5026,56.248484 327.03125,58.625 C 326.36766,60.570942 324.21869,61.465701 323.34375,63.3125 C 321.04583,66.923433 322.01775,72.08621 325.25,74.78125 C 324.93483,74.857751 324.64181,74.985415 324.39839,75.193653 L 322.72618,76.452989 C 322.4729,76.633511 322.26452,76.888907 322.125,77.25 C 321.84431,78.589691 321.97185,80.007848 322,81.375 C 322.28507,82.994162 324.04446,83.046989 325.34375,82.96875 C 336.63329,82.96875 347.92921,82.96875 359.21875,82.96875 C 359.61624,82.976075 359.93979,82.88741 360.20219,82.729728 L 362.11116,81.277717 C 362.93983,80.687241 363.11701,79.382398 363,78.34375 C 362.98929,77.083873 363.25042,75.418396 361.78125,74.84375 C 361.50693,74.817679 361.32624,74.760326 361.21875,74.71875 C 361.29491,74.653164 361.3617,74.584596 361.41868,74.513734 L 362.95933,73.403676 C 363.29361,73.131287 363.51537,72.820096 363.4375,72.46875 C 363.7847,71.114814 362.5696,70.164595 361.9375,69.125 C 360.19567,66.352456 357.82509,71.591152 356.4172,68.625 C 355.87754,66.523882 356.22506,64.312523 356.13595,62.15625 C 356.09348,57.989263 356.22527,53.8187 356.0422,49.65625 C 355.8831,46.435233 353.85117,43.480118 350.9172,42.15625 C 348.09939,40.712651 344.92177,39.983687 341.76095,39.96875 z"
         id="path3971"
         style="font-size:44px;font-style:normal;font-variant:normal;font-weight:normal;font-stretch:normal;text-align:start;line-height:125%;writing-mode:lr-tb;text-anchor:start;fill:none;fill-opacity:1;stroke:#364e59;stroke-width:1.5;stroke-linecap:round;stroke-linejoin:round;stroke-opacity:1;font-family:URW Bookman L;-inkscape-font-specification:URW Bookman L" />
      <path
         d="M 357.23561,149.67532 A 15.166976,2.1799629 0 1 1 326.90166,149.67532 A 15.166976,2.1799629 0 1 1 357.23561,149.67532 z"
         transform="matrix(1.5000024,0,0,1.6685132,-170.60327,-167.72255)"
         id="path3321"
         style="opacity:0.44897958;fill:#2d2d2d;fill-opacity:1;stroke:none;stroke-width:0.94815743;stroke-linecap:round;stroke-linejoin:round;stroke-miterlimit:4;stroke-dasharray:none;stroke-opacity:1;filter:url(#filter3317)" />
      <path
         d="M 341.76095,39.872261 C 337.39317,40.008214 332.44806,41.088714 328.875,43.71875 C 328.56421,43.949265 328.25892,44.191986 327.96875,44.46875 C 327.95823,44.478784 327.94799,44.48991 327.9375,44.5 C 327.65133,44.683112 327.36877,44.860062 327.09375,45.0625 C 324.60742,46.906621 322.61264,50.380182 323.9375,53.46875 C 324.70884,55.365329 327.5026,56.248484 327.03125,58.625 C 326.36766,60.570942 324.21869,61.465701 323.34375,63.3125 C 321.04583,66.923433 322.01775,72.08621 325.25,74.78125 C 324.93483,74.857751 324.64181,74.985415 324.39839,75.193653 L 322.72618,76.452989 C 322.4729,76.633511 322.26452,76.888907 322.125,77.25 C 321.84431,78.589691 321.97185,80.007848 322,81.375 C 322.28507,82.994162 324.04446,83.046989 325.34375,82.96875 C 336.63329,82.96875 347.92921,82.96875 359.21875,82.96875 C 359.61624,82.976075 359.93979,82.88741 360.20219,82.729728 L 362.11116,81.277717 C 362.93983,80.687241 363.11701,79.382398 363,78.34375 C 362.98929,77.083873 363.25042,75.418396 361.78125,74.84375 C 361.50693,74.817679 361.32624,74.760326 361.21875,74.71875 C 361.29491,74.653164 361.3617,74.584596 361.41868,74.513734 L 362.95933,73.403676 C 363.29361,73.131287 363.51537,72.820096 363.4375,72.46875 C 363.7847,71.114814 362.5696,70.164595 361.9375,69.125 C 360.19567,66.352456 357.82509,71.494663 356.4172,68.528511 C 355.87754,66.427393 356.22506,64.216034 356.13595,62.059761 C 356.09348,57.892774 356.22527,53.722211 356.0422,49.559761 C 355.8831,46.338744 353.85117,43.383629 350.9172,42.059761 C 348.09939,40.616162 344.92177,39.887198 341.76095,39.872261 z"
         id="path3964"
         style="font-size:44px;font-style:normal;font-variant:normal;font-weight:normal;font-stretch:normal;text-align:start;line-height:125%;writing-mode:lr-tb;text-anchor:start;fill:url(#linearGradient3969);fill-opacity:1;stroke:none;stroke-width:4;stroke-linecap:round;stroke-linejoin:round;stroke-opacity:1;font-family:URW Bookman L;-inkscape-font-specification:URW Bookman L" />
      <path
         d="M 339.59375,41.34375 C 335.22597,41.479702 330.66729,42.446775 327.09423,45.076811 C 324.60791,46.920934 322.60346,50.367548 323.92832,53.456116 C 324.69965,55.352695 327.49281,56.258846 327.02146,58.635362 C 326.35786,60.581303 324.20776,61.466185 323.33282,63.312984 C 320.77095,67.338695 322.25671,73.314328 326.42811,75.622921 C 328.09458,76.192581 326.30096,76.004807 325.55452,76.03125 C 324.31816,76.03119 322.6808,75.816848 322.12597,77.252794 C 321.84529,78.592483 321.98127,80.00465 322.00942,81.371802 C 322.2945,82.990965 324.05085,83.046989 325.35014,82.96875 C 336.63967,82.96875 347.92921,82.96875 359.21875,82.96875 C 361.0034,83.001638 361.37642,81.101973 361.21875,79.70248 C 361.20804,78.442606 361.46637,76.763119 359.9972,76.188473 C 357.68613,75.96884 361.9577,75.202053 361.65493,73.836054 C 362.00214,72.482115 360.78835,71.539595 360.15625,70.5 C 358.41442,67.727455 355.67531,72.961404 354.26742,69.995252 C 353.72776,67.894135 354.05786,65.673157 353.96875,63.516884 C 353.92628,59.349895 354.06342,55.177008 353.88035,51.014558 C 353.72124,47.793542 351.68508,44.848597 348.75111,43.524729 C 345.93329,42.08113 342.75457,41.358687 339.59375,41.34375 z M 345.65625,46.65625 C 345.7866,53.176177 346.19717,59.852224 348.49825,66.015706 C 348.66828,67.193175 350.66028,69.65768 350.89426,67.201185 C 351.07674,62.866368 349.68341,58.653131 348.4729,54.540539 C 347.62776,51.880139 346.67492,49.254829 345.65625,46.65625 z"
         id="path3448"
         style="font-size:44px;font-style:normal;font-variant:normal;font-weight:normal;font-stretch:normal;text-align:start;line-height:125%;writing-mode:lr-tb;text-anchor:start;fill:#ffffff;fill-opacity:1;stroke:none;stroke-width:4;stroke-linecap:round;stroke-linejoin:round;stroke-opacity:1;font-family:URW Bookman L;-inkscape-font-specification:URW Bookman L" />
      <path
         d="M 339.58089,43.342408 C 336.80128,43.342408 333.30581,44.125829 330.72012,45.224746 C 327.68197,46.582233 325.48633,49.297958 325.48633,51.560426 C 325.48633,53.111864 326.92754,54.406906 328.60824,54.406906 C 330.41824,54.406906 331.86791,52.911298 331.86791,51.10132 L 331.82199,49.264882 C 331.82198,47.390284 334.72138,45.913412 338.34132,45.913412 C 342.9309,45.913412 345.87067,48.188766 345.87067,51.744056 L 345.87067,56.93198 C 338.11362,57.772341 337.78819,57.827796 334.94393,58.538857 C 327.76861,60.34882 324.06306,63.5277 324.06306,67.858747 C 324.06305,72.512954 328.27257,75.847205 334.02572,75.847205 C 338.35672,75.847205 341.53965,74.508782 345.87067,70.888842 C 347.09889,74.379512 349.26478,75.847205 353.07865,75.847205 C 355.79363,75.847205 357.92574,75.067443 359.7357,73.322131 L 358.54201,71.669323 C 357.44311,72.638969 356.70265,72.95481 355.60373,72.95481 C 354.24626,72.95481 353.09077,72.217304 352.57364,71.118402 C 352.12115,70.213391 351.9768,69.398754 351.9768,66.61913 L 351.9768,52.891843 C 351.97679,49.013302 350.95427,47.032894 348.30394,45.546122 C 345.91217,44.188634 342.55443,43.342408 339.58089,43.342408 z M 345.87067,59.181623 L 345.87067,67.950532 C 342.25074,71.376597 339.50743,72.77118 336.27535,72.77118 C 333.17252,72.77118 330.67424,70.272896 330.67424,67.170066 C 330.67425,62.839049 336.1097,60.021955 345.87067,59.181623 z M 323.97125,78.040876 L 323.97125,80.979156 L 359.23068,80.979156 L 359.23068,78.040876 L 323.97125,78.040876 z"
         id="path3329"
         style="font-size:44px;font-style:normal;font-variant:normal;font-weight:normal;font-stretch:normal;text-align:start;line-height:125%;writing-mode:lr-tb;text-anchor:start;fill:url(#linearGradient3441);fill-opacity:1;stroke:none;stroke-width:1.5;stroke-linecap:butt;stroke-linejoin:miter;stroke-opacity:1;font-family:URW Bookman L;-inkscape-font-specification:URW Bookman L" />
    </g>
  </g>
</svg>
