<?xml version="1.0" encoding="UTF-8"?>
<svg xmlns="http://www.w3.org/2000/svg" xmlns:dc="http://purl.org/dc/elements/1.1/" xmlns:cc="http://web.resource.org/cc/" xmlns:rdf="http://www.w3.org/1999/02/22-rdf-syntax-ns#" xmlns:svg="http://www.w3.org/2000/svg" xmlns:xlink="http://www.w3.org/1999/xlink" version="1.0" width="48" height="48" id="svg2">
  <metadata id="metadata2257">
    <rdf:RDF>
      <cc:Work rdf:about="">
        <dc:format>image/svg+xml</dc:format>
        <dc:type rdf:resource="http://purl.org/dc/dcmitype/StillImage"/>
      </cc:Work>
    </rdf:RDF>
  </metadata>
  <defs id="defs3">
    <linearGradient x1="67.036102" y1="-12.5566" x2="43.710602" y2="40.758801" id="dark_outline_1_" gradientUnits="userSpaceOnUse">
      <stop style="stop-color:#9eabb0;stop-opacity:1" offset="0" id="stop2261"/>
      <stop style="stop-color:#707f86;stop-opacity:1" offset="0.2956" id="stop2263"/>
      <stop style="stop-color:#2a3d47;stop-opacity:1" offset="0.77579999" id="stop2265"/>
      <stop style="stop-color:#0e232e;stop-opacity:1" offset="1" id="stop2267"/>
    </linearGradient>
    <linearGradient x1="30.069799" y1="57.457001" x2="98.474602" y2="-19.163799" id="edge_1_" gradientUnits="userSpaceOnUse" gradientTransform="translate(5.6119955,4.3830078)">
      <stop style="stop-color:#575757;stop-opacity:1" offset="0.1067" id="stop2271"/>
      <stop style="stop-color:#898989;stop-opacity:1" offset="0.32859999" id="stop2273"/>
      <stop style="stop-color:#b6b6b6;stop-opacity:1" offset="0.55049998" id="stop2275"/>
      <stop style="stop-color:#c7c7c7;stop-opacity:1" offset="0.66289997" id="stop2277"/>
      <stop style="stop-color:#cfcfcf;stop-opacity:1" offset="1" id="stop2279"/>
    </linearGradient>
    <radialGradient cx="35.351101" cy="56.085899" r="40.096401" fx="35.351101" fy="56.085899" id="XMLID_6_" gradientUnits="userSpaceOnUse" gradientTransform="matrix(0.9372,0.287,-1.37e-2,1.0628,115.14009,-64.869829)">
      <stop style="stop-color:#ffffff;stop-opacity:1" offset="0" id="stop2566"/>
      <stop style="stop-color:#f6fcff;stop-opacity:1" offset="0.0917" id="stop2568"/>
      <stop style="stop-color:#dcf3ff;stop-opacity:1" offset="0.24429999" id="stop2570"/>
      <stop style="stop-color:#b3e4ff;stop-opacity:1" offset="0.43889999" id="stop2572"/>
      <stop style="stop-color:#79d0ff;stop-opacity:1" offset="0.66799998" id="stop2574"/>
      <stop style="stop-color:#30b6ff;stop-opacity:1" offset="0.92339998" id="stop2576"/>
      <stop style="stop-color:#19aeff;stop-opacity:1" offset="1" id="stop2578"/>
    </radialGradient>
    <filter id="filter6714" height="2.5460789" y="-0.7730394" width="1.1602154" x="-0.080107711">
      <feGaussianBlur id="feGaussianBlur6716" stdDeviation="3.0045257"/>
    </filter>
    <linearGradient xlink:href="#dark_outline_1_" id="linearGradient2213" gradientUnits="userSpaceOnUse" x1="67.036102" y1="-12.5566" x2="43.710602" y2="40.758801"/>
    <linearGradient xlink:href="#edge_1_" id="linearGradient2215" gradientUnits="userSpaceOnUse" gradientTransform="translate(5.6119955,4.3830078)" x1="30.069799" y1="57.457001" x2="98.474602" y2="-19.163799"/>
    <linearGradient xlink:href="#XMLID_6_" id="linearGradient2217" gradientUnits="userSpaceOnUse" gradientTransform="matrix(0.9802176,0,0,0.9835149,0.9314155,0.7880572)" x1="109.25631" y1="-12.408408" x2="28.051378" y2="76.401306"/>
  </defs>
  <g id="g2205" transform="matrix(0.4994293,0,0,0.4994293,3.2050158e-3,5.2498285e-2)">
    <path d="M 87.255062,87.838058 C 87.255062,89.98459 70.463021,91.724698 49.748989,91.724698 C 29.034957,91.724698 12.242916,89.98459 12.242916,87.838058 C 12.242916,85.691526 29.034957,83.951418 49.748989,83.951418 C 70.463021,83.951418 87.255062,85.691526 87.255062,87.838058 L 87.255062,87.838058 z " transform="matrix(0.9974094,0,0,1,0.2260494,0)" style="color:#000000;fill:#2d2d2d;fill-opacity:0.76470588;fill-rule:nonzero;stroke:none;stroke-width:4;stroke-linecap:round;stroke-linejoin:round;marker:none;marker-start:none;marker-mid:none;marker-end:none;stroke-miterlimit:4;stroke-dasharray:none;stroke-dashoffset:0;stroke-opacity:1;visibility:visible;display:inline;overflow:visible;filter:url(#filter6714);enable-background:accumulate" id="path4770"/>
    <ellipse cx="42.971001" cy="42.451" rx="42.971001" ry="42.451" transform="translate(5.6119955,4.3830078)" style="fill:url(#linearGradient2213)" id="dark_outline"/>
    <path d="M 89.463996,46.826008 C 89.463996,69.056008 71.387996,87.076008 49.088995,87.076008 C 26.789995,87.076008 8.7139955,69.057008 8.7139955,46.826008 C 8.7139955,24.590008 26.789995,6.5700078 49.088995,6.5700078 C 71.387996,6.5700078 89.463996,24.590008 89.463996,46.826008 z " style="fill:url(#linearGradient2215)" id="edge"/>
    <circle cx="41.471001" cy="43.451" r="39.125" transform="translate(5.6119955,4.3830078)" style="fill:#ffffff" id="white_outline"/>
    <path d="M 47.082995,12.653189 C 27.718798,12.653189 12.020612,28.40418 12.020612,47.8345 C 12.020612,67.263837 27.718798,83.014828 47.082995,83.014828 C 66.448174,83.014828 82.14538,67.263837 82.14538,47.8345 C 82.144399,28.403197 66.448174,12.653189 47.082995,12.653189 z " style="fill:url(#linearGradient2217);fill-opacity:1" id="blue"/>
    <path d="M 56.303427,44.742677 C 50.174071,48.555226 50.22499,51.508518 50.403206,56.880456 L 41.524234,56.485835 C 37.361618,51.285748 39.347453,46.276607 44.986715,42.024884 C 48.188237,39.612604 50.8933,36.72296 50.740544,34.425248 C 50.549598,31.599252 46.826158,29.333364 43.554622,29.447931 C 39.633872,29.568863 37.177038,33.330492 36.20958,34.514355 L 29.787441,27.264786 C 33.536341,23.528616 37.934455,19.39146 45.20312,19.15596 C 54.387605,18.837718 62.159093,23.967791 62.75739,32.694007 C 63.158376,38.428741 60.618798,42.069438 56.303427,44.742677 z M 46.469726,75.854088 C 42.313476,75.994115 38.736427,72.811688 38.450009,68.674532 C 38.169955,64.550106 41.45422,61.055801 45.769592,60.909409 C 49.925842,60.775747 53.668377,64.021823 53.96116,68.228992 C 54.241214,72.28977 50.861476,75.707697 46.469726,75.854088 z " style="fill:#ffffff" id="_x3F_"/>
  </g>
</svg>
