<?xml version="1.0" encoding="UTF-8" standalone="no"?>
<!-- Created with Inkscape (http://www.inkscape.org/) -->
<svg
   xmlns:svg="http://www.w3.org/2000/svg"
   xmlns="http://www.w3.org/2000/svg"
   xmlns:xlink="http://www.w3.org/1999/xlink"
   xmlns:inkscape="http://www.inkscape.org/namespaces/inkscape"
   version="1.0"
   width="48"
   height="48"
   id="svg2">
  <defs
     id="defs4">
    <linearGradient
       id="linearGradient3888">
      <stop
         id="stop3890"
         style="stop-color:#2d2d2d;stop-opacity:0.23430963"
         offset="0" />
      <stop
         id="stop3896"
         style="stop-color:#2d2d2d;stop-opacity:1"
         offset="0.5" />
      <stop
         id="stop3892"
         style="stop-color:#2d2d2d;stop-opacity:0.23529412"
         offset="1" />
    </linearGradient>
    <linearGradient
       id="linearGradient3793">
      <stop
         id="stop3795"
         style="stop-color:#364e59;stop-opacity:1"
         offset="0" />
      <stop
         id="stop3797"
         style="stop-color:#687a83;stop-opacity:1"
         offset="1" />
    </linearGradient>
    <linearGradient
       id="linearGradient3775">
      <stop
         id="stop3777"
         style="stop-color:#9eabb0;stop-opacity:1"
         offset="0" />
      <stop
         id="stop3779"
         style="stop-color:#ffffff;stop-opacity:1"
         offset="1" />
    </linearGradient>
    <linearGradient
       id="linearGradient3752">
      <stop
         id="stop3754"
         style="stop-color:#ff5605;stop-opacity:1"
         offset="0" />
      <stop
         id="stop3760"
         style="stop-color:#ff8000;stop-opacity:1"
         offset="0.34611124" />
      <stop
         id="stop3756"
         style="stop-color:#ffdc0d;stop-opacity:1"
         offset="1" />
    </linearGradient>
    <filter
       width="1.1253316"
       height="2.9577303"
       id="filter3413"
       y="-0.97886521"
       x="-0.062665783">
      <feGaussianBlur
         id="feGaussianBlur3415"
         inkscape:collect="always"
         stdDeviation="1.167843" />
    </filter>
    <linearGradient
       id="linearGradient3185">
      <stop
         id="stop3187"
         style="stop-color:#596a71;stop-opacity:1"
         offset="0" />
      <stop
         id="stop3189"
         style="stop-color:#6e828c;stop-opacity:0.27450982"
         offset="1" />
    </linearGradient>
    <linearGradient
       id="linearGradient3209">
      <stop
         id="stop3211"
         style="stop-color:#65777f;stop-opacity:1"
         offset="0" />
      <stop
         id="stop3213"
         style="stop-color:#8999a0;stop-opacity:1"
         offset="1" />
    </linearGradient>
    <linearGradient
       id="linearGradient3223">
      <stop
         id="stop3225"
         style="stop-color:#dadfe0;stop-opacity:1"
         offset="0" />
      <stop
         id="stop3227"
         style="stop-color:#ffffff;stop-opacity:1"
         offset="1" />
    </linearGradient>
    <linearGradient
       x1="338.88785"
       y1="80.5"
       x2="346.51404"
       y2="54.5"
       id="linearGradient2856"
       xlink:href="#linearGradient3223"
       gradientUnits="userSpaceOnUse"
       gradientTransform="translate(0,2)" />
    <linearGradient
       x1="335.7757"
       y1="78.255608"
       x2="340.45609"
       y2="56.521027"
       id="linearGradient2858"
       xlink:href="#linearGradient3223"
       gradientUnits="userSpaceOnUse"
       gradientTransform="translate(0,2)" />
    <linearGradient
       x1="341"
       y1="65"
       x2="341"
       y2="81"
       id="linearGradient2860"
       xlink:href="#linearGradient3185"
       gradientUnits="userSpaceOnUse"
       gradientTransform="translate(0,2)" />
    <linearGradient
       x1="333.39252"
       y1="71.5"
       x2="338.74017"
       y2="55.314487"
       id="linearGradient2862"
       xlink:href="#linearGradient3223"
       gradientUnits="userSpaceOnUse"
       gradientTransform="translate(0,2)" />
    <linearGradient
       x1="342"
       y1="71"
       x2="342"
       y2="54"
       id="linearGradient2864"
       xlink:href="#linearGradient3185"
       gradientUnits="userSpaceOnUse"
       gradientTransform="translate(0,2)" />
    <linearGradient
       x1="353"
       y1="81"
       x2="347.5"
       y2="54"
       id="linearGradient2866"
       xlink:href="#linearGradient3209"
       gradientUnits="userSpaceOnUse"
       gradientTransform="translate(0,2)" />
    <linearGradient
       x1="331.40649"
       y1="78.606018"
       x2="340.06384"
       y2="41.06797"
       id="linearGradient3758"
       xlink:href="#linearGradient3752"
       gradientUnits="userSpaceOnUse" />
    <linearGradient
       x1="338.31677"
       y1="75.178635"
       x2="329.97238"
       y2="56.832989"
       id="linearGradient3781"
       xlink:href="#linearGradient3775"
       gradientUnits="userSpaceOnUse" />
    <linearGradient
       x1="325.64273"
       y1="61.476982"
       x2="337.97421"
       y2="79.289131"
       id="linearGradient3799"
       xlink:href="#linearGradient3793"
       gradientUnits="userSpaceOnUse" />
    <filter
       width="1.1371429"
       height="1.96"
       id="filter3884"
       y="-0.48000002"
       x="-0.068571426">
      <feGaussianBlur
         id="feGaussianBlur3886"
         inkscape:collect="always"
         stdDeviation="0.63646409" />
    </filter>
    <linearGradient
       x1="320.35358"
       y1="81.893188"
       x2="342.62982"
       y2="81.893188"
       id="linearGradient3894"
       xlink:href="#linearGradient3888"
       gradientUnits="userSpaceOnUse" />
  </defs>
  <g
     id="artwork">
    <g
       transform="translate(-318,-38.000011)"
       id="g3988">
      <path
         d="M 342.62982,81.893188 A 11.138122,1.5911602 0 1 1 320.35358,81.893188 A 11.138122,1.5911602 0 1 1 342.62982,81.893188 z"
         transform="matrix(1,0,-0.5185185,1.3055555,41.63809,-24.790875)"
         id="path3834"
         style="opacity:0.7908163;fill:url(#linearGradient3894);fill-opacity:1;stroke:none;stroke-width:1.5;stroke-linecap:round;stroke-linejoin:round;stroke-miterlimit:4;stroke-dasharray:none;stroke-opacity:1;filter:url(#filter3884)" />
      <rect
         width="42.992523"
         height="2.8633392"
         ry="1.4316696"
         x="343.25546"
         y="84.200798"
         transform="matrix(1,0,-0.2676439,0.9635179,0,-14.299855)"
         id="rect3407"
         style="opacity:0.71959187;fill:#2d2d2d;fill-opacity:1;stroke:none;stroke-width:1;stroke-linecap:round;stroke-linejoin:round;stroke-miterlimit:4;stroke-dasharray:none;stroke-opacity:0.94117647;filter:url(#filter3413)" />
      <g
         transform="translate(0,-14)"
         id="g3231">
        <rect
           width="40"
           height="26"
           x="321.5"
           y="56.5"
           id="rect2409"
           style="opacity:1;fill:url(#linearGradient2856);fill-opacity:1;stroke:none;stroke-width:1;stroke-linecap:round;stroke-linejoin:round;stroke-miterlimit:4;stroke-dasharray:none;stroke-opacity:0.94117647" />
        <path
           d="M 321.5,82.5 L 361.5,82.5 L 342.75,66.5 C 342.11609,65.959067 340.88391,65.959067 340.25,66.5 L 321.5,82.5 z"
           id="path3183"
           style="fill:url(#linearGradient2858);fill-rule:evenodd;stroke:url(#linearGradient2860);stroke-width:0.75;stroke-linecap:round;stroke-linejoin:round;stroke-opacity:1" />
        <path
           d="M 361.5,56.5 L 342.75,72.5 C 342.11609,73.040933 340.88391,73.040933 340.25,72.5 L 321.5,56.5"
           id="path2411"
           style="fill:url(#linearGradient2862);fill-opacity:1;fill-rule:evenodd;stroke:url(#linearGradient2864);stroke-width:0.75;stroke-linecap:round;stroke-linejoin:round;stroke-opacity:1" />
        <rect
           width="40"
           height="26"
           x="321.5"
           y="56.5"
           id="rect3193"
           style="opacity:1;fill:none;fill-opacity:1;stroke:url(#linearGradient2866);stroke-width:0.75;stroke-linecap:round;stroke-linejoin:round;stroke-miterlimit:4;stroke-dasharray:none;stroke-opacity:0.94117647" />
      </g>
      <path
         d="M 347.5138,62.804787 A 13.968693,14.650092 0 1 1 319.57641,62.804787 A 13.968693,14.650092 0 1 1 347.5138,62.804787 z"
         transform="matrix(0.7874753,0,0,0.7508485,67.341469,25.04312)"
         id="path3764"
         style="opacity:1;fill:#ffffff;fill-opacity:1;stroke:none;stroke-width:3.5;stroke-linecap:round;stroke-linejoin:round;stroke-miterlimit:4;stroke-dasharray:none;stroke-opacity:0.94117647" />
      <path
         d="M 332,59.6875 C 330.54514,59.6875 329.15431,59.975778 327.8812,60.494917 C 324.9985,61.926452 322.29376,63.919028 320.50607,66.629628 C 319.54832,68.258879 319,70.157421 319,72.1875 C 319,78.2595 323.928,83.187502 330,83.1875 C 331.45486,83.187499 332.84569,82.907034 334.1188,82.395708 C 337.0138,80.981784 339.71141,78.977012 341.49393,76.260999 C 342.45168,74.623936 343,72.717582 343,70.6875 C 343,64.6155 338.072,59.6875 332,59.6875 z"
         id="path3783"
         style="fill:none;fill-opacity:1;stroke:url(#linearGradient3799);stroke-width:1;stroke-linecap:round;stroke-linejoin:round;stroke-miterlimit:4;stroke-opacity:0.94117647" />
      <path
         d="M 332,59.6875 C 330.54514,59.6875 329.15431,59.975778 327.8812,60.494917 C 324.9985,61.926452 322.29376,63.919028 320.50607,66.629628 C 319.54832,68.258879 319,70.157421 319,72.1875 C 319,78.2595 323.928,83.187502 330,83.1875 C 331.45486,83.187499 332.84569,82.907034 334.1188,82.395708 C 337.0138,80.981784 339.71141,78.977012 341.49393,76.260999 C 342.45168,74.623936 343,72.717582 343,70.6875 C 343,64.6155 338.072,59.6875 332,59.6875 z"
         id="path3766"
         style="fill:url(#linearGradient3781);fill-opacity:1;stroke:none;stroke-width:3.5;stroke-linecap:round;stroke-linejoin:round;stroke-miterlimit:4;stroke-opacity:0.94117647" />
      <path
         d="M 347.5138,62.804787 A 13.968693,14.650092 0 1 1 319.57641,62.804787 A 13.968693,14.650092 0 1 1 347.5138,62.804787 z"
         transform="matrix(0.7874753,0,0,0.7508485,67.341469,25.04312)"
         id="path3773"
         style="opacity:1;fill:#ffffff;fill-opacity:1;stroke:none;stroke-width:3.5;stroke-linecap:round;stroke-linejoin:round;stroke-miterlimit:4;stroke-dasharray:none;stroke-opacity:0.94117647" />
      <path
         d="M 347.5138,62.804787 A 13.968693,14.650092 0 1 1 319.57641,62.804787 A 13.968693,14.650092 0 1 1 347.5138,62.804787 z"
         transform="matrix(0.7158866,0,0,0.6825895,91.219521,29.330108)"
         id="path3750"
         style="opacity:1;fill:url(#linearGradient3758);fill-opacity:1;stroke:none;stroke-width:3.5;stroke-linecap:round;stroke-linejoin:round;stroke-miterlimit:4;stroke-dasharray:none;stroke-opacity:0.94117647" />
      <path
         d="M 329.90614,74.056011 C 329.92469,71.126287 329.99894,70.293973 330.35153,68.729233 C 330.61139,67.564 330.6856,67.047968 330.6856,66.565228 C 330.6856,65.499874 330.3144,64.98384 329.55349,64.98384 C 328.79258,64.98384 328.40279,65.51652 328.40279,66.548582 C 328.40279,67.047968 328.47705,67.564 328.73686,68.729233 C 329.08951,70.293973 329.14518,71.076346 329.1823,74.056011 L 329.90614,74.056011"
         id="path3808"
         style="font-size:20px;font-style:normal;font-variant:normal;font-weight:normal;font-stretch:normal;text-align:start;line-height:125%;writing-mode:lr-tb;text-anchor:start;fill:#ffffff;fill-opacity:1;stroke:#ffffff;stroke-width:1.75767887;stroke-linecap:butt;stroke-linejoin:miter;stroke-opacity:1;font-family:Century Schoolbook L;-inkscape-font-specification:Century Schoolbook L" />
      <path
         d="M 329.55349,77.145389 C 328.90391,77.145389 328.38426,77.61148 328.38426,78.177449 C 328.38426,78.760067 328.90391,79.226161 329.53496,79.226161 C 330.18453,79.226161 330.70419,78.760067 330.70419,78.177449 C 330.70419,77.61148 330.18453,77.145389 329.55349,77.145389"
         id="text3801"
         style="font-size:20px;font-style:normal;font-variant:normal;font-weight:normal;font-stretch:normal;text-align:start;line-height:125%;writing-mode:lr-tb;text-anchor:start;fill:#ffffff;fill-opacity:1;stroke:#ffffff;stroke-width:1.75767887;stroke-linecap:butt;stroke-linejoin:miter;stroke-opacity:1;font-family:Century Schoolbook L;-inkscape-font-specification:Century Schoolbook L" />
    </g>
  </g>
</svg>
