<?xml version="1.0" encoding="UTF-8" standalone="no"?>
<!-- Created with Inkscape (http://www.inkscape.org/) -->
<svg
   xmlns:svg="http://www.w3.org/2000/svg"
   xmlns="http://www.w3.org/2000/svg"
   xmlns:xlink="http://www.w3.org/1999/xlink"
   xmlns:inkscape="http://www.inkscape.org/namespaces/inkscape"
   version="1.0"
   width="48"
   height="48"
   id="svg2">
  <defs
     id="defs4">
    <linearGradient
       id="linearGradient3677">
      <stop
         id="stop3679"
         style="stop-color:#5f5f5f;stop-opacity:1"
         offset="0" />
      <stop
         id="stop3681"
         style="stop-color:#b6b6b6;stop-opacity:1"
         offset="1" />
    </linearGradient>
    <linearGradient
       id="linearGradient3667">
      <stop
         id="stop3669"
         style="stop-color:#87979e;stop-opacity:1"
         offset="0" />
      <stop
         id="stop3671"
         style="stop-color:#f3f4f5;stop-opacity:1"
         offset="1" />
    </linearGradient>
    <filter
       width="1.156912"
       height="1.7976362"
       id="filter4380"
       y="-0.39881808"
       x="-0.078456014">
      <feGaussianBlur
         id="feGaussianBlur4382"
         inkscape:collect="always"
         stdDeviation="0.99888135" />
    </filter>
    <linearGradient
       id="linearGradient4304">
      <stop
         id="stop4306"
         style="stop-color:#000000;stop-opacity:0"
         offset="0" />
      <stop
         id="stop3337"
         style="stop-color:#000000;stop-opacity:1"
         offset="0.22113283" />
      <stop
         id="stop3339"
         style="stop-color:#000000;stop-opacity:0.45147678"
         offset="0.49970275" />
      <stop
         id="stop4312"
         style="stop-color:#000000;stop-opacity:1"
         offset="0.78147936" />
      <stop
         id="stop4308"
         style="stop-color:#000000;stop-opacity:0"
         offset="1" />
    </linearGradient>
    <linearGradient
       x1="324.849"
       y1="78.968689"
       x2="357.40515"
       y2="78.968689"
       id="linearGradient3094"
       xlink:href="#linearGradient4304"
       gradientUnits="userSpaceOnUse" />
    <linearGradient
       x1="335.05887"
       y1="71.165237"
       x2="345.63184"
       y2="51.912678"
       id="linearGradient2510"
       xlink:href="#linearGradient3677"
       gradientUnits="userSpaceOnUse"
       gradientTransform="matrix(1.2558935,0,0,1.2558935,-87.216001,-15.109499)" />
    <linearGradient
       x1="347.22446"
       y1="65.846413"
       x2="344.12238"
       y2="51.081409"
       id="linearGradient4122"
       xlink:href="#linearGradient3667"
       gradientUnits="userSpaceOnUse"
       gradientTransform="matrix(1.2558935,0,0,1.2558935,-87.216001,-15.109499)" />
  </defs>
  <g
     id="artwork"
     style="display:inline">
    <g
       transform="translate(-318,-38.000011)"
       id="g4380">
      <path
         d="M 333.97928,45.212634 C 332.18212,45.215325 330.47974,45.992281 329.30892,47.292707 C 327.6799,47.893368 326.32592,49.151511 325.65898,50.824908 C 324.71313,53.198216 325.27691,55.951662 327.15035,57.732322 L 332.13468,62.755895 L 327.1896,67.740223 L 327.07186,67.818716 L 327.11111,67.857963 C 325.46238,69.417741 324.75632,71.701892 325.30576,73.90195 C 325.86354,76.135497 327.66409,77.936028 329.89762,78.49381 C 332.09763,79.043208 334.38183,78.337203 335.94161,76.688463 L 335.98086,76.72771 L 336.05935,76.60997 L 336.13784,76.531477 C 336.99137,76.19489 337.79645,75.695266 338.4534,75.000857 L 338.49264,75.040103 L 338.57114,74.922363 L 341.43614,72.057356 L 346.028,76.60997 L 346.1065,76.72771 L 346.14574,76.688463 C 347.70553,78.337212 349.98969,79.043227 352.18973,78.49381 C 353.4055,78.190189 354.50086,77.519429 355.32946,76.60997 C 357.27084,75.898572 358.78838,74.236522 359.29338,72.214343 C 359.84283,70.014284 359.13676,67.730131 357.48803,66.170356 L 357.52728,66.131109 L 357.40954,66.052616 L 352.46446,61.068289 L 357.52728,56.005468 C 359.4039,54.225287 359.95472,51.472764 358.94016,49.058807 C 357.92561,46.644898 355.49993,45.116994 352.89617,45.212634 C 351.25719,45.277359 349.7055,45.982667 348.57904,47.174967 L 348.4613,47.292707 C 347.56048,47.624909 346.73792,48.152705 346.06725,48.862574 L 343.163,51.766828 L 338.49264,47.096474 C 337.30948,45.846832 335.7002,45.214747 333.97928,45.212634 z"
         id="path4124"
         style="fill:none;fill-opacity:1;fill-rule:evenodd;stroke:#364e59;stroke-width:1.5;stroke-linecap:round;stroke-linejoin:round;stroke-miterlimit:4;stroke-dasharray:none;stroke-opacity:1" />
      <path
         d="M 356.40516,78.968689 A 15.278085,3.0055249 0 1 1 325.84899,78.968689 A 15.278085,3.0055249 0 1 1 356.40516,78.968689 z"
         transform="matrix(1.2440368,0,0,1.018758,-83.195135,-1.6629017)"
         id="path4302"
         style="opacity:0.64795915;fill:url(#linearGradient3094);fill-opacity:1;stroke:none;stroke-width:2;stroke-linecap:round;stroke-linejoin:round;stroke-miterlimit:4;stroke-dasharray:none;stroke-opacity:0.94117647;filter:url(#filter4380)" />
      <path
         d="M 333.97928,45.212634 C 332.18212,45.215325 330.47974,45.992281 329.30892,47.292707 C 327.6799,47.893368 326.32592,49.151511 325.65898,50.824908 C 324.71313,53.198216 325.27691,55.951662 327.15035,57.732322 L 332.13468,62.755895 L 327.1896,67.740223 L 327.07186,67.818716 L 327.11111,67.857963 C 325.46238,69.417741 324.75632,71.701892 325.30576,73.90195 C 325.86354,76.135497 327.66409,77.936028 329.89762,78.49381 C 332.09763,79.043208 334.38183,78.337203 335.94161,76.688463 L 335.98086,76.72771 L 336.05935,76.60997 L 336.13784,76.531477 C 336.99137,76.19489 337.79645,75.695266 338.4534,75.000857 L 338.49264,75.040103 L 338.57114,74.922363 L 341.43614,72.057356 L 346.028,76.60997 L 346.1065,76.72771 L 346.14574,76.688463 C 347.70553,78.337212 349.98969,79.043227 352.18973,78.49381 C 353.4055,78.190189 354.50086,77.519429 355.32946,76.60997 C 357.27084,75.898572 358.78838,74.236522 359.29338,72.214343 C 359.84283,70.014284 359.13676,67.730131 357.48803,66.170356 L 357.52728,66.131109 L 357.40954,66.052616 L 352.46446,61.068289 L 357.52728,56.005468 C 359.4039,54.225287 359.95472,51.472764 358.94016,49.058807 C 357.92561,46.644898 355.49993,45.116994 352.89617,45.212634 C 351.25719,45.277359 349.7055,45.982667 348.57904,47.174967 L 348.4613,47.292707 C 347.56048,47.624909 346.73792,48.152705 346.06725,48.862574 L 343.163,51.766828 L 338.49264,47.096474 C 337.30948,45.846832 335.7002,45.214747 333.97928,45.212634 z"
         id="path4117"
         style="fill:url(#linearGradient4122);fill-opacity:1;fill-rule:evenodd;stroke:none;stroke-width:5;stroke-linecap:round;stroke-linejoin:round;stroke-miterlimit:4;stroke-dasharray:none;stroke-opacity:1" />
      <path
         d="M 331.46749,46.90024 C 328.93443,46.904035 326.60488,48.451593 325.65898,50.824908 C 324.71313,53.198216 325.27691,55.951662 327.15035,57.732322 L 332.13468,62.755895 L 327.1896,67.740223 L 327.07186,67.818716 L 327.11111,67.857963 C 325.46238,69.417741 324.75632,71.701892 325.30576,73.90195 C 325.86354,76.135497 327.66409,77.936028 329.89762,78.49381 C 332.09763,79.043208 334.38183,78.337203 335.94161,76.688463 L 335.98086,76.72771 L 336.05935,76.60997 L 341.04368,71.66489 L 346.028,76.60997 L 346.1065,76.72771 L 346.14574,76.688463 C 347.70553,78.337212 349.98969,79.043227 352.18973,78.49381 C 354.42324,77.936022 356.22381,76.135521 356.78159,73.90195 C 357.33103,71.701892 356.62497,69.417738 354.97624,67.857963 L 355.01549,67.818716 L 354.89775,67.740223 L 349.95267,62.755895 L 355.01549,57.693075 C 356.8921,55.912895 357.44293,53.160371 356.42837,50.746414 C 355.41381,48.332507 352.98814,46.8046 350.38438,46.90024 C 348.74539,46.964967 347.19371,47.670274 346.06725,48.862574 L 341.04368,53.846901 L 335.98086,48.784081 C 334.79768,47.53444 333.18841,46.902354 331.46749,46.90024 z"
         id="path2554"
         style="fill:#ffffff;fill-opacity:1;fill-rule:evenodd;stroke:none;stroke-width:5;stroke-linecap:round;stroke-linejoin:round;stroke-miterlimit:4;stroke-dasharray:none;stroke-opacity:1" />
      <path
         d="M 331.46749,50.039974 C 330.18379,50.041897 329.0385,50.809831 328.56323,52.002308 C 328.08799,53.194784 328.37847,54.57164 329.30892,55.456015 L 336.6088,62.755895 L 329.30892,70.055776 C 328.44759,70.833101 328.08588,72.030606 328.367,73.156263 C 328.64811,74.281919 329.51765,75.151458 330.64331,75.43257 C 331.76898,75.713678 332.96647,75.351983 333.7438,74.49065 L 341.04368,67.190769 L 348.34356,74.49065 C 349.12088,75.351983 350.31839,75.713682 351.44404,75.43257 C 352.56969,75.151455 353.43924,74.28192 353.72035,73.156263 C 354.00147,72.030605 353.63976,70.833101 352.77843,70.055776 L 345.47855,62.755895 L 352.77843,55.456015 C 353.72605,54.557083 354.0302,53.1672 353.52412,51.963061 C 353.01802,50.758923 351.80741,49.992029 350.50212,50.039974 C 349.68203,50.072361 348.9072,50.424553 348.34356,51.021141 L 341.04368,58.321022 L 333.7438,51.021141 C 333.15168,50.395765 332.3287,50.041032 331.46749,50.039974 z"
         id="path3233"
         style="fill:url(#linearGradient2510);fill-opacity:1;fill-rule:evenodd;stroke:none;stroke-width:5;stroke-linecap:round;stroke-linejoin:round;stroke-miterlimit:4;stroke-dasharray:none;stroke-opacity:1" />
    </g>
  </g>
</svg>
