<?xml version="1.0" encoding="UTF-8"?>
<svg xmlns="http://www.w3.org/2000/svg" xmlns:dc="http://purl.org/dc/elements/1.1/" xmlns:cc="http://web.resource.org/cc/" xmlns:rdf="http://www.w3.org/1999/02/22-rdf-syntax-ns#" xmlns:svg="http://www.w3.org/2000/svg" xmlns:xlink="http://www.w3.org/1999/xlink" width="48" height="48" id="svg1872" version="1.0">
  <defs id="defs1874">
    <linearGradient id="linearGradient5898">
      <stop id="stop5900" offset="0" style="stop-color:white;stop-opacity:1;"/>
      <stop style="stop-color:#ffd700;stop-opacity:1;" offset="0.64285713" id="stop5902"/>
      <stop id="stop5904" offset="1" style="stop-color:#5f5f5f;stop-opacity:1;"/>
      <stop id="stop5906" offset="1" style="stop-color:white;stop-opacity:0;"/>
    </linearGradient>
    <radialGradient xlink:href="#linearGradient5898" id="radialGradient4947" cx="15.063359" cy="10.521582" fx="15.063359" fy="10.521582" r="6.2001014" gradientUnits="userSpaceOnUse" gradientTransform="matrix(-1.343843,0.219303,-0.241711,-1.481148,28.9352,16.76178)"/>
    <linearGradient id="linearGradient6813">
      <stop style="stop-color:white;stop-opacity:1;" offset="0" id="stop6815"/>
      <stop id="stop6817" offset="0.64285713" style="stop-color:#ffd700;stop-opacity:1;"/>
      <stop style="stop-color:#5f5f5f;stop-opacity:1;" offset="1" id="stop6819"/>
      <stop style="stop-color:white;stop-opacity:0;" offset="1" id="stop6821"/>
    </linearGradient>
    <radialGradient xlink:href="#linearGradient6813" id="radialGradient6851" gradientUnits="userSpaceOnUse" gradientTransform="matrix(1.830237,0.570707,-0.410187,1.315456,-4.016186,-5.772011)" cx="5.9328022" cy="5.6723499" fx="5.9328022" fy="5.6723499" r="6.0740099"/>
    <linearGradient id="linearGradient5906">
      <stop style="stop-color:black;stop-opacity:1;" offset="0" id="stop5908"/>
      <stop style="stop-color:black;stop-opacity:0;" offset="1" id="stop5910"/>
    </linearGradient>
    <linearGradient id="linearGradient2918">
      <stop style="stop-color:black;stop-opacity:1;" offset="0" id="stop2920"/>
      <stop style="stop-color:black;stop-opacity:0;" offset="1" id="stop2922"/>
    </linearGradient>
    <linearGradient xlink:href="#linearGradient5906" id="linearGradient21163" gradientUnits="userSpaceOnUse" gradientTransform="translate(2.876497,18.94735)" x1="17.368834" y1="18.867374" x2="12.457642" y2="16.320955"/>
    <radialGradient xlink:href="#linearGradient2918" id="radialGradient21178" gradientUnits="userSpaceOnUse" gradientTransform="matrix(0.783177,0,0,0.36998,61.90636,53.61595)" cx="26.037144" cy="45.453575" fx="26.037144" fy="45.453575" r="23.490725"/>
  </defs>
  <metadata id="metadata1877">
    <rdf:RDF>
      <cc:Work rdf:about="">
        <dc:format>image/svg+xml</dc:format>
        <dc:type rdf:resource="http://purl.org/dc/dcmitype/StillImage"/>
        <dc:title>face-smille-big</dc:title>
        <dc:date>2006-08-11</dc:date>
        <dc:creator>
          <cc:Agent>
            <dc:title>Luya Tshimbalanga</dc:title>
          </cc:Agent>
        </dc:creator>
      </cc:Work>
    </rdf:RDF>
  </metadata>
  <g id="layer1">
    <g id="g23921">
      <rect transform="matrix(0.999706,-2.425228e-2,-0.770425,0.637531,0,0)" y="61.741787" x="63.900658" height="17.382185" width="36.794754" id="rect2908" style="fill:url(#radialGradient21178);fill-opacity:1;fill-rule:nonzero;stroke:none;stroke-width:0.241;stroke-linecap:round;stroke-linejoin:round;stroke-miterlimit:4;stroke-dasharray:none;stroke-opacity:1"/>
      <path transform="matrix(3.62199,0,0,3.621986,1.72745,-1.725962)" d="M 12.073267 7.1027226 A 5.9240098 5.9240098 0 1 1  0.22524786,7.1027226 A 5.9240098 5.9240098 0 1 1  12.073267 7.1027226 z" id="path6849" style="fill:url(#radialGradient6851);fill-opacity:1;fill-rule:nonzero;stroke:url(#radialGradient4947);stroke-width:0.55218291;stroke-linecap:round;stroke-linejoin:miter;stroke-miterlimit:4;stroke-dasharray:none;stroke-opacity:1"/>
      <path id="path2140" d="M 13.617978,14.113652 C 10.365441,10.392049 8.0450234,9.6313097 5.2948333,12.463689" style="fill:none;fill-opacity:0.75;fill-rule:evenodd;stroke:black;stroke-width:1.071;stroke-linecap:round;stroke-linejoin:round;stroke-miterlimit:4;stroke-dasharray:none;stroke-opacity:1"/>
      <use height="16" width="16" transform="matrix(-1.218997,0,0,1,35.59172,1.095245)" id="use3029" xlink:href="#path2140" y="0" x="0"/>
      <path style="fill:none;fill-opacity:0.75;fill-rule:evenodd;stroke:black;stroke-width:1.53499997;stroke-linecap:round;stroke-linejoin:round;stroke-miterlimit:4;stroke-dasharray:1.53499997, 1.53499997;stroke-dashoffset:1.38149997;stroke-opacity:1" d="M 6.831566,15.655912 C 8.042704,14.516658 8.957777,12.117034 11.629973,15.523382" id="path3883"/>
      <path transform="matrix(5.600808,0,0,4.779384,-20.46714,-9.435063)" d="M 5.906041 6.2242575 A 0.59019929 1.3723586 0 1 1  4.7256424,6.2242575 A 0.59019929 1.3723586 0 1 1  5.906041 6.2242575 z" id="path2772" style="fill:#fffffc;fill-opacity:1;fill-rule:nonzero;stroke:black;stroke-width:0.08716855;stroke-linecap:round;stroke-linejoin:round;stroke-miterlimit:4;stroke-dasharray:none;stroke-opacity:1"/>
      <path transform="matrix(4.733486,0,0,4.907444,15.75305,-7.338916)" d="M -0.84027451 5.9035759 A 0.40700799 0.90592098 0 1 1  -1.6542905,5.9035759 A 0.40700799 0.90592098 0 1 1  -0.84027451 5.9035759 z" id="path3662" style="fill:#8f5902;fill-opacity:1;fill-rule:nonzero;stroke:black;stroke-width:0.104;stroke-linecap:round;stroke-linejoin:bevel;stroke-miterlimit:4;stroke-dasharray:none;stroke-opacity:1"/>
      <path id="path5913" d="M 20.582229,16.952772 C 20.469942,15.138359 24.872896,12.395327 28.054376,18.093452" style="fill:none;fill-opacity:0.75;fill-rule:evenodd;stroke:black;stroke-width:1.53499997;stroke-linecap:round;stroke-linejoin:round;stroke-miterlimit:4;stroke-dasharray:1.53499997, 1.53499997;stroke-dashoffset:0;stroke-opacity:1"/>
      <path style="fill:#fffffc;fill-opacity:1;fill-rule:nonzero;stroke:black;stroke-width:0.08716855;stroke-linecap:round;stroke-linejoin:round;stroke-miterlimit:4;stroke-dasharray:none;stroke-opacity:1" id="path2975" d="M 5.906041 6.2242575 A 0.59019929 1.2676609 0 1 1  4.7256424,6.2242575 A 0.59019929 1.2676609 0 1 1  5.906041 6.2242575 z" transform="matrix(7.715864,0,0,6.080405,-17.23723,-14.91876)"/>
      <path style="fill:#8f5902;fill-opacity:1;fill-rule:nonzero;stroke:black;stroke-width:0.104;stroke-linecap:round;stroke-linejoin:bevel;stroke-miterlimit:4;stroke-dasharray:none;stroke-opacity:1" id="path2977" d="M -0.84027451 5.9035759 A 0.40700799 0.90592098 0 1 1  -1.6542905,5.9035759 A 0.40700799 0.90592098 0 1 1  -0.84027451 5.9035759 z" transform="matrix(6.521011,0,0,6.243325,32.91558,-12.87019)"/>
      <path style="fill:black;fill-opacity:1;fill-rule:nonzero;stroke:none;stroke-width:0.104;stroke-linecap:round;stroke-linejoin:bevel;stroke-miterlimit:4;stroke-dasharray:none;stroke-opacity:1" id="path2981" d="M -0.84027451 5.9035759 A 0.40700799 0.90592098 0 1 1  -1.6542905,5.9035759 A 0.40700799 0.90592098 0 1 1  -0.84027451 5.9035759 z" transform="matrix(3.768292,0,0,3.841362,14.9948,-2.665182e-2)"/>
      <path transform="matrix(4.65466,0,0,4.661215,31.25154,-2.447617)" d="M -0.84027451 5.9035759 A 0.40700799 0.90592098 0 1 1  -1.6542905,5.9035759 A 0.40700799 0.90592098 0 1 1  -0.84027451 5.9035759 z" id="path2983" style="fill:black;fill-opacity:1;fill-rule:nonzero;stroke:none;stroke-width:0.104;stroke-linecap:round;stroke-linejoin:bevel;stroke-miterlimit:4;stroke-dasharray:none;stroke-opacity:1"/>
      <path id="path3465" d="M 27.580735,35.979506 C 22.551027,37.682658 13.427824,36.723808 8.1964592,33.960275 C 12.089763,43.122472 24.50147,50.5708 27.580735,35.979506 z " style="fill:white;fill-opacity:1;fill-rule:evenodd;stroke:black;stroke-width:0.921;stroke-linecap:butt;stroke-linejoin:miter;stroke-miterlimit:4;stroke-dasharray:none;stroke-opacity:1"/>
      <path id="path5903" d="M 11.21602,38.164725 C 18.03633,43.274281 28.438406,39.004597 26.400585,39.251411" style="fill:none;fill-opacity:0.75;fill-rule:evenodd;stroke:url(#linearGradient21163);stroke-width:0.69999999;stroke-linecap:butt;stroke-linejoin:miter;stroke-miterlimit:4;stroke-dasharray:none;stroke-opacity:1"/>
    </g>
  </g>
</svg>
