<?xml version="1.0" encoding="UTF-8"?>
<svg xmlns="http://www.w3.org/2000/svg" xmlns:dc="http://purl.org/dc/elements/1.1/" xmlns:cc="http://web.resource.org/cc/" xmlns:rdf="http://www.w3.org/1999/02/22-rdf-syntax-ns#" xmlns:svg="http://www.w3.org/2000/svg" xmlns:xlink="http://www.w3.org/1999/xlink" width="48" height="48" id="svg1872" version="1.0">
  <defs id="defs1874">
    <linearGradient id="linearGradient3964">
      <stop style="stop-color:#6b3746;stop-opacity:1;" offset="0" id="stop3966"/>
      <stop style="stop-color:#6b3746;stop-opacity:0;" offset="1" id="stop3968"/>
    </linearGradient>
    <linearGradient id="linearGradient5898">
      <stop id="stop5900" offset="0" style="stop-color:white;stop-opacity:1;"/>
      <stop style="stop-color:#ffd700;stop-opacity:1;" offset="0.64285713" id="stop5902"/>
      <stop id="stop5904" offset="1" style="stop-color:#5f5f5f;stop-opacity:1;"/>
      <stop id="stop5906" offset="1" style="stop-color:white;stop-opacity:0;"/>
    </linearGradient>
    <radialGradient xlink:href="#linearGradient5898" id="radialGradient4947" cx="15.063359" cy="10.521582" fx="15.063359" fy="10.521582" r="6.2001014" gradientUnits="userSpaceOnUse" gradientTransform="matrix(-1.343843,0.219303,-0.241711,-1.481148,28.9352,16.76178)"/>
    <linearGradient id="linearGradient6813">
      <stop style="stop-color:white;stop-opacity:1;" offset="0" id="stop6815"/>
      <stop id="stop6817" offset="0.64285713" style="stop-color:#ffd700;stop-opacity:1;"/>
      <stop style="stop-color:#5f5f5f;stop-opacity:1;" offset="1" id="stop6819"/>
      <stop style="stop-color:white;stop-opacity:0;" offset="1" id="stop6821"/>
    </linearGradient>
    <radialGradient xlink:href="#linearGradient6813" id="radialGradient6851" gradientUnits="userSpaceOnUse" gradientTransform="matrix(1.830237,0.570707,-0.410187,1.315456,-4.016186,-5.772011)" cx="5.9328022" cy="5.6723499" fx="5.9328022" fy="5.6723499" r="6.0740099"/>
    <linearGradient id="linearGradient2918">
      <stop style="stop-color:black;stop-opacity:1;" offset="0" id="stop2920"/>
      <stop style="stop-color:black;stop-opacity:0;" offset="1" id="stop2922"/>
    </linearGradient>
    <radialGradient xlink:href="#linearGradient6813" id="radialGradient5742" cx="5.4277101" cy="5.7282424" fx="5.4277101" fy="5.7282424" r="0.65328753" gradientTransform="matrix(2.155904,1.215174,-0.568286,3.780761,-2.879182,-22.5155)" gradientUnits="userSpaceOnUse"/>
    <radialGradient xlink:href="#linearGradient6813" id="radialGradient5750" cx="-1.1302732" cy="5.4906864" fx="-1.1302732" fy="5.4906864" r="0.46961898" gradientTransform="matrix(1.302727,0.425769,-0.60475,2.314285,3.711067,-6.71358)" gradientUnits="userSpaceOnUse"/>
    <linearGradient xlink:href="#linearGradient6813" id="linearGradient5776" x1="-1.7168292" y1="5.5121984" x2="-0.77759123" y2="5.5121984" gradientUnits="userSpaceOnUse"/>
    <linearGradient xlink:href="#linearGradient6813" id="linearGradient5784" x1="4.6630173" y1="5.7372246" x2="5.9695926" y2="5.7372246" gradientUnits="userSpaceOnUse"/>
    <radialGradient xlink:href="#linearGradient2918" id="radialGradient2165" gradientUnits="userSpaceOnUse" gradientTransform="matrix(0.783177,0,0,0.36998,61.90636,53.61595)" cx="26.037144" cy="45.453575" fx="26.037144" fy="45.453575" r="23.490725"/>
    <linearGradient xlink:href="#linearGradient3964" id="linearGradient3970" x1="-4.1527572" y1="11.235192" x2="0.027387599" y2="6.7134743" gradientUnits="userSpaceOnUse"/>
  </defs>
  <metadata id="metadata1877">
    <rdf:RDF>
      <cc:Work rdf:about="">
        <dc:format>image/svg+xml</dc:format>
        <dc:type rdf:resource="http://purl.org/dc/dcmitype/StillImage"/>
      </cc:Work>
    </rdf:RDF>
  </metadata>
  <g id="layer1">
    <rect style="fill:url(#radialGradient2165);fill-opacity:1;fill-rule:nonzero;stroke:none;stroke-width:0.241;stroke-linecap:round;stroke-linejoin:round;stroke-miterlimit:4;stroke-dasharray:none;stroke-opacity:1" id="rect2908" width="36.794754" height="17.382185" x="63.900658" y="61.741787" transform="matrix(0.999706,-2.425228e-2,-0.770425,0.637531,0,0)"/>
    <path style="fill:url(#radialGradient6851);fill-opacity:1;fill-rule:nonzero;stroke:url(#radialGradient4947);stroke-width:0.55218291;stroke-linecap:round;stroke-linejoin:miter;stroke-miterlimit:4;stroke-dasharray:none;stroke-opacity:1" id="path6849" d="M 12.073267 7.1027226 A 5.9240098 5.9240098 0 1 1  0.22524786,7.1027226 A 5.9240098 5.9240098 0 1 1  12.073267 7.1027226 z" transform="matrix(3.62199,0,0,3.621986,1.72745,-1.725962)"/>
    <g id="g3972">
      <path id="path2140" d="M 13.490657,15.386862 C 9.4741945,12.069883 8.2996653,11.923087 5.1675123,13.736899" style="fill:none;fill-opacity:0.75;fill-rule:evenodd;stroke:black;stroke-width:1;stroke-linecap:round;stroke-linejoin:round;stroke-miterlimit:4;stroke-dasharray:none;stroke-opacity:1"/>
      <path style="fill:none;fill-opacity:0.75;fill-rule:evenodd;stroke:black;stroke-width:1;stroke-linecap:round;stroke-linejoin:round;stroke-miterlimit:4;stroke-dasharray:none;stroke-opacity:1" d="M 18.637367,15.972823 C 21.249036,12.783165 25.219811,11.872443 30.94771,14.959465" id="use3029"/>
      <path transform="matrix(9.135605,0,0,4.717646,-24.25099,-8.172476)" d="M 4.7510835,6.6228414 A 0.59019929,1.3723586 0 1 1 5.886653,6.5731194" id="path2772" style="fill:url(#radialGradient5742);fill-opacity:1;fill-rule:nonzero;stroke:url(#linearGradient5784);stroke-width:0.08716855;stroke-linecap:round;stroke-linejoin:round;stroke-miterlimit:4;stroke-dasharray:none;stroke-opacity:1"/>
      <path transform="matrix(7.700263,0,0,6.88533,18.1174,-19.38731)" d="M -1.6510883,6.016991 A 0.40700799,0.90592098 0 1 1 -0.84405897,6.0268278" id="path3662" style="fill:url(#radialGradient5750);fill-opacity:1;fill-rule:nonzero;stroke:url(#linearGradient5776);stroke-width:0.07649623;stroke-linecap:round;stroke-linejoin:bevel;stroke-miterlimit:4;stroke-dasharray:none;stroke-opacity:1"/>
      <path id="path5913" d="M 18.382724,23.951845 C 22.904207,22.939912 25.092489,22.195461 30.820389,23.946636" style="fill:none;fill-opacity:0.75;fill-rule:evenodd;stroke:black;stroke-width:1.53499997;stroke-linecap:round;stroke-linejoin:round;stroke-miterlimit:4;stroke-dasharray:none;stroke-opacity:1"/>
      <path style="fill:none;fill-opacity:0.75;fill-rule:evenodd;stroke:black;stroke-width:1.53499997;stroke-linecap:round;stroke-linejoin:round;stroke-miterlimit:4;stroke-dasharray:none;stroke-opacity:1" d="M 4.6320609,22.439162 C 7.7530135,21.299908 8.4134441,22.083309 11.976887,23.070558" id="path3883"/>
      <g transform="matrix(2.602787,0,0,2.602787,24.25169,15.38605)" id="g2862">
        <path style="fill:#e33746;fill-opacity:1;fill-rule:nonzero;stroke:url(#linearGradient3970);stroke-width:0.24827799;stroke-linecap:round;stroke-linejoin:round;stroke-miterlimit:4;stroke-dasharray:none;stroke-dashoffset:1.38149997;stroke-opacity:1" d="M -4.3572612,7.7383952 L -4.8823963,9.2466165 C -4.8823963,10.115825 -4.4435154,11.218549 -3.602209,11.102619 C -2.4298569,10.941071 -2.0903895,10.497788 -1.7479694,9.6774964 C -1.7479694,9.6774964 -1.1216461,8.834492 -1.1763097,7.6967838 C -1.1763097,7.6967838 -3.0396704,8.4029412 -4.3572612,7.7383952 z " id="rect1906"/>
        <path style="fill:none;fill-opacity:0.75;fill-rule:evenodd;stroke:#5a1e00;stroke-width:0.40000001;stroke-linecap:round;stroke-linejoin:miter;stroke-miterlimit:4;stroke-dasharray:none;stroke-opacity:1" d="M -3.387006,9.6043314 L -2.8194305,7.9956685" id="path2799"/>
      </g>
      <path id="path3465" d="M 26.813247,33.855047 C 20.829222,36.482771 17.61091,38.334264 8.0726945,32.522398 C 15.00373,36.616711 19.058156,36.904616 26.813247,33.855047 z " style="fill:white;fill-opacity:1;fill-rule:evenodd;stroke:black;stroke-width:0.82729018;stroke-linecap:butt;stroke-linejoin:miter;stroke-miterlimit:4;stroke-dasharray:none;stroke-opacity:1"/>
    </g>
  </g>
</svg>
