<?xml version="1.0" encoding="UTF-8"?>
<svg xmlns="http://www.w3.org/2000/svg" xmlns:dc="http://purl.org/dc/elements/1.1/" xmlns:cc="http://web.resource.org/cc/" xmlns:rdf="http://www.w3.org/1999/02/22-rdf-syntax-ns#" xmlns:svg="http://www.w3.org/2000/svg" xmlns:xlink="http://www.w3.org/1999/xlink" version="1.0" width="48" height="48" viewBox="0 0 101.083 108.56" id="svg525">
  <metadata id="metadata36748">
    <rdf:RDF>
      <cc:Work rdf:about="">
        <dc:format>image/svg+xml</dc:format>
        <dc:type rdf:resource="http://purl.org/dc/dcmitype/StillImage"/>
      </cc:Work>
    </rdf:RDF>
  </metadata>
  <defs id="defs572"/>
  <g id="switch529">
    <foreignObject id="foreignObject531" content="structured text" height="1" width="1" y="0" x="0" requiredExtensions="http://ns.adobe.com/AdobeIllustrator/10.0/"/>
    <g id="g533">
      <g id="Layer_1">
        <linearGradient x1="66.6362" y1="9.4165001" x2="43.990299" y2="70.502899" id="outline_1_" gradientUnits="userSpaceOnUse">
          <stop style="stop-color:#9eabb0;stop-opacity:1" offset="0" id="stop537"/>
          <stop style="stop-color:#8e9ca1;stop-opacity:1" offset="0.0973" id="stop539"/>
          <stop style="stop-color:#495b63;stop-opacity:1" offset="0.52899998" id="stop541"/>
          <stop style="stop-color:#1e323d;stop-opacity:1" offset="0.84119999" id="stop543"/>
          <stop style="stop-color:#0e232e;stop-opacity:1" offset="1" id="stop545"/>
        </linearGradient>
        <path d="M 101.083,62.375 C 101.083,93.784 76.327,113.9 47.14,107.309 C 18.884,100.931 -0.402,72.852 0.006,41.442 C 0.407,10.047 26.973,0 47.97,0 C 78.234,0 101.083,32.732 101.083,62.375 z " style="fill:url(#outline_1_)" id="outline_5_"/>
        <linearGradient x1="67.358902" y1="15.2383" x2="46.889198" y2="70.454498" id="edge_1_" gradientUnits="userSpaceOnUse">
          <stop style="stop-color:#ffffff;stop-opacity:1" offset="0" id="stop549"/>
          <stop style="stop-color:#3e525c;stop-opacity:1" offset="1" id="stop551"/>
        </linearGradient>
        <path d="M 94.938,64.82 C 94.604,90.473 71.806,106.933 46.762,102.598 C 23.451,98.569 12.708,65.389 13.043,39.74 C 13.371,14.095 29.438,-1.349 54.594,5.85 C 77.33,12.358 95.266,39.178 94.938,64.82 z " style="fill:url(#edge_1_)" id="edge_2_"/>
        <path d="M 85.358,68.084 C 85.023,93.738 66.423,108.914 43.811,101.985 C 21.19,95.059 3.126,68.658 3.461,43.006 C 3.792,17.362 22.392,2.19 45.013,9.117 C 67.625,16.042 85.689,42.444 85.358,68.084 z " style="fill:#ffffff" id="white_2_"/>
        <g id="_x28__x5C__x29__1_">
          <g id="g556">
            <radialGradient cx="104.0708" cy="-20.148899" r="143.2336" fx="104.0708" fy="-20.148899" id="XMLID_1_" gradientUnits="userSpaceOnUse" gradientTransform="matrix(0.8771,0.3172,-5.44e-2,0.9721,-22.8603,12.4741)">
              <stop style="stop-color:#ffffff;stop-opacity:1" offset="0.0056" id="stop559"/>
              <stop style="stop-color:#ff5900;stop-opacity:1" offset="0.25" id="stop561"/>
              <stop style="stop-color:#b50000;stop-opacity:1" offset="0.5" id="stop563"/>
              <stop style="stop-color:#610000;stop-opacity:1" offset="0.75" id="stop565"/>
              <stop style="stop-color:#000000;stop-opacity:1" offset="1" id="stop567"/>
            </radialGradient>
            <path d="M 46.109,16.582 C 26.803,9.599 10.183,21.286 8.985,42.684 C 7.786,64.081 22.463,87.087 41.77,94.07 C 61.075,101.049 77.699,89.365 78.896,67.97 C 80.093,46.569 65.415,23.562 46.109,16.582 z M 42.427,82.352 C 28.955,77.483 18.718,61.432 19.553,46.507 C 19.834,41.494 21.332,37.25 23.703,34.002 L 55.018,83.085 C 51.255,84.149 46.947,83.988 42.427,82.352 z M 68.326,64.145 C 68.013,69.744 66.185,74.389 63.312,77.751 L 31.557,27.983 C 35.613,26.476 40.401,26.471 45.453,28.297 C 58.918,33.169 69.162,49.218 68.326,64.145 z " style="fill:url(#XMLID_1_)" id="path569"/>
          </g>
        </g>
      </g>
    </g>
  </g>
</svg>
