<?xml version="1.0" encoding="UTF-8"?>
<svg xmlns="http://www.w3.org/2000/svg" xmlns:dc="http://purl.org/dc/elements/1.1/" xmlns:cc="http://web.resource.org/cc/" xmlns:rdf="http://www.w3.org/1999/02/22-rdf-syntax-ns#" xmlns:svg="http://www.w3.org/2000/svg" xmlns:xlink="http://www.w3.org/1999/xlink" version="1.0" width="48" height="48" id="svg2">
  <metadata id="metadata28735">
    <rdf:RDF>
      <cc:Work rdf:about="">
        <dc:format>image/svg+xml</dc:format>
        <dc:type rdf:resource="http://purl.org/dc/dcmitype/StillImage"/>
      </cc:Work>
    </rdf:RDF>
  </metadata>
  <defs id="defs4">
    <linearGradient id="linearGradient11327">
      <stop style="stop-color:#2d2d2d;stop-opacity:1" offset="0" id="stop11329"/>
      <stop style="stop-color:#2d2d2d;stop-opacity:0" offset="1" id="stop11331"/>
    </linearGradient>
    <linearGradient id="linearGradient11319">
      <stop style="stop-color:#2d2d2d;stop-opacity:1" offset="0" id="stop11321"/>
      <stop style="stop-color:#2d2d2d;stop-opacity:0" offset="1" id="stop11323"/>
    </linearGradient>
    <linearGradient id="linearGradient8342">
      <stop style="stop-color:#364e59;stop-opacity:1" offset="0" id="stop8344"/>
      <stop style="stop-color:#788e99;stop-opacity:1" offset="1" id="stop8346"/>
    </linearGradient>
    <linearGradient id="linearGradient6383">
      <stop style="stop-color:#fcfcfc;stop-opacity:1" offset="0" id="stop6385"/>
      <stop style="stop-color:#9eabb0;stop-opacity:1" offset="1" id="stop6387"/>
    </linearGradient>
    <linearGradient x1="59.9473" y1="27.639601" x2="56.681" y2="62.6618" id="XMLID_12_" gradientUnits="userSpaceOnUse" gradientTransform="matrix(0.2735459,0,0,0.2735459,0.1821048,23.077464)">
      <stop style="stop-color:#949799;stop-opacity:1" offset="0" id="stop14"/>
      <stop style="stop-color:#111719;stop-opacity:1" offset="1" id="stop16"/>
    </linearGradient>
    <radialGradient cx="101.37607" cy="-46.451279" r="91.708801" fx="101.37607" fy="-46.451279" id="XMLID_13_" gradientUnits="userSpaceOnUse" gradientTransform="matrix(0.3627492,2.3196692e-2,3.0445659e-2,0.1870233,-19.199716,31.501119)">
      <stop style="stop-color:#dadfe2;stop-opacity:1" offset="0.35389999" id="stop21"/>
      <stop style="stop-color:#4c6570;stop-opacity:1" offset="1" id="stop23"/>
    </radialGradient>
    <radialGradient cx="64.386299" cy="17.301695" r="25.8479" fx="64.386299" fy="17.301695" id="XMLID_17_" gradientUnits="userSpaceOnUse" gradientTransform="matrix(0.3442206,-0.298621,0.3292943,0.3795778,-10.065726,40.470034)">
      <stop style="stop-color:#eaeff2;stop-opacity:1" offset="0.52249998" id="stop60"/>
      <stop style="stop-color:#a4adb2;stop-opacity:1" offset="1" id="stop64"/>
    </radialGradient>
    <linearGradient x1="34.5205" y1="35.526402" x2="39.955898" y2="44.6922" id="XMLID_19_" gradientUnits="userSpaceOnUse" gradientTransform="matrix(-0.2706463,-3.9636801e-2,-3.9636801e-2,0.2706463,34.628919,25.542878)">
      <stop style="stop-color:#02a6ff;stop-opacity:1" offset="0.1124" id="stop78"/>
      <stop style="stop-color:#029bee;stop-opacity:1" offset="0.25960001" id="stop80"/>
      <stop style="stop-color:#0295e5;stop-opacity:1" offset="0.3876" id="stop82"/>
      <stop style="stop-color:#0292e0;stop-opacity:1" offset="0.43990001" id="stop84"/>
      <stop style="stop-color:#0288d1;stop-opacity:1" offset="0.50319999" id="stop86"/>
      <stop style="stop-color:#0278b8;stop-opacity:1" offset="0.57239997" id="stop88"/>
      <stop style="stop-color:#026296;stop-opacity:1" offset="0.64569998" id="stop90"/>
      <stop style="stop-color:#01466b;stop-opacity:1" offset="0.72130001" id="stop92"/>
      <stop style="stop-color:#01273b;stop-opacity:1" offset="0.79210001" id="stop94"/>
    </linearGradient>
    <linearGradient x1="56.561501" y1="18.2285" x2="129.0771" y2="18.2285" id="XMLID_20_" gradientUnits="userSpaceOnUse" gradientTransform="matrix(0.3627492,2.3196692e-2,3.0445659e-2,0.1870233,-19.199716,31.501119)">
      <stop style="stop-color:#949799;stop-opacity:1" offset="0" id="stop99"/>
      <stop style="stop-color:#111719;stop-opacity:1" offset="1" id="stop101"/>
    </linearGradient>
    <filter id="filter5280" height="1.260852" y="-0.13042602" width="1.1472448" x="-0.07362242">
      <feGaussianBlur id="feGaussianBlur5282" stdDeviation="0.83366188"/>
    </filter>
    <linearGradient x1="17.435076" y1="49.393299" x2="53.451366" y2="72.078735" id="linearGradient7361" xlink:href="#linearGradient6383" gradientUnits="userSpaceOnUse"/>
    <linearGradient x1="47.456108" y1="74.074181" x2="35.473736" y2="48.145313" id="linearGradient8348" xlink:href="#linearGradient8342" gradientUnits="userSpaceOnUse"/>
    <linearGradient x1="26.875" y1="37" x2="41.25" y2="29.75" id="linearGradient11325" xlink:href="#linearGradient11319" gradientUnits="userSpaceOnUse"/>
    <linearGradient x1="26.875" y1="37" x2="41.25" y2="29.75" id="linearGradient11333" xlink:href="#linearGradient11327" gradientUnits="userSpaceOnUse"/>
    <filter id="filter11395" height="1.2459608" y="-0.12298039" width="1.1238058" x="-0.061902881">
      <feGaussianBlur id="feGaussianBlur11397" stdDeviation="0.48039216"/>
    </filter>
    <linearGradient x1="56.561501" y1="18.2285" x2="129.0771" y2="18.2285" id="linearGradient14428" xlink:href="#XMLID_20_" gradientUnits="userSpaceOnUse" gradientTransform="matrix(0.3627492,2.3196692e-2,3.0445659e-2,0.1870233,-19.199716,31.501119)"/>
    <linearGradient x1="34.5205" y1="35.526402" x2="39.955898" y2="44.6922" id="linearGradient14433" xlink:href="#XMLID_19_" gradientUnits="userSpaceOnUse" gradientTransform="matrix(0.2544721,-4.8181636e-2,7.0789973e-2,0.2429452,-1.942002,17.843612)"/>
    <radialGradient cx="66.060379" cy="24.770374" r="25.8479" fx="66.060379" fy="24.770374" id="radialGradient14437" xlink:href="#XMLID_17_" gradientUnits="userSpaceOnUse" gradientTransform="matrix(-0.2832128,-0.1939273,-0.1697925,0.2382179,34.750027,28.286867)"/>
    <radialGradient cx="101.37607" cy="-46.451279" r="91.708801" fx="101.37607" fy="-46.451279" id="radialGradient14454" xlink:href="#XMLID_13_" gradientUnits="userSpaceOnUse" gradientTransform="matrix(-0.3446999,3.7512858e-2,-6.4887848e-3,0.1705175,50.348164,20.778073)"/>
    <linearGradient x1="59.9473" y1="27.639601" x2="56.681" y2="62.6618" id="linearGradient14457" xlink:href="#XMLID_12_" gradientUnits="userSpaceOnUse" gradientTransform="matrix(-0.2620562,1.2469293e-2,3.3169629e-2,0.2473742,30.758998,14.043858)"/>
  </defs>
  <g id="layer1">
    <path d="M 29.581584,48.818142 L 49.636618,48.818142 C 51.78896,48.818142 53.521711,50.908804 53.521711,53.505725 L 53.521711,71.886193 C 53.521711,74.483114 51.78896,76.573776 49.636618,76.573776 L 29.581584,76.573776 C 27.429243,76.573776 25.696491,74.483114 25.696491,71.886193 L 25.696491,53.505725 C 25.696491,50.908804 27.429243,48.818142 29.581584,48.818142 z " transform="matrix(-0.903528,0.4285291,0.9553161,0.2955861,0,0)" style="fill:url(#linearGradient7361);fill-opacity:1;fill-rule:nonzero;stroke:url(#linearGradient8348);stroke-width:1.215855;stroke-linecap:round;stroke-linejoin:round;stroke-miterlimit:4;stroke-opacity:1" id="rect6329"/>
    <path d="M 23.041933,29.087595 L 12.256631,34.202893 C 11.099134,34.751877 11.356057,35.561658 12.832691,36.018545 L 23.284006,39.252306 C 24.760641,39.709194 26.88126,39.635053 28.038757,39.08607 L 38.82406,33.970771 C 39.981557,33.42179 39.724634,32.612008 38.248,32.15512 L 27.796684,28.921359 C 26.320049,28.46447 24.19943,28.538612 23.041933,29.087595 z " style="opacity:0.5;fill:none;fill-opacity:1;fill-rule:nonzero;stroke:#364e59;stroke-width:0.86240113;stroke-linecap:round;stroke-linejoin:round;stroke-miterlimit:4;stroke-opacity:1" id="path7363"/>
    <path d="M 8.8932967,21.985992 C 11.967782,19.235906 15.758306,16.177156 21.393792,15.849754 C 27.808195,15.47807 30.925445,19.970218 31.170474,20.436548 C 31.415502,20.902877 34.235408,25.344944 27.310485,29.812038 C 18.62681,35.412403 11.917493,35.461038 11.917493,35.461038 C 10.077949,35.069335 7.9184742,34.183746 6.8801711,33.459906 C 2.7411794,30.035086 5.5857712,24.900507 8.8932967,21.985992 z " style="fill:url(#linearGradient14457)" id="path18"/>
    <path d="M 5.5119946,28.33858 C 5.4260073,29.17243 5.7398412,30.692787 5.9482872,31.263923 C 6.7609057,32.241979 9.7257309,34.029789 11.56072,34.44063 C 13.810041,34.843704 21.588855,32.360709 23.932759,30.988983 C 29.720223,27.601695 31.130194,25.169307 30.869099,22.401928 C 30.421309,19.062376 25.870155,15.805298 20.796498,16.450019 C 14.011152,17.312363 7.0780363,23.339037 5.5119946,28.33858 z " style="fill:url(#radialGradient14454)" id="path25"/>
    <g transform="matrix(-0.2620562,1.2469293e-2,3.3169629e-2,0.2473742,30.758998,14.043858)" id="g27">
      <defs id="defs29">
        <path d="M 102.425,64.195 C 102.425,64.195 96.035,74.327 82.665,78.128 C 82.665,78.128 55.748,79.246 23.141,60.255 C -2.861,45.106 5.457,26.603 5.457,26.603 C 5.457,26.603 14.779,7.863 37.119,8.106 C 56.748,8.323 71.683,18.58 83.582,28.114 C 92.509,35.268 101.893,47.754 103.207,53.315 C 104.011,56.72 102.425,64.195 102.425,64.195 z " id="XMLID_3_"/>
      </defs>
      <clipPath id="XMLID_14_">
        <use id="use33" x="0" y="0" width="117.098" height="82.438004" xlink:href="#XMLID_3_"/>
      </clipPath>
      <linearGradient x1="85.041" y1="8.8446999" x2="130.03419" y2="8.8446999" id="XMLID_15_" gradientUnits="userSpaceOnUse" gradientTransform="matrix(1.3261,8.48e-2,0.1113,0.6837,-70.854,30.7943)">
        <stop style="stop-color:#949799;stop-opacity:1" offset="0" id="stop36"/>
        <stop style="stop-color:#111719;stop-opacity:1" offset="1" id="stop38"/>
      </linearGradient>
      <path d="M 103.207,52.118 C 103.332,54.594 86.891,70.222 77.016,70.472 C 74.767,70.529 46.166,63.553 45.166,57.928 C 42.675,43.917 58.666,28.928 63.741,29.263 C 65.958,25.552 72.372,22.533 75.102,21.933 C 80.227,20.808 103.582,46.993 103.207,52.118 z " style="fill:url(#XMLID_15_)" clip-path="url(#XMLID_14_)" id="path40"/>
      <radialGradient cx="-50.087475" cy="186.38953" r="21.2017" fx="-50.087475" fy="186.38953" id="XMLID_16_" gradientUnits="userSpaceOnUse" gradientTransform="matrix(0.3296,0.9441,0.9441,-0.3296,-84.0891,131.8289)">
        <stop style="stop-color:#eaeff2;stop-opacity:1" offset="0.35389999" id="stop43"/>
        <stop style="stop-color:#cdd5d9;stop-opacity:1" offset="1" id="stop53"/>
      </radialGradient>
      <path d="M 76.082,36.489 C 76.592,36.842 80.52,35.258 81.02,35.614 C 86.668,39.64 91.214,42.916 93.332,46.989 C 93.523,47.356 92.81,49.441 92.977,49.793 C 93.93,51.801 94.486,53.516 94.707,54.677 C 95.643,59.588 103.947,51.521 102.457,45.115 C 101.207,39.74 86.082,25.303 78.332,23.053 C 72.707,22.553 65.481,27.202 66.894,28.615 C 70.207,31.927 72.407,33.949 76.082,36.489 z " style="fill:url(#XMLID_16_)" clip-path="url(#XMLID_14_)" id="path55"/>
      <path d="M 66.458,28.612 C 66.458,28.612 71.222,21.778 85.103,22.382 L 107.674,44.784 C 107.674,44.784 104.962,45.305 103.1,47.109 C 102.256,53.687 96.021,56.057 94.909,56.84 C 94.909,56.84 94.997,53.469 94.008,51.77 C 93.02,50.073 92.314,50.238 92.314,50.238 C 92.314,50.238 94.572,47.947 92.718,45.915 C 90.428,43.409 84.968,38.603 80.861,35.926 C 80.861,35.926 78.832,35.505 76.616,37.132 L 66.458,28.612 z " style="fill:none;fill-rule:evenodd;stroke:#cccccc;stroke-width:1.50590003;stroke-linecap:round;stroke-linejoin:round;stroke-miterlimit:3.86369991" clip-path="url(#XMLID_14_)" id="path57"/>
    </g>
    <path d="M 12.90968,24.667296 C 12.828032,24.878558 13.436527,25.303943 13.314746,25.394879 C 12.19094,26.232304 11.139517,27.495479 10.210494,28.467779 C 10.047208,28.638612 9.1725017,28.169133 9.0528796,28.356809 C 8.7644956,28.810182 8.8563357,29.432176 8.9354452,30.022164 C 10.67363,31.184219 11.292497,31.759726 13.005744,31.612731 C 14.635303,31.472955 20.050671,29.244321 20.055012,28.621733 C 20.071586,26.308425 16.193683,21.949563 15.188403,22.65015 C 14.564202,23.085146 13.839057,23.731078 12.90968,24.667296 z " style="fill:url(#radialGradient14437)" id="path66"/>
    <path d="M 15.365789,22.942445 C 16.144498,23.266372 17.143303,24.134245 17.701601,24.653383 C 19.578376,26.398613 20.104606,28.659206 19.717082,28.890499 C 17.721244,30.080857 13.573505,31.417673 12.372685,31.36801 C 11.342682,31.323663 9.5488638,30.256119 9.086055,29.971182 C 9.0366508,29.712879 8.9268255,28.636158 9.2878566,28.510186 C 9.6807605,28.718287 10.304383,28.941798 10.879587,28.355779 C 11.318319,27.910439 12.793614,26.486437 13.388124,26.005056 C 13.84902,25.630608 13.740112,25.146848 13.330043,24.78123 C 14.060625,24.036206 15.027257,23.222442 15.365789,22.942445 z M 12.391171,31.926776 C 13.768972,31.984448 18.034467,30.579791 20.064406,29.368393 C 21.112006,28.743465 19.804591,25.851356 18.104992,24.270968 C 17.473099,23.682885 16.413584,22.771348 15.541402,22.420997 C 15.399851,22.364499 15.328709,22.351204 15.328709,22.351204 C 14.976565,22.285805 13.119611,24.118574 12.66215,24.609118 C 12.270549,25.028317 13.440537,25.194213 12.978006,25.570232 C 12.373946,26.061031 10.872316,27.506949 10.427308,27.960553 C 9.9694121,28.426223 9.7589022,27.993105 9.2996408,27.950976 C 8.4617549,27.876079 8.3776211,29.195796 8.4493271,29.726635 C 8.4841021,29.974182 8.5285502,30.167993 8.5285502,30.167993 C 8.5875744,30.419365 9.7438769,30.984735 9.989552,31.10972 C 10.715401,31.48197 11.666247,31.895795 12.391171,31.926776 z " style="fill:#cccccc" id="path68"/>
    <path d="M 10.08686,27.954845 L 12.584192,25.563827 C 12.584192,25.563827 13.035903,24.825847 12.198157,24.360585 C 11.359661,23.897599 10.675326,23.807428 9.5337068,24.669351 C 8.4106698,25.516448 8.2288659,26.729282 8.5774727,27.269849 C 9.0554571,28.014128 10.08686,27.954845 10.08686,27.954845 z " style="fill:url(#linearGradient14433);fill-rule:evenodd;stroke:#012c45;stroke-width:0.25542033;stroke-miterlimit:3.86369991" id="path96"/>
    <path d="M 28.44815,39.561613 C 28.44815,40.034574 28.362803,40.684246 28.265695,40.837979 C 27.148533,42.319503 24.937735,43.846984 22.898451,44.513068 C 20.879955,44.827099 15.951205,43.511069 12.172169,42.25139 C 8.6844585,41.08882 2.2561298,37.350268 1.4354921,33.452239 C 1.2522164,32.580996 1.2243147,32.105299 1.3444013,31.241168 C 1.4073169,30.787355 1.8852016,29.734203 2.0424905,29.524667 C 4.0333575,26.866622 13.126023,42.44889 17.894202,42.707391 C 26.112341,43.153271 24.986973,39.303933 28.44815,39.561613 z " transform="matrix(-0.9579972,4.5583913e-2,0.121258,0.9043242,28.135127,-6.8339526)" style="opacity:0.31372549;fill:url(#linearGradient14428);filter:url(#filter5280)" id="path103"/>
    <g transform="matrix(-0.3025759,-7.852085e-2,-7.852085e-2,0.3025759,46.330724,8.2325692)" id="g87">
      <linearGradient x1="30.3335" y1="-36.952599" x2="44.235199" y2="-6.1609998" id="XMLID_1_" gradientUnits="userSpaceOnUse" gradientTransform="matrix(1.145,-0.4367,-1.4e-2,1.0359,-22.7299,71.7966)">
        <stop style="stop-color:#11557a;stop-opacity:1" offset="0" id="stop3403"/>
        <stop style="stop-color:#125477;stop-opacity:1" offset="0.3091" id="stop3405"/>
        <stop style="stop-color:#134f6f;stop-opacity:1" offset="0.5043" id="stop3407"/>
        <stop style="stop-color:#174660;stop-opacity:1" offset="0.66790003" id="stop96"/>
        <stop style="stop-color:#1b3a4b;stop-opacity:1" offset="0.81389999" id="stop98"/>
        <stop style="stop-color:#212b31;stop-opacity:1" offset="0.9472" id="stop100"/>
        <stop style="stop-color:#242424;stop-opacity:1" offset="1" id="stop102"/>
      </linearGradient>
      <path d="M 19.697,4.983 C 14.558,5.196 13.595,6.696 11.026,8.195 C 5.352,22.646 5.673,40.203 10.49,43.521 C 15.307,46.839 18.581,45.231 19.376,42.45 C 19.804,40.951 19.161,38.596 16.057,38.062 C 10.983,37.187 11.984,19.946 13.274,19.863 C 15.455,19.722 17.555,8.303 24.729,15.796 C 23.23,11.835 21.409,7.125 19.697,4.983 z " style="fill:url(#XMLID_1_)" id="path104"/>
      <linearGradient x1="13.0688" y1="-26.482901" x2="25.663601" y2="-16.178101" id="XMLID_2_" gradientUnits="userSpaceOnUse" gradientTransform="matrix(1.083,-0.4212,-2.16e-2,0.9317,-11.5833,82.0273)">
        <stop style="stop-color:#949799;stop-opacity:1" offset="0" id="stop107"/>
        <stop style="stop-color:#111719;stop-opacity:1" offset="1" id="stop109"/>
      </linearGradient>
      <path d="M 32.864,96.295 C 36.932,102.934 41.856,110.426 44.425,109.356 C 46.554,108.469 46.966,102.188 45.925,93.085 C 44.854,84.095 28.475,23.61 23.978,13.869 C 22.266,13.441 17.876,16.116 13.38,19.863 C 13.595,28.64 29.652,87.947 32.864,96.295 z " style="fill:url(#XMLID_2_)" id="path111"/>
      <linearGradient x1="41.241199" y1="91.752403" x2="36.104099" y2="93.036697" id="_x3C_Path_x3E__14_" gradientUnits="userSpaceOnUse">
        <stop style="stop-color:#bec7cb;stop-opacity:1" offset="0" id="stop114"/>
        <stop style="stop-color:#ffffff;stop-opacity:1" offset="0.1629" id="stop116"/>
        <stop style="stop-color:#f1f2f3;stop-opacity:1" offset="0.178" id="stop118"/>
        <stop style="stop-color:#c2c8cb;stop-opacity:1" offset="0.2326" id="stop120"/>
        <stop style="stop-color:#99a4a9;stop-opacity:1" offset="0.28909999" id="stop122"/>
        <stop style="stop-color:#78878d;stop-opacity:1" offset="0.34650001" id="stop124"/>
        <stop style="stop-color:#5f7077;stop-opacity:1" offset="0.40529999" id="stop126"/>
        <stop style="stop-color:#4c6068;stop-opacity:1" offset="0.4659" id="stop128"/>
        <stop style="stop-color:#42565f;stop-opacity:1" offset="0.52950001" id="stop130"/>
        <stop style="stop-color:#3e535c;stop-opacity:1" offset="0.60110003" id="stop132"/>
      </linearGradient>
      <path d="M 34.031,76.296 C 36.583,75.854 40.314,82.599 42.524,91.32 C 44.737,100.048 44.503,108.243 43.944,108.338 C 43.323,108.448 36.84,101.49 34.631,92.763 C 32.419,84.047 31.485,76.738 34.031,76.296 z " style="fill:url(#_x3C_Path_x3E__14_)" id="_x3C_Path_x3E__16_"/>
      <linearGradient x1="33.691898" y1="50.755901" x2="22.104401" y2="53.805901" id="_x3C_Path_x3E__17_" gradientUnits="userSpaceOnUse" gradientTransform="matrix(0.9998,-2.19e-2,2.19e-2,0.9998,-2.4743,3.6407)">
        <stop style="stop-color:#bec7cb;stop-opacity:1" offset="0" id="stop136"/>
        <stop style="stop-color:#d3d9dc;stop-opacity:1" offset="0.0563" id="stop138"/>
        <stop style="stop-color:#ebeeef;stop-opacity:1" offset="0.1401" id="stop140"/>
        <stop style="stop-color:#fafbfb;stop-opacity:1" offset="0.2173" id="stop142"/>
        <stop style="stop-color:#ffffff;stop-opacity:1" offset="0.2809" id="stop144"/>
        <stop style="stop-color:#b5bdc0;stop-opacity:1" offset="0.5165" id="stop146"/>
        <stop style="stop-color:#75848a;stop-opacity:1" offset="0.7414" id="stop148"/>
        <stop style="stop-color:#4d6069;stop-opacity:1" offset="0.90429997" id="stop150"/>
        <stop style="stop-color:#3e535c;stop-opacity:1" offset="0.98879999" id="stop152"/>
      </linearGradient>
      <path d="M 35.433,97.581 C 38.645,99.026 42.714,97.469 44.586,95.172 C 44.818,93.876 25.315,17.478 21.336,11.319 C 20.797,10.629 13.799,12.237 13.099,12.844 C 11.977,18.257 32.061,91.318 35.433,97.581 z " style="fill:url(#_x3C_Path_x3E__17_)" id="_x3C_Path_x3E__15_"/>
      <linearGradient x1="26.2227" y1="42.879398" x2="17.4095" y2="44.424198" id="linearGradient3441" gradientUnits="userSpaceOnUse" gradientTransform="matrix(0.9529,-1.36e-2,2.91e-2,0.9985,3.7806,2.253)">
        <stop style="stop-color:#028bd6;stop-opacity:1" offset="0" id="stop156"/>
        <stop style="stop-color:#02a6ff;stop-opacity:1" offset="0.2809" id="stop158"/>
        <stop style="stop-color:#0295e5;stop-opacity:1" offset="0.47749999" id="stop160"/>
        <stop style="stop-color:#0293e2;stop-opacity:1" offset="0.5704" id="stop162"/>
        <stop style="stop-color:#028cd7;stop-opacity:1" offset="0.65079999" id="stop164"/>
        <stop style="stop-color:#0280c5;stop-opacity:1" offset="0.72659999" id="stop166"/>
        <stop style="stop-color:#0270ac;stop-opacity:1" offset="0.79960001" id="stop168"/>
        <stop style="stop-color:#015b8c;stop-opacity:1" offset="0.87050003" id="stop170"/>
        <stop style="stop-color:#014265;stop-opacity:1" offset="0.93889999" id="stop172"/>
        <stop style="stop-color:#01273b;stop-opacity:1" offset="1" id="stop174"/>
      </linearGradient>
      <path d="M 30.156,39.355 C 27.681,36.393 21.392,40.733 20.139,45.877 C 20.817,48.43 21.704,51.985 21.988,53.11 C 24.341,44.439 31.246,41.487 32.591,47.949 C 32.149,45.642 30.422,39.566 30.156,39.355 z " style="fill:url(#XMLID_3_)" id="path176"/>
      <linearGradient x1="14.3682" y1="24.540001" x2="13.0682" y2="37.5392" id="_x3C_Path_x3E__18_" gradientUnits="userSpaceOnUse">
        <stop style="stop-color:#02a6ff;stop-opacity:1" offset="0" id="stop179"/>
        <stop style="stop-color:#0295e5;stop-opacity:1" offset="0.2247" id="stop181"/>
        <stop style="stop-color:#0293e2;stop-opacity:1" offset="0.3626" id="stop183"/>
        <stop style="stop-color:#028cd7;stop-opacity:1" offset="0.48190001" id="stop185"/>
        <stop style="stop-color:#0280c5;stop-opacity:1" offset="0.59429997" id="stop187"/>
        <stop style="stop-color:#0270ac;stop-opacity:1" offset="0.7026" id="stop189"/>
        <stop style="stop-color:#015b8c;stop-opacity:1" offset="0.80779999" id="stop191"/>
        <stop style="stop-color:#014265;stop-opacity:1" offset="0.90939999" id="stop193"/>
        <stop style="stop-color:#01273b;stop-opacity:1" offset="1" id="stop195"/>
      </linearGradient>
      <path d="M 14.879,43.788 C 19.893,43.734 18.174,38.791 15.308,38.854 C 6.516,33.066 13.513,13.355 14.608,12.739 C 15.892,12.017 15.102,8.408 14.059,8.495 C 12.302,8.644 1.76,42.381 14.879,43.788 z " style="fill:url(#_x3C_Path_x3E__18_)" id="_x3C_Path_x3E__133_"/>
      <linearGradient x1="44.131802" y1="85.086403" x2="44.131802" y2="61.3853" id="_x3C_Path_x3E__19_" gradientUnits="userSpaceOnUse" gradientTransform="matrix(-0.2603,-0.7834,-0.8492,6.16e-2,86.9077,56.6778)">
        <stop style="stop-color:#02a6ff;stop-opacity:1" offset="0" id="stop199"/>
        <stop style="stop-color:#0295e5;stop-opacity:1" offset="0.2247" id="stop201"/>
        <stop style="stop-color:#0293e2;stop-opacity:1" offset="0.3626" id="stop203"/>
        <stop style="stop-color:#028cd7;stop-opacity:1" offset="0.48190001" id="stop205"/>
        <stop style="stop-color:#0280c5;stop-opacity:1" offset="0.59429997" id="stop207"/>
        <stop style="stop-color:#0270ac;stop-opacity:1" offset="0.7026" id="stop209"/>
        <stop style="stop-color:#015b8c;stop-opacity:1" offset="0.80779999" id="stop211"/>
        <stop style="stop-color:#014265;stop-opacity:1" offset="0.90939999" id="stop213"/>
        <stop style="stop-color:#01273b;stop-opacity:1" offset="1" id="stop215"/>
      </linearGradient>
      <path d="M 13.975,44.072 C 18.989,44.018 16.676,39.434 13.809,39.497 C 5.017,33.708 12.014,13.998 13.109,13.382 C 14.393,12.661 13.603,9.051 12.56,9.138 C 10.803,9.286 2.68,42.866 13.975,44.072 z " style="fill:url(#_x3C_Path_x3E__19_)" id="_x3C_Path_x3E__187_"/>
      <linearGradient x1="27.2642" y1="9.7631998" x2="12.4351" y2="14.1152" id="_x3C_Path_x3E__20_" gradientUnits="userSpaceOnUse">
        <stop style="stop-color:#028bd6;stop-opacity:1" offset="0" id="stop219"/>
        <stop style="stop-color:#02a6ff;stop-opacity:1" offset="0.2809" id="stop221"/>
        <stop style="stop-color:#0295e5;stop-opacity:1" offset="0.47749999" id="stop223"/>
        <stop style="stop-color:#0293e2;stop-opacity:1" offset="0.5704" id="stop225"/>
        <stop style="stop-color:#028cd7;stop-opacity:1" offset="0.65079999" id="stop227"/>
        <stop style="stop-color:#0280c5;stop-opacity:1" offset="0.72659999" id="stop229"/>
        <stop style="stop-color:#0270ac;stop-opacity:1" offset="0.79960001" id="stop231"/>
        <stop style="stop-color:#015b8c;stop-opacity:1" offset="0.87050003" id="stop233"/>
        <stop style="stop-color:#014265;stop-opacity:1" offset="0.93889999" id="stop235"/>
        <stop style="stop-color:#01273b;stop-opacity:1" offset="1" id="stop237"/>
      </linearGradient>
      <path d="M 14.077,20.184 C 17.128,13.279 20.179,11.995 22.501,13.932 C 22.743,13.868 20.008,6.991 18.573,6.214 C 17.283,5.517 12.721,7.949 12.521,8.802 C 12.151,10.366 13.808,20.23 14.077,20.184 z " style="fill:url(#_x3C_Path_x3E__20_)" id="_x3C_Path_x3E__13_"/>
    </g>
    <path d="M 5.8292279,36.047849 L 4.1454848,36.691163 C 3.7703878,36.869066 3.8536459,37.131483 4.332162,37.279541 L 7.7189998,38.327469 C 8.1975158,38.475527 8.8847208,38.451502 9.2598178,38.273599 L 10.943562,37.630285 C 11.318659,37.452383 11.235401,37.189966 10.756885,37.041907 L 7.3700458,35.993979 C 6.8915298,35.84592 6.2043248,35.869947 5.8292279,36.047849 z " style="opacity:0.5;fill:none;fill-opacity:1;fill-rule:nonzero;stroke:#364e59;stroke-width:0.75;stroke-linecap:round;stroke-linejoin:round;stroke-miterlimit:4;stroke-opacity:1" id="path7367"/>
    <path d="M 12.922823,38.175927 L 11.23908,38.819241 C 10.863983,38.997144 10.947241,39.259561 11.425757,39.407619 L 14.812596,40.455547 C 15.291112,40.603605 15.978317,40.57958 16.353414,40.401677 L 18.037158,39.758363 C 18.412255,39.580461 18.328997,39.318044 17.850481,39.169985 L 14.463642,38.122057 C 13.985125,37.973998 13.29792,37.998025 12.922823,38.175927 z " style="opacity:0.5;fill:none;fill-opacity:1;fill-rule:nonzero;stroke:#364e59;stroke-width:0.75;stroke-linecap:round;stroke-linejoin:round;stroke-miterlimit:4;stroke-opacity:1" id="path7369"/>
    <path d="M 20.489326,40.540459 L 18.805583,41.183773 C 18.430486,41.361676 18.513744,41.624093 18.99226,41.772151 L 22.379099,42.820079 C 22.857615,42.968137 23.54482,42.944112 23.919917,42.766209 L 25.603661,42.122895 C 25.978758,41.944993 25.8955,41.682576 25.416984,41.534517 L 22.030145,40.486589 C 21.551628,40.33853 20.864423,40.362557 20.489326,40.540459 z " style="opacity:0.5;fill:none;fill-opacity:1;fill-rule:nonzero;stroke:#364e59;stroke-width:0.75;stroke-linecap:round;stroke-linejoin:round;stroke-miterlimit:4;stroke-opacity:1" id="path7371"/>
    <path d="M 24.5,37.75 L 27.25,37.25 L 42.125,30.125 L 39.5,29.375 L 26.125,35.875 L 24.5,37.75 z " style="opacity:0.61764706;fill:url(#linearGradient11325);fill-opacity:1;fill-rule:evenodd;stroke:url(#linearGradient11333);stroke-width:1px;stroke-linecap:round;stroke-linejoin:round;stroke-opacity:1;filter:url(#filter11395)" id="path10288"/>
  </g>
</svg>
