<?xml version="1.0" encoding="UTF-8" standalone="no"?>
<!-- Created with Inkscape (http://www.inkscape.org/) -->
<svg
   xmlns:dc="http://purl.org/dc/elements/1.1/"
   xmlns:cc="http://creativecommons.org/ns#"
   xmlns:rdf="http://www.w3.org/1999/02/22-rdf-syntax-ns#"
   xmlns:svg="http://www.w3.org/2000/svg"
   xmlns="http://www.w3.org/2000/svg"
   xmlns:xlink="http://www.w3.org/1999/xlink"
   xmlns:sodipodi="http://sodipodi.sourceforge.net/DTD/sodipodi-0.dtd"
   xmlns:inkscape="http://www.inkscape.org/namespaces/inkscape"
   width="48"
   height="48"
   id="svg2"
   sodipodi:version="0.32"
   inkscape:version="0.46"
   version="1.0"
   sodipodi:docname="accessories-character-map48.svg"
   inkscape:output_extension="org.inkscape.output.svg.inkscape">
  <defs
     id="defs4">
    <linearGradient
       id="linearGradient3548">
      <stop
         style="stop-color:#ffffff;stop-opacity:1;"
         offset="0"
         id="stop3550" />
      <stop
         style="stop-color:#9eabb0;stop-opacity:1;"
         offset="1"
         id="stop3552" />
    </linearGradient>
    <linearGradient
       id="linearGradient3540">
      <stop
         id="stop3542"
         offset="0"
         style="stop-color:#2d2d2d;stop-opacity:0.40140846;" />
      <stop
         style="stop-color:#2d2d2d;stop-opacity:1;"
         offset="0.5"
         id="stop3546" />
      <stop
         id="stop3544"
         offset="1"
         style="stop-color:#2d2d2d;stop-opacity:0.71830988;" />
    </linearGradient>
    <linearGradient
       id="linearGradient3259">
      <stop
         style="stop-color:#364e59;stop-opacity:1;"
         offset="0"
         id="stop3261" />
      <stop
         style="stop-color:#9eabb0;stop-opacity:1;"
         offset="1"
         id="stop3263" />
    </linearGradient>
    <inkscape:perspective
       sodipodi:type="inkscape:persp3d"
       inkscape:vp_x="0 : 526.18109 : 1"
       inkscape:vp_y="0 : 1000 : 0"
       inkscape:vp_z="744.09448 : 526.18109 : 1"
       inkscape:persp3d-origin="372.04724 : 350.78739 : 1"
       id="perspective10" />
    <linearGradient
       inkscape:collect="always"
       xlink:href="#linearGradient3259"
       id="linearGradient3297"
       x1="24.380701"
       y1="14.178717"
       x2="20.804739"
       y2="-4.6487813"
       gradientUnits="userSpaceOnUse" />
    <linearGradient
       inkscape:collect="always"
       xlink:href="#linearGradient3259"
       id="linearGradient3299"
       gradientUnits="userSpaceOnUse"
       gradientTransform="matrix(1.0087339,0,0,1.0169288,-0.1236616,-0.5016161)"
       x1="38.627171"
       y1="44.842583"
       x2="16.980558"
       y2="3.0521564" />
    <linearGradient
       inkscape:collect="always"
       xlink:href="#linearGradient3259"
       id="linearGradient3301"
       gradientUnits="userSpaceOnUse"
       gradientTransform="matrix(1.0087339,0,0,1.0169288,-0.1236616,-0.5016161)"
       x1="38.627171"
       y1="44.842583"
       x2="16.980558"
       y2="3.0521564" />
    <linearGradient
       inkscape:collect="always"
       xlink:href="#linearGradient3259"
       id="linearGradient3310"
       gradientUnits="userSpaceOnUse"
       gradientTransform="matrix(1.0087339,0,0,1.0169288,-0.1236616,-0.5016161)"
       x1="38.627171"
       y1="44.842583"
       x2="16.980558"
       y2="3.0521564" />
    <linearGradient
       inkscape:collect="always"
       xlink:href="#linearGradient3259"
       id="linearGradient3312"
       gradientUnits="userSpaceOnUse"
       gradientTransform="matrix(1.0087339,0,0,1.0169288,-0.1236616,-0.5016161)"
       x1="38.627171"
       y1="44.842583"
       x2="16.980558"
       y2="3.0521564" />
    <linearGradient
       inkscape:collect="always"
       xlink:href="#linearGradient3259"
       id="linearGradient3314"
       gradientUnits="userSpaceOnUse"
       x1="24.380701"
       y1="14.178717"
       x2="20.804739"
       y2="-4.6487813" />
    <linearGradient
       inkscape:collect="always"
       xlink:href="#linearGradient3259"
       id="linearGradient3318"
       gradientUnits="userSpaceOnUse"
       x1="24.380701"
       y1="14.178717"
       x2="20.804739"
       y2="-4.6487813" />
    <linearGradient
       inkscape:collect="always"
       xlink:href="#linearGradient3259"
       id="linearGradient3321"
       gradientUnits="userSpaceOnUse"
       gradientTransform="matrix(1.0087339,0,0,1.0169288,-0.1236616,-0.5016161)"
       x1="38.627171"
       y1="44.842583"
       x2="16.980558"
       y2="3.0521564" />
    <linearGradient
       inkscape:collect="always"
       xlink:href="#linearGradient3259"
       id="linearGradient3323"
       gradientUnits="userSpaceOnUse"
       gradientTransform="matrix(1.0087339,0,0,1.0169288,-0.1236616,-0.5016161)"
       x1="38.627171"
       y1="44.842583"
       x2="16.980558"
       y2="3.0521564" />
    <filter
       inkscape:collect="always"
       id="filter3528"
       x="-0.091787437"
       width="1.1835749"
       y="-0.28643219"
       height="1.5728644">
      <feGaussianBlur
         inkscape:collect="always"
         stdDeviation="1.5547537"
         id="feGaussianBlur3530" />
    </filter>
    <linearGradient
       inkscape:collect="always"
       xlink:href="#linearGradient3540"
       id="linearGradient3538"
       x1="6.5362129"
       y1="38.817551"
       x2="47.188931"
       y2="38.817551"
       gradientUnits="userSpaceOnUse" />
    <linearGradient
       inkscape:collect="always"
       xlink:href="#linearGradient3548"
       id="linearGradient3554"
       x1="18.848833"
       y1="11.081902"
       x2="42.213375"
       y2="38.00869"
       gradientUnits="userSpaceOnUse" />
  </defs>
  <sodipodi:namedview
     id="base"
     pagecolor="#ffffff"
     bordercolor="#666666"
     borderopacity="1.0"
     inkscape:pageopacity="0.0"
     inkscape:pageshadow="2"
     inkscape:zoom="15.333333"
     inkscape:cx="24.519224"
     inkscape:cy="23.688673"
     inkscape:document-units="px"
     inkscape:current-layer="layer2"
     showgrid="true"
     showguides="true"
     inkscape:guide-bbox="true"
     inkscape:window-width="1280"
     inkscape:window-height="951"
     inkscape:window-x="0"
     inkscape:window-y="25">
    <inkscape:grid
       type="axonomgrid"
       id="grid2383"
       units="px"
       visible="true"
       enabled="true"
       spacingy="1px"
       gridanglex="16.25"
       gridanglez="24.5"
       empspacing="1" />
    <sodipodi:guide
       orientation="1,0"
       position="4.7192755,30.240621"
       id="guide2394" />
  </sodipodi:namedview>
  <metadata
     id="metadata7">
    <rdf:RDF>
      <cc:Work
         rdf:about="">
        <dc:format>image/svg+xml</dc:format>
        <dc:type
           rdf:resource="http://purl.org/dc/dcmitype/StillImage" />
      </cc:Work>
    </rdf:RDF>
  </metadata>
  <g
     inkscape:label="Calque 1"
     inkscape:groupmode="layer"
     id="layer1" />
  <g
     inkscape:groupmode="layer"
     id="layer2"
     inkscape:label="text">
    <path
       style="opacity:0.98999999000000005;fill:url(#linearGradient3538);fill-opacity:1.0;stroke:none;stroke-width:0.92125027999999998;stroke-linecap:round;stroke-linejoin:round;stroke-miterlimit:4;stroke-opacity:1;filter:url(#filter3528)"
       d="M 14.69314,32.30395 L 47.188931,41.775572 L 39.032003,45.331148 L 6.5362127,35.859527 L 14.69314,32.30395 z"
       id="rect3325"
       sodipodi:nodetypes="ccccc" />
    <path
       style="opacity:0.98999999;fill:url(#linearGradient3321);fill-opacity:1;stroke:url(#linearGradient3323);stroke-width:1.01586163;stroke-linecap:round;stroke-linejoin:round;stroke-miterlimit:4;stroke-dasharray:none;stroke-opacity:1"
       d="M 13.021402,2.294938 C 11.915746,2.2064286 7.2858594,3.9236675 7.5364119,6.7757806 L 7.5364119,30.641829 C 7.5364119,33.184527 9.4651304,35.809432 11.886577,36.520948 L 35.938577,43.575892 C 38.651329,44.383777 42.306209,41.234317 42.30621,39.253945 L 42.30621,15.387897 C 42.30621,12.845198 40.377491,10.220296 37.956045,9.5087768 L 13.904045,2.4538332 C 13.601365,2.3648934 13.306447,2.3177562 13.021402,2.294938 z"
       id="rect2387"
       sodipodi:nodetypes="cccccccccc" />
    <rect
       transform="matrix(0.9600502,0.279828,0,1,0,0)"
       ry="4.5133038"
       y="0.43736234"
       x="7.8952546"
       height="32.495789"
       width="33.848011"
       id="rect2389"
       style="opacity:0.98999999000000005;fill:url(#linearGradient3554);fill-opacity:1;stroke:url(#linearGradient3318);stroke-width:0.92125027999999998;stroke-linecap:round;stroke-linejoin:round;stroke-miterlimit:4;stroke-dasharray:none;stroke-opacity:1" />
    <path
       style="font-size:32px;font-style:normal;font-variant:normal;font-weight:bold;font-stretch:normal;text-align:start;line-height:125%;writing-mode:lr-tb;text-anchor:start;fill:#2d2d2d;fill-opacity:1;stroke:none;stroke-width:1px;stroke-linecap:butt;stroke-linejoin:miter;stroke-opacity:1;font-family:URW Gothic L;-inkscape-font-specification:URW Gothic L Semi-Bold"
       d="M 33.187735,19.763825 L 29.283735,18.625917 L 29.283735,20.993918 C 27.811736,18.612872 26.051732,17.267878 23.491735,16.52171 C 18.24374,14.992066 14.467735,17.827471 14.467735,23.235465 C 14.467735,28.57946 18.21174,33.542739 23.395735,35.053729 C 25.891732,35.781243 27.587737,35.475579 29.283735,34.049917 L 29.283735,36.353918 L 33.187735,37.491825 L 33.187735,19.763825 M 23.939735,20.556289 C 26.979732,21.442364 29.155735,24.348612 29.155735,27.580608 C 29.155735,28.860607 28.643734,30.183375 27.875735,30.855524 C 27.011736,31.627691 25.635733,31.802627 24.003735,31.326945 C 20.899738,30.422216 18.755735,27.685294 18.755735,24.581297 C 18.755735,21.349301 20.899738,19.670215 23.939735,20.556289 M 20.995735,13.586196 C 22.211734,13.236626 22.435736,13.205916 23.235735,13.439093 C 23.747734,13.588327 24.067736,13.745599 24.963735,14.326757 C 25.795734,14.857262 26.371735,15.15315 26.851735,15.293057 C 27.971734,15.619505 28.835736,15.359337 29.859735,14.409805 L 28.131735,11.314141 C 27.459736,11.886271 26.819734,12.019729 25.987735,11.777225 C 25.571735,11.655972 25.123734,11.429392 24.483735,10.986851 C 23.555736,10.332365 23.235734,10.175093 22.563735,9.9792236 C 21.219736,9.5874853 20.387734,9.7289806 19.267735,10.522532 L 20.995735,13.586196"
       id="text2397" />
  </g>
</svg>
