<?xml version="1.0" encoding="UTF-8" standalone="no"?>
<!-- Created with Inkscape (http://www.inkscape.org/) -->
<svg
   xmlns:dc="http://purl.org/dc/elements/1.1/"
   xmlns:cc="http://creativecommons.org/ns#"
   xmlns:rdf="http://www.w3.org/1999/02/22-rdf-syntax-ns#"
   xmlns:svg="http://www.w3.org/2000/svg"
   xmlns="http://www.w3.org/2000/svg"
   xmlns:xlink="http://www.w3.org/1999/xlink"
   xmlns:sodipodi="http://sodipodi.sourceforge.net/DTD/sodipodi-0.dtd"
   xmlns:inkscape="http://www.inkscape.org/namespaces/inkscape"
   width="48"
   height="48"
   id="svg2"
   sodipodi:version="0.32"
   inkscape:version="0.45+devel"
   version="1.0"
   sodipodi:docname="multimedia-volume-control48a.svg"
   inkscape:output_extension="org.inkscape.output.svg.inkscape"
   inkscape:export-filename="/home/luya/Modèles/development/draft/apps/multimedia-volume-control48a.png"
   inkscape:export-xdpi="90"
   inkscape:export-ydpi="90">
  <defs
     id="defs4">
    <inkscape:perspective
       sodipodi:type="inkscape:persp3d"
       inkscape:vp_x="-50 : 600 : 1"
       inkscape:vp_y="0 : 1000 : 0"
       inkscape:vp_z="700 : 600 : 1"
       inkscape:persp3d-origin="300 : 400 : 1"
       id="perspective87" />
    <inkscape:perspective
       sodipodi:type="inkscape:persp3d"
       inkscape:vp_x="-50 : 600 : 1"
       inkscape:vp_y="0 : 1000 : 0"
       inkscape:vp_z="700 : 600 : 1"
       inkscape:persp3d-origin="300 : 400 : 1"
       id="perspective2471" />
    <linearGradient
       id="linearGradient4120">
      <stop
         id="stop4122"
         offset="0"
         style="stop-color:#364e59;stop-opacity:1;" />
      <stop
         id="stop4124"
         offset="1"
         style="stop-color:#fbfcfd;stop-opacity:1;" />
    </linearGradient>
    <linearGradient
       id="linearGradient3542">
      <stop
         style="stop-color:#364e59;stop-opacity:1;"
         offset="0"
         id="stop3544" />
      <stop
         style="stop-color:#364e59;stop-opacity:0;"
         offset="1"
         id="stop3546" />
    </linearGradient>
    <linearGradient
       inkscape:collect="always"
       id="linearGradient3534">
      <stop
         style="stop-color:#364e59;stop-opacity:1;"
         offset="0"
         id="stop3536" />
      <stop
         style="stop-color:#364e59;stop-opacity:0;"
         offset="1"
         id="stop3538" />
    </linearGradient>
    <linearGradient
       id="linearGradient3522">
      <stop
         style="stop-color:#ffffff;stop-opacity:1;"
         offset="0"
         id="stop3524" />
      <stop
         id="stop3528"
         offset="0.5"
         style="stop-color:#cccccc;stop-opacity:1;" />
      <stop
         style="stop-color:#9eabb0;stop-opacity:1;"
         offset="1"
         id="stop3526" />
    </linearGradient>
    <inkscape:perspective
       sodipodi:type="inkscape:persp3d"
       inkscape:vp_x="-50 : 600 : 1"
       inkscape:vp_y="0 : 1000 : 0"
       inkscape:vp_z="700 : 600 : 1"
       inkscape:persp3d-origin="300 : 400 : 1"
       id="perspective2714" />
    <linearGradient
       id="linearGradient4545">
      <stop
         id="stop4547"
         offset="0"
         style="stop-color:#cccccc;stop-opacity:1;" />
      <stop
         id="stop4549"
         offset="1"
         style="stop-color:#9eabb0;stop-opacity:1;" />
    </linearGradient>
    <linearGradient
       id="linearGradient4537">
      <stop
         style="stop-color:#cccccc;stop-opacity:1;"
         offset="0"
         id="stop4539" />
      <stop
         style="stop-color:#cccccc;stop-opacity:0;"
         offset="1"
         id="stop4541" />
    </linearGradient>
    <linearGradient
       id="linearGradient4505">
      <stop
         style="stop-color:#9eabb0;stop-opacity:1;"
         offset="0"
         id="stop4507" />
      <stop
         style="stop-color:#364e59;stop-opacity:1;"
         offset="1"
         id="stop4509" />
    </linearGradient>
    <linearGradient
       id="linearGradient4497">
      <stop
         style="stop-color:#cccccc;stop-opacity:1;"
         offset="0"
         id="stop4499" />
      <stop
         style="stop-color:#cccccc;stop-opacity:0;"
         offset="1"
         id="stop4501" />
    </linearGradient>
    <inkscape:perspective
       sodipodi:type="inkscape:persp3d"
       id="perspective10"
       inkscape:vp_x="-50 : 600 : 1"
       inkscape:vp_y="0 : 1000 : 0"
       inkscape:vp_z="700 : 600 : 1"
       inkscape:persp3d-origin="300 : 400 : 1" />
    <inkscape:perspective
       inkscape:persp3d-origin="300 : 400 : 1"
       inkscape:vp_z="700 : 600 : 1"
       inkscape:vp_y="0 : 1000 : 0"
       inkscape:vp_x="-50 : 600 : 1"
       id="perspective3657"
       sodipodi:type="inkscape:persp3d" />
    <linearGradient
       inkscape:collect="always"
       xlink:href="#linearGradient3522"
       id="linearGradient3560"
       gradientUnits="userSpaceOnUse"
       x1="9.0206652"
       y1="8.0745001"
       x2="8.5338469"
       y2="11.006666" />
    <linearGradient
       inkscape:collect="always"
       xlink:href="#linearGradient3534"
       id="linearGradient3562"
       gradientUnits="userSpaceOnUse"
       x1="8.0323887"
       y1="7.0926185"
       x2="8.0323887"
       y2="-10.488256" />
    <linearGradient
       inkscape:collect="always"
       xlink:href="#linearGradient4505"
       id="linearGradient3564"
       gradientUnits="userSpaceOnUse"
       gradientTransform="matrix(0.9239099,0,0,0.9234012,0.5984032,0.5299432)"
       x1="7.8644066"
       y1="11.147391"
       x2="18.528753"
       y2="-11.652246" />
    <linearGradient
       inkscape:collect="always"
       xlink:href="#linearGradient3542"
       id="linearGradient3566"
       gradientUnits="userSpaceOnUse"
       gradientTransform="matrix(0.9239099,0,0,0.9234012,0.5984032,0.5299432)"
       x1="8.5775738"
       y1="15.75997"
       x2="18.528753"
       y2="-11.652246" />
    <linearGradient
       inkscape:collect="always"
       xlink:href="#linearGradient3522"
       id="linearGradient3568"
       gradientUnits="userSpaceOnUse"
       x1="9.3537226"
       y1="1.7464027"
       x2="8.5338469"
       y2="11.006666" />
    <linearGradient
       inkscape:collect="always"
       xlink:href="#linearGradient4505"
       id="linearGradient3570"
       gradientUnits="userSpaceOnUse"
       x1="5.2803679"
       y1="19.278877"
       x2="5.2978892"
       y2="13.072223" />
    <linearGradient
       inkscape:collect="always"
       xlink:href="#linearGradient4505"
       id="linearGradient3572"
       gradientUnits="userSpaceOnUse"
       x1="5.2803679"
       y1="19.278877"
       x2="5.2978892"
       y2="13.072223" />
    <inkscape:perspective
       id="perspective3972"
       inkscape:persp3d-origin="300 : 400 : 1"
       inkscape:vp_z="700 : 600 : 1"
       inkscape:vp_y="0 : 1000 : 0"
       inkscape:vp_x="-50 : 600 : 1"
       sodipodi:type="inkscape:persp3d" />
    <linearGradient
       inkscape:collect="always"
       xlink:href="#linearGradient3522"
       id="linearGradient4031"
       gradientUnits="userSpaceOnUse"
       x1="9.0206652"
       y1="8.0745001"
       x2="8.5338469"
       y2="11.006666" />
    <linearGradient
       inkscape:collect="always"
       xlink:href="#linearGradient3534"
       id="linearGradient4033"
       gradientUnits="userSpaceOnUse"
       x1="8.0323887"
       y1="7.0926185"
       x2="8.0323887"
       y2="-10.488256" />
    <linearGradient
       inkscape:collect="always"
       xlink:href="#linearGradient4505"
       id="linearGradient4035"
       gradientUnits="userSpaceOnUse"
       gradientTransform="matrix(0.9239099,0,0,0.9234012,0.5984032,0.5299432)"
       x1="7.8644066"
       y1="11.147391"
       x2="18.528753"
       y2="-11.652246" />
    <linearGradient
       inkscape:collect="always"
       xlink:href="#linearGradient3542"
       id="linearGradient4037"
       gradientUnits="userSpaceOnUse"
       gradientTransform="matrix(0.9239099,0,0,0.9234012,0.5984032,0.5299432)"
       x1="8.5775738"
       y1="15.75997"
       x2="18.528753"
       y2="-11.652246" />
    <linearGradient
       inkscape:collect="always"
       xlink:href="#linearGradient3522"
       id="linearGradient4039"
       gradientUnits="userSpaceOnUse"
       x1="9.3537226"
       y1="1.7464027"
       x2="8.5338469"
       y2="11.006666" />
    <linearGradient
       inkscape:collect="always"
       xlink:href="#linearGradient4505"
       id="linearGradient4041"
       gradientUnits="userSpaceOnUse"
       x1="5.2803679"
       y1="19.278877"
       x2="5.2978892"
       y2="13.072223" />
    <linearGradient
       inkscape:collect="always"
       xlink:href="#linearGradient4505"
       id="linearGradient4043"
       gradientUnits="userSpaceOnUse"
       x1="5.2803679"
       y1="19.278877"
       x2="5.2978892"
       y2="13.072223" />
    <linearGradient
       inkscape:collect="always"
       xlink:href="#linearGradient3522"
       id="linearGradient4058"
       gradientUnits="userSpaceOnUse"
       x1="9.3537226"
       y1="1.7464027"
       x2="8.5338469"
       y2="11.006666" />
    <linearGradient
       inkscape:collect="always"
       xlink:href="#linearGradient4505"
       id="linearGradient4060"
       gradientUnits="userSpaceOnUse"
       x1="5.2803679"
       y1="19.278877"
       x2="5.2978892"
       y2="13.072223" />
    <linearGradient
       inkscape:collect="always"
       xlink:href="#linearGradient4505"
       id="linearGradient4062"
       gradientUnits="userSpaceOnUse"
       x1="5.2803679"
       y1="19.278877"
       x2="5.2978892"
       y2="13.072223" />
    <linearGradient
       inkscape:collect="always"
       xlink:href="#linearGradient4505"
       id="linearGradient4106"
       gradientUnits="userSpaceOnUse"
       x1="13.980153"
       y1="12.298038"
       x2="8.0323887"
       y2="12.530791"
       spreadMethod="reflect" />
    <linearGradient
       inkscape:collect="always"
       xlink:href="#linearGradient4505"
       id="linearGradient4108"
       gradientUnits="userSpaceOnUse"
       x1="5.2803679"
       y1="19.278877"
       x2="5.2978892"
       y2="13.072223" />
    <linearGradient
       inkscape:collect="always"
       xlink:href="#linearGradient4505"
       id="linearGradient4110"
       gradientUnits="userSpaceOnUse"
       x1="5.2803679"
       y1="19.278877"
       x2="5.2978892"
       y2="13.072223" />
    <linearGradient
       inkscape:collect="always"
       xlink:href="#linearGradient4120"
       id="linearGradient4118"
       x1="12.110019"
       y1="4.3167939"
       x2="6.132216"
       y2="13.100827"
       gradientUnits="userSpaceOnUse" />
    <linearGradient
       inkscape:collect="always"
       xlink:href="#linearGradient3522"
       id="linearGradient4126"
       gradientUnits="userSpaceOnUse"
       x1="11.273733"
       y1="2.9376106"
       x2="8.5338469"
       y2="11.006666" />
    <linearGradient
       inkscape:collect="always"
       xlink:href="#linearGradient3534"
       id="linearGradient4136"
       gradientUnits="userSpaceOnUse"
       x1="9.3580503"
       y1="4.3504214"
       x2="15.506685"
       y2="-1.5997568" />
    <filter
       inkscape:collect="always"
       id="filter4334"
       x="-0.20085958"
       width="1.4017191"
       y="-0.1147769"
       height="1.2295538">
      <feGaussianBlur
         inkscape:collect="always"
         stdDeviation="0.30639596"
         id="feGaussianBlur4336" />
    </filter>
    <linearGradient
       inkscape:collect="always"
       xlink:href="#linearGradient3522"
       id="linearGradient4344"
       gradientUnits="userSpaceOnUse"
       x1="13.39535"
       y1="5.3323035"
       x2="8.5338469"
       y2="11.006666" />
    <linearGradient
       inkscape:collect="always"
       xlink:href="#linearGradient4505"
       id="linearGradient4346"
       gradientUnits="userSpaceOnUse"
       x1="5.3952718"
       y1="17.267303"
       x2="4.9600978"
       y2="16.080339" />
    <linearGradient
       inkscape:collect="always"
       xlink:href="#linearGradient4505"
       id="linearGradient4348"
       gradientUnits="userSpaceOnUse"
       x1="5.3952718"
       y1="17.267303"
       x2="4.9600978"
       y2="16.080339" />
    <linearGradient
       inkscape:collect="always"
       xlink:href="#linearGradient3522"
       id="linearGradient4363"
       gradientUnits="userSpaceOnUse"
       x1="13.39535"
       y1="5.3323035"
       x2="8.5338469"
       y2="11.006666" />
    <linearGradient
       inkscape:collect="always"
       xlink:href="#linearGradient3534"
       id="linearGradient4365"
       gradientUnits="userSpaceOnUse"
       x1="9.3580503"
       y1="4.3504214"
       x2="15.506685"
       y2="-1.5997568" />
    <linearGradient
       inkscape:collect="always"
       xlink:href="#linearGradient4505"
       id="linearGradient4367"
       gradientUnits="userSpaceOnUse"
       gradientTransform="matrix(0.9239099,0,0,0.9234012,0.5984032,0.5299432)"
       x1="7.8644066"
       y1="11.147391"
       x2="18.528753"
       y2="-11.652246" />
    <linearGradient
       inkscape:collect="always"
       xlink:href="#linearGradient3542"
       id="linearGradient4369"
       gradientUnits="userSpaceOnUse"
       gradientTransform="matrix(0.9239099,0,0,0.9234012,0.5984032,0.5299432)"
       x1="8.5775738"
       y1="15.75997"
       x2="18.528753"
       y2="-11.652246" />
    <linearGradient
       inkscape:collect="always"
       xlink:href="#linearGradient4120"
       id="linearGradient4371"
       gradientUnits="userSpaceOnUse"
       spreadMethod="reflect"
       x1="17.556509"
       y1="12.969909"
       x2="3.7229455"
       y2="12.708744" />
    <linearGradient
       inkscape:collect="always"
       xlink:href="#linearGradient3522"
       id="linearGradient4373"
       gradientUnits="userSpaceOnUse"
       x1="12.854478"
       y1="4.8450222"
       x2="8.5338469"
       y2="11.006666" />
    <linearGradient
       inkscape:collect="always"
       xlink:href="#linearGradient4120"
       id="linearGradient4375"
       gradientUnits="userSpaceOnUse"
       x1="11.05619"
       y1="5.8665657"
       x2="5.499918"
       y2="11.074203" />
    <linearGradient
       inkscape:collect="always"
       xlink:href="#linearGradient4505"
       id="linearGradient4377"
       gradientUnits="userSpaceOnUse"
       x1="5.3952718"
       y1="17.267303"
       x2="4.9600978"
       y2="16.080339" />
    <linearGradient
       inkscape:collect="always"
       xlink:href="#linearGradient4505"
       id="linearGradient4379"
       gradientUnits="userSpaceOnUse"
       x1="5.3952718"
       y1="17.267303"
       x2="4.9600978"
       y2="16.080339" />
    <inkscape:perspective
       id="perspective2639"
       inkscape:persp3d-origin="300 : 400 : 1"
       inkscape:vp_z="700 : 600 : 1"
       inkscape:vp_y="0 : 1000 : 0"
       inkscape:vp_x="-50 : 600 : 1"
       sodipodi:type="inkscape:persp3d" />
  </defs>
  <sodipodi:namedview
     id="base"
     pagecolor="#ffffff"
     bordercolor="#666666"
     borderopacity="1.0"
     inkscape:pageopacity="0.0"
     inkscape:pageshadow="2"
     inkscape:zoom="5.5208333"
     inkscape:cx="24"
     inkscape:cy="24"
     inkscape:document-units="px"
     inkscape:current-layer="layer1"
     showgrid="false"
     inkscape:window-width="835"
     inkscape:window-height="717"
     inkscape:window-x="51"
     inkscape:window-y="50" />
  <metadata
     id="metadata7">
    <rdf:RDF>
      <cc:Work
         rdf:about="">
        <dc:format>image/svg+xml</dc:format>
        <dc:type
           rdf:resource="http://purl.org/dc/dcmitype/StillImage" />
        <dc:title></dc:title>
        <dc:date></dc:date>
        <dc:creator>
          <cc:Agent>
            <dc:title></dc:title>
          </cc:Agent>
        </dc:creator>
        <dc:rights>
          <cc:Agent>
            <dc:title></dc:title>
          </cc:Agent>
        </dc:rights>
        <dc:publisher>
          <cc:Agent>
            <dc:title></dc:title>
          </cc:Agent>
        </dc:publisher>
        <dc:identifier></dc:identifier>
        <dc:source></dc:source>
        <dc:relation></dc:relation>
        <dc:language></dc:language>
        <dc:subject>
          <rdf:Bag />
        </dc:subject>
        <dc:coverage></dc:coverage>
        <dc:description></dc:description>
        <dc:contributor>
          <cc:Agent>
            <dc:title></dc:title>
          </cc:Agent>
        </dc:contributor>
        <cc:license
           rdf:resource="" />
      </cc:Work>
    </rdf:RDF>
  </metadata>
  <g
     inkscape:label="Calque 1"
     inkscape:groupmode="layer"
     id="layer1">
    <g
       id="g4350"
       transform="matrix(2.0654723,0,0,1.6991852,-0.7856675,3.3289063)">
      <path
         transform="matrix(5.5,0,0,1.9092127,-45.508472,27.828362)"
         d="M 12.305084,-7.6779661 A 1.8305085,3.2033899 0 1 1 8.6440675,-7.6779661 A 1.8305085,3.2033899 0 1 1 12.305084,-7.6779661 z"
         sodipodi:ry="3.2033899"
         sodipodi:rx="1.8305085"
         sodipodi:cy="-7.6779661"
         sodipodi:cx="10.474576"
         id="path4148"
         style="opacity:1;fill:#2d2d2d;fill-opacity:1;fill-rule:evenodd;stroke:none;stroke-width:0.27523503;stroke-linecap:round;stroke-linejoin:round;stroke-miterlimit:4;stroke-dasharray:none;stroke-opacity:1;filter:url(#filter4334)"
         sodipodi:type="arc" />
      <g
         transform="matrix(1.2454386,0,0,0.8730208,2.2053642,6.1123143)"
         id="g4487">
        <g
           transform="matrix(0.8925804,0,0,0.8925804,0.8447914,0.7431746)"
           id="g4491">
          <path
             sodipodi:type="arc"
             style="opacity:1;fill:url(#linearGradient4363);fill-opacity:1;fill-rule:evenodd;stroke:url(#linearGradient4365);stroke-width:0.28090894;stroke-linecap:round;stroke-linejoin:miter;stroke-miterlimit:4;stroke-dasharray:none;stroke-opacity:1"
             id="path3530"
             sodipodi:cx="8.0323887"
             sodipodi:cy="8.0647774"
             sodipodi:rx="7.2550607"
             sodipodi:ry="7.2550607"
             d="M 3.0781619,13.364923 A 7.2550607,7.2550607 0 1 1 13.086035,13.270214 L 8.0323887,8.0647774 z"
             transform="matrix(1.3801513,0,0,1.3801513,-3.2215049,-3.0658354)"
             sodipodi:start="2.3224735"
             sodipodi:end="7.0833781" />
          <path
             sodipodi:nodetypes="ccccccccccccccccccccccccc"
             id="path4484"
             d="M 9.6809073,13.434145 L 7.8552251,9.4205751 L 6.0735225,12.547782 L 7.2022321,9.240785 L 1.2973405,14.649214 L 6.7266682,8.7587655 L -1.092822,10.491782 L 6.5559603,8.1036733 L -1.0829024,5.696917 L 6.7358494,7.4510399 L 1.3244414,1.5493995 L 7.2181345,6.9757378 L 5.4841635,-0.83944702 L 7.8735875,6.8051239 L 10.28167,-0.82953283 L 8.5265805,6.984914 L 14.431472,1.5764855 L 9.0021444,7.4669335 L 16.821635,5.7339172 L 9.1728523,8.1220256 L 16.811715,10.528782 L 8.9929632,8.7746591 L 14.404371,14.6763 L 8.5106781,9.2499612 L 9.6809073,13.434145 z"
             style="fill:url(#linearGradient4367);fill-opacity:1;fill-rule:evenodd;stroke:url(#linearGradient4369);stroke-width:0.51191336;stroke-linecap:round;stroke-linejoin:round;stroke-miterlimit:4;stroke-dasharray:none;stroke-opacity:1" />
        </g>
      </g>
      <g
         id="g4098"
         transform="matrix(1.0282222,0,0,1.1131406,-0.338666,-2.1874424)">
        <path
           transform="matrix(1.1116541,0,0,0.7792413,3.070762,6.7611212)"
           d="M 15.287449,8.0647774 A 7.2550607,7.2550607 0 1 1 0.77732801,8.0647774 A 7.2550607,7.2550607 0 1 1 15.287449,8.0647774 z"
           sodipodi:ry="7.2550607"
           sodipodi:rx="7.2550607"
           sodipodi:cy="8.0647774"
           sodipodi:cx="8.0323887"
           id="path4100"
           style="opacity:1;fill:url(#linearGradient4371);fill-opacity:1.0;fill-rule:evenodd;stroke:#364e59;stroke-width:0.36238804000000002;stroke-linecap:round;stroke-linejoin:miter;stroke-miterlimit:4;stroke-dasharray:none;stroke-opacity:1"
           sodipodi:type="arc" />
      </g>
      <g
         transform="matrix(1,0,0,0.7664652,0,0.4141732)"
         id="g4053">
        <path
           sodipodi:type="arc"
           style="opacity:1;fill:url(#linearGradient4373);fill-opacity:1;fill-rule:evenodd;stroke:url(#linearGradient4375);stroke-width:0.44283921;stroke-linecap:round;stroke-linejoin:miter;stroke-miterlimit:4;stroke-dasharray:none;stroke-opacity:1"
           id="path3712"
           sodipodi:cx="8.0323887"
           sodipodi:cy="8.0647774"
           sodipodi:rx="7.2550607"
           sodipodi:ry="7.2550607"
           d="M 15.287449,8.0647774 A 7.2550607,7.2550607 0 1 1 0.77732801,8.0647774 A 7.2550607,7.2550607 0 1 1 15.287449,8.0647774 z"
           transform="matrix(1.1116541,0,0,0.7792413,3.070762,6.7611212)" />
        <path
           sodipodi:end="6.2281077"
           sodipodi:start="0"
           sodipodi:type="arc"
           style="fill:url(#linearGradient4377);fill-opacity:1;fill-rule:evenodd;stroke:url(#linearGradient4379);stroke-width:0.35586685;stroke-linecap:round;stroke-linejoin:round;stroke-miterlimit:4;stroke-dasharray:none;stroke-opacity:1"
           id="path4495"
           sodipodi:cx="5.1838551"
           sodipodi:cy="16.691181"
           sodipodi:rx="1.0367711"
           sodipodi:ry="1.0367711"
           d="M 6.2206261,16.691181 A 1.0367711,1.0367711 0 1 1 6.219054,16.634107 L 5.1838551,16.691181 z"
           transform="matrix(2.1192931,-1.3237722,0.5760509,0.4853318,-10.229675,13.38831)" />
        <path
           sodipodi:type="arc"
           style="fill:#ff4141;fill-opacity:1;fill-rule:evenodd;stroke:#ff4141;stroke-width:0.1925696;stroke-linecap:round;stroke-linejoin:round;stroke-miterlimit:4;stroke-dasharray:none;stroke-opacity:1"
           id="path4551"
           sodipodi:cx="5.3559322"
           sodipodi:cy="11.322034"
           sodipodi:rx="0.20338982"
           sodipodi:ry="0.27118644"
           d="M 5.5593221,11.322034 A 0.20338982,0.27118644 0 0 1 5.548988,11.407376"
           sodipodi:start="0"
           sodipodi:end="0.32014111"
           sodipodi:open="true"
           transform="matrix(-21.173192,0,0,2.3821152,125.86862,-11.280043)" />
      </g>
    </g>
  </g>
</svg>
