<?xml version="1.0" encoding="UTF-8" standalone="no"?>
<!-- Created with Inkscape (http://www.inkscape.org/) -->
<svg
   xmlns:dc="http://purl.org/dc/elements/1.1/"
   xmlns:cc="http://creativecommons.org/ns#"
   xmlns:rdf="http://www.w3.org/1999/02/22-rdf-syntax-ns#"
   xmlns:svg="http://www.w3.org/2000/svg"
   xmlns="http://www.w3.org/2000/svg"
   xmlns:xlink="http://www.w3.org/1999/xlink"
   xmlns:sodipodi="http://sodipodi.sourceforge.net/DTD/sodipodi-0.dtd"
   xmlns:inkscape="http://www.inkscape.org/namespaces/inkscape"
   version="1.0"
   width="48"
   height="48"
   id="svg2"
   sodipodi:version="0.32"
   inkscape:version="0.46"
   sodipodi:docname="preferences-system-firewall48f.svg"
   inkscape:output_extension="org.inkscape.output.svg.inkscape"
   inkscape:export-filename="/home/martin/Projects/Fedora/Graphics/Echo/Applications/preferences-system-firewall48f.png"
   inkscape:export-xdpi="90"
   inkscape:export-ydpi="90">
  <metadata
     id="metadata33">
    <rdf:RDF>
      <cc:Work
         rdf:about="">
        <dc:format>image/svg+xml</dc:format>
        <dc:type
           rdf:resource="http://purl.org/dc/dcmitype/StillImage" />
      </cc:Work>
    </rdf:RDF>
  </metadata>
  <sodipodi:namedview
     inkscape:window-height="480"
     inkscape:window-width="640"
     inkscape:pageshadow="2"
     inkscape:pageopacity="0.0"
     guidetolerance="10.0"
     gridtolerance="10.0"
     objecttolerance="10.0"
     borderopacity="1.0"
     bordercolor="#666666"
     pagecolor="#ffffff"
     id="base"
     showgrid="true"
     inkscape:snap-global="false"
     inkscape:zoom="11.3125"
     inkscape:cx="24.863125"
     inkscape:cy="21.480663"
     inkscape:current-layer="svg2"
     showguides="true"
     inkscape:guide-bbox="true">
    <inkscape:grid
       type="xygrid"
       id="grid2477" />
    <sodipodi:guide
       orientation="1,0"
       position="-15.646409,42.696133"
       id="guide3232" />
    <sodipodi:guide
       orientation="-0.70710678,0.70710678"
       position="-15.646409,45.259669"
       id="guide3234" />
  </sodipodi:namedview>
  <defs
     id="defs4">
    <inkscape:perspective
       sodipodi:type="inkscape:persp3d"
       inkscape:vp_x="0 : 24 : 1"
       inkscape:vp_y="0 : 1000 : 0"
       inkscape:vp_z="48 : 24 : 1"
       inkscape:persp3d-origin="24 : 16 : 1"
       id="perspective89" />
    <linearGradient
       id="linearGradient3249">
      <stop
         style="stop-color:#466573;stop-opacity:1;"
         offset="0"
         id="stop3251" />
      <stop
         style="stop-color:#143444;stop-opacity:1;"
         offset="1"
         id="stop3253" />
    </linearGradient>
    <linearGradient
       id="linearGradient2462">
      <stop
         style="stop-color:#364e59;stop-opacity:1"
         offset="0"
         id="stop2464" />
      <stop
         id="stop2466"
         offset="0.24282984"
         style="stop-color:#9eabb0;stop-opacity:1" />
      <stop
         id="stop2468"
         offset="0.7767002"
         style="stop-color:#9eabb0;stop-opacity:1" />
      <stop
         style="stop-color:#ffffff;stop-opacity:1"
         offset="1"
         id="stop2470" />
    </linearGradient>
    <linearGradient
       id="linearGradient3363">
      <stop
         style="stop-color:#336780;stop-opacity:1;"
         offset="0"
         id="stop3365" />
      <stop
         id="stop3373"
         offset="0.72717279"
         style="stop-color:#7897a9;stop-opacity:1;" />
      <stop
         style="stop-color:#d7e4ea;stop-opacity:1;"
         offset="1"
         id="stop3367" />
    </linearGradient>
    <linearGradient
       id="linearGradient2550">
      <stop
         offset="0"
         style="stop-color:#005c94;stop-opacity:1"
         id="stop2552" />
      <stop
         offset="1"
         style="stop-color:#003251;stop-opacity:1;"
         id="stop2554" />
    </linearGradient>
    <linearGradient
       id="linearGradient2538">
      <stop
         style="stop-color:#008be0;stop-opacity:1;"
         offset="0"
         id="stop2540" />
      <stop
         style="stop-color:#65c9ff;stop-opacity:1;"
         offset="1"
         id="stop2542" />
    </linearGradient>
    <linearGradient
       id="linearGradient2488">
      <stop
         style="stop-color:#43606e;stop-opacity:1;"
         offset="0"
         id="stop2490" />
      <stop
         style="stop-color:#0e232e;stop-opacity:1"
         offset="1"
         id="stop2492" />
    </linearGradient>
    <linearGradient
       id="linearGradient2469">
      <stop
         style="stop-color:#456472;stop-opacity:1;"
         offset="0"
         id="stop2471" />
      <stop
         style="stop-color:#b2bcc0;stop-opacity:1;"
         offset="1"
         id="stop2473" />
    </linearGradient>
    <linearGradient
       id="linearGradient2461">
      <stop
         style="stop-color:#b2bcc0;stop-opacity:1;"
         offset="0"
         id="stop2463" />
      <stop
         style="stop-color:#eff3f5;stop-opacity:1;"
         offset="1"
         id="stop2465" />
    </linearGradient>
    <linearGradient
       id="linearGradient2439">
      <stop
         style="stop-color:#7a9eaf;stop-opacity:1;"
         offset="0"
         id="stop2441" />
      <stop
         style="stop-color:#dee3e5;stop-opacity:1;"
         offset="1"
         id="stop2443" />
    </linearGradient>
    <linearGradient
       id="linearGradient3496">
      <stop
         id="stop3498"
         style="stop-color:#571100;stop-opacity:1;"
         offset="0" />
      <stop
         id="stop3500"
         style="stop-color:#bc4200;stop-opacity:1;"
         offset="1" />
    </linearGradient>
    <linearGradient
       id="linearGradient3439">
      <stop
         id="stop3441"
         style="stop-color:#7a0800;stop-opacity:1;"
         offset="0" />
      <stop
         id="stop3445"
         style="stop-color:#d63b00;stop-opacity:1;"
         offset="0.6253404" />
      <stop
         id="stop2406"
         style="stop-color:#f45c00;stop-opacity:1;"
         offset="0.64172572" />
      <stop
         id="stop3443"
         style="stop-color:#ff8b09;stop-opacity:1;"
         offset="1" />
    </linearGradient>
    <linearGradient
       id="linearGradient3420">
      <stop
         id="stop3422"
         style="stop-color:#c92300;stop-opacity:1;"
         offset="0" />
      <stop
         id="stop3424"
         style="stop-color:#ff740b;stop-opacity:1;"
         offset="1" />
    </linearGradient>
    <linearGradient
       x1="20.536531"
       y1="27.302443"
       x2="31.070141"
       y2="5.0213351"
       id="linearGradient3426"
       xlink:href="#linearGradient3420"
       gradientUnits="userSpaceOnUse"
       gradientTransform="translate(2.9114629e-4,-0.3003322)" />
    <linearGradient
       x1="43.613716"
       y1="39.621532"
       x2="25.471872"
       y2="2.9613662"
       id="linearGradient3437"
       xlink:href="#linearGradient3439"
       gradientUnits="userSpaceOnUse"
       gradientTransform="translate(2.0002816,-0.30025)" />
    <linearGradient
       x1="12.386901"
       y1="30.971647"
       x2="18.315367"
       y2="4.2552509"
       id="linearGradient3494"
       xlink:href="#linearGradient3496"
       gradientUnits="userSpaceOnUse"
       gradientTransform="translate(4,2)" />
    <linearGradient
       x1="39.315552"
       y1="24.396666"
       x2="31.298639"
       y2="1.1262149"
       id="linearGradient3502"
       xlink:href="#linearGradient3496"
       gradientUnits="userSpaceOnUse"
       gradientTransform="translate(4.1671665,0.8315494)" />
    <filter
       id="filter3534"
       x="-0.043686528"
       width="1.0873731"
       y="-0.134904"
       height="1.2698081">
      <feGaussianBlur
         inkscape:collect="always"
         stdDeviation="0.84177613"
         id="feGaussianBlur3536" />
    </filter>
    <linearGradient
       inkscape:collect="always"
       xlink:href="#linearGradient2488"
       id="linearGradient3339"
       gradientUnits="userSpaceOnUse"
       gradientTransform="matrix(1.0060075,0,0,1.0060075,-5.57568e-2,-2.2652704)"
       x1="13"
       y1="28"
       x2="24"
       y2="43" />
    <linearGradient
       inkscape:collect="always"
       xlink:href="#linearGradient2461"
       id="linearGradient3341"
       gradientUnits="userSpaceOnUse"
       gradientTransform="matrix(1.0060075,0,0,1.0060075,22.679573,3.7707746)"
       x1="-0.26519349"
       y1="29.87845"
       x2="-10.430939"
       y2="19.977901" />
    <linearGradient
       inkscape:collect="always"
       xlink:href="#linearGradient2439"
       id="linearGradient3343"
       gradientUnits="userSpaceOnUse"
       gradientTransform="matrix(1.0060075,0,0,1.0060075,22.679573,3.7707746)"
       x1="-8.3693838"
       y1="37.400002"
       x2="-2.9171269"
       y2="25.87273" />
    <linearGradient
       inkscape:collect="always"
       xlink:href="#linearGradient2469"
       id="linearGradient3345"
       gradientUnits="userSpaceOnUse"
       gradientTransform="matrix(1.0060075,0,0,1.0060075,22.679573,3.7707746)"
       x1="1.5027624"
       y1="35.712708"
       x2="-3.0939226"
       y2="19.270718" />
    <linearGradient
       inkscape:collect="always"
       xlink:href="#linearGradient2462"
       id="linearGradient3347"
       gradientUnits="userSpaceOnUse"
       gradientTransform="matrix(1.0060075,0,0,1.0060075,22.679573,3.7707746)"
       x1="-0.29244357"
       y1="27.234255"
       x2="-12.558302"
       y2="27.314919" />
    <linearGradient
       inkscape:collect="always"
       xlink:href="#linearGradient2550"
       id="linearGradient3349"
       gradientUnits="userSpaceOnUse"
       gradientTransform="matrix(1.0060075,0,0,1.0060075,-5.57568e-2,-2.2652704)"
       x1="8"
       y1="32"
       x2="23"
       y2="39" />
    <linearGradient
       inkscape:collect="always"
       xlink:href="#linearGradient2538"
       id="linearGradient3351"
       gradientUnits="userSpaceOnUse"
       gradientTransform="matrix(1.0060075,0,0,1.0060075,-5.57568e-2,-2.2652704)"
       x1="24"
       y1="36"
       x2="11"
       y2="33" />
    <linearGradient
       inkscape:collect="always"
       xlink:href="#linearGradient2488"
       id="linearGradient3353"
       gradientUnits="userSpaceOnUse"
       gradientTransform="matrix(1.0060075,0,0,1.0060075,-5.57568e-2,-2.2652704)"
       x1="13"
       y1="28"
       x2="23"
       y2="43" />
    <radialGradient
       inkscape:collect="always"
       xlink:href="#linearGradient3363"
       id="radialGradient3239"
       gradientUnits="userSpaceOnUse"
       gradientTransform="matrix(1.3951672,-0.7499252,0.7320658,1.3619378,-26.849393,5.3860832)"
       cx="19.373047"
       cy="26.083055"
       fx="19.373047"
       fy="26.083055"
       r="5.512087" />
    <linearGradient
       inkscape:collect="always"
       xlink:href="#linearGradient3249"
       id="linearGradient3255"
       x1="14.994475"
       y1="20.419889"
       x2="18"
       y2="28.37569"
       gradientUnits="userSpaceOnUse" />
    <filter
       inkscape:collect="always"
       id="filter3265"
       x="-0.051144351"
       width="1.1022887"
       y="-0.15921458"
       height="1.3184292">
      <feGaussianBlur
         inkscape:collect="always"
         stdDeviation="0.91399214"
         id="feGaussianBlur3267" />
    </filter>
    <filter
       inkscape:collect="always"
       id="filter3281"
       x="-0.090467562"
       width="1.1809351"
       y="-0.24901894"
       height="1.4980379">
      <feGaussianBlur
         inkscape:collect="always"
         stdDeviation="0.79175916"
         id="feGaussianBlur3283" />
    </filter>
  </defs>
  <path
     style="fill:#2d2d2d;fill-rule:evenodd;stroke:none;stroke-width:1px;stroke-linecap:butt;stroke-linejoin:miter;stroke-opacity:1;filter:url(#filter3281);opacity:0.64788732"
     d="M 6.2934704,37.773111 C 7.1707552,38.366107 8.1033772,39.110607 9.7548791,39.897157 L 15.261666,41.470525 C 17.09621,42.019102 19.222355,42.364194 20.847121,42.493214 L 28.005109,39.523273 L 12.635588,34.685585 L 6.2934704,37.773111 z"
     id="path3375"
     sodipodi:nodetypes="ccccccc" />
  <path
     d="M 3.6405866,31.070895 L 35.867987,40.415643 L 46.530585,35.623465 L 15.980446,26.638129 L 3.6405866,31.070895 z"
     id="path3504"
     style="opacity:0.5915493;fill:#2d2d2d;fill-rule:evenodd;stroke:none;stroke-width:1px;stroke-linecap:butt;stroke-linejoin:miter;stroke-opacity:1;filter:url(#filter3265)" />
  <path
     d="M 10.500282,4.57475 L 5.5002816,6.856 L 5.5002816,30.94975 L 35.150645,39.444324 L 40.150645,37.163074 L 40.150645,13.069324 L 10.500282,4.57475 z"
     id="rect3428"
     style="opacity:1;fill:url(#linearGradient3437);fill-opacity:1;stroke:none;stroke-width:0.99999994;stroke-linecap:round;stroke-linejoin:round;stroke-miterlimit:4;stroke-dasharray:none;stroke-opacity:1" />
  <rect
     width="31.204004"
     height="24.1"
     x="5.7301626"
     y="5.2565989"
     transform="matrix(0.9598849,0.2803945,0,1,0,0)"
     id="rect2645"
     style="opacity:1;fill:url(#linearGradient3426);fill-opacity:1;stroke:url(#linearGradient3502);stroke-width:0.76551145;stroke-linecap:round;stroke-linejoin:round;stroke-miterlimit:4;stroke-dasharray:none;stroke-opacity:1" />
  <path
     d="M 5.486,22.855846 L 35.288818,31.867 M 5.5743978,14.944244 L 35.377216,23.955413 M 11.500282,8.7061859 L 11.500282,16.733359 M 23.500282,12.406577 L 23.500282,20.080159 M 17.500282,18.843913 L 17.500282,26.43375 M 29.500282,22.160168 L 29.500282,29.83375 M 11.500282,24.706186 L 11.500282,32.556563 M 23.500282,28.406577 L 23.500282,35.991761 M 11.500282,16.31098 L 11.500282,8.6434948 L 16.771678,6.4870144 M 23.500282,19.81075 L 23.500282,12.143265 L 28.771678,9.986784 M 32.191254,30.927 L 35.30617,31.885 L 40.337957,29.849 M 32.191254,23.027 L 35.30617,23.985292 L 40.337957,21.948616"
     id="path2613"
     style="opacity:0.40000000000000002;fill:none;fill-rule:evenodd;stroke:#280000;stroke-width:1px;stroke-linecap:round;stroke-linejoin:round;stroke-opacity:1"
     sodipodi:nodetypes="cccccccccccccccccccccccccccc" />
  <path
     d="M 35.506059,15.512074 L 40.298238,13.235789"
     id="path3476"
     style="fill:none;fill-rule:evenodd;stroke:#a83700;stroke-width:0.75000000000000000;stroke-linecap:round;stroke-linejoin:round;stroke-opacity:1" />
  <path
     d="M 10.500282,4.57475 L 5.5002816,6.856 L 5.5002816,30.94975 L 35.390254,39.683933 L 40.390254,37.402683 L 40.390254,13.308933 L 10.500282,4.57475 z"
     id="path3474"
     style="opacity:1;fill:none;fill-opacity:1;stroke:url(#linearGradient3494);stroke-width:0.75;stroke-linecap:round;stroke-linejoin:round;stroke-miterlimit:4;stroke-dasharray:none;stroke-opacity:1" />
  <rect
     transform="matrix(0.9577123,0.2877277,0,1,0,0)"
     y="13.502443"
     x="5.9995685"
     height="7.4515915"
     width="11.72223"
     id="rect3241"
     style="opacity:0.12755101999999999;fill:#3d0800;fill-opacity:1;stroke:none;stroke-width:0.76637924000000002;stroke-linecap:round;stroke-linejoin:round;stroke-miterlimit:4;stroke-dasharray:none;stroke-opacity:1" />
  <g
     id="g3328"
     transform="translate(-2,0)">
    <path
       id="path2479"
       d="M 12.833714,25.745751 L 10.067193,27.129011 C 10.071055,27.131286 10.063318,27.158172 10.067193,27.160449 L 10.035756,37.660652 C 10.781166,38.102359 11.796819,38.566339 12.645088,38.823849 L 18.806884,40.678675 C 20.255388,41.040747 21.268474,41.332591 22.32791,41.401743 C 22.338458,41.402431 22.348789,41.401094 22.359348,41.401743 L 22.359348,41.370305 L 25.125869,39.987045 L 25.188744,29.455404 L 25.157307,29.486841 C 24.741869,28.935145 23.284743,28.547306 22.547974,28.323645 L 16.386179,26.437381 C 14.923254,26.071703 13.904789,25.811583 12.833714,25.745751 z"
       style="opacity:1;fill:#9eabb0;fill-opacity:1;stroke:url(#linearGradient3339);stroke-width:1.50901127;stroke-linecap:round;stroke-linejoin:round;stroke-miterlimit:4;stroke-opacity:1" />
    <path
       id="path2415"
       style="opacity:1;fill:url(#linearGradient3341);fill-opacity:1;stroke:none;stroke-width:2;stroke-linecap:round;stroke-linejoin:round;stroke-miterlimit:4;stroke-opacity:1"
       d="M 12.84128,25.740602 L 10.03651,27.142985 C 10.781921,27.584691 11.800526,28.054129 12.648796,28.311638 L 18.808288,30.181484 C 20.271213,30.547162 21.284421,30.816844 22.355496,30.882677 L 25.160265,29.480293 C 24.744828,28.928596 23.28475,28.535301 22.547981,28.311639 L 16.388488,26.441794 C 14.925563,26.076116 13.912356,25.806434 12.84128,25.740602 z"
       sodipodi:nodetypes="cczzcczzc" />
    <path
       sodipodi:nodetypes="ccccccccc"
       d="M 22.364812,41.395455 L 22.385373,30.870762 C 21.314297,30.80493 20.301089,30.535247 18.838164,30.16957 L 12.678672,28.299724 C 11.830403,28.042214 10.811797,27.572777 10.066386,27.13107 L 10.045827,37.655763 C 10.791238,38.09747 11.809843,38.566908 12.658113,38.824417 L 18.817605,40.694263 C 20.28053,41.059941 21.293738,41.329623 22.364812,41.395455 z"
       style="opacity:1;fill:url(#linearGradient3343);fill-opacity:1;stroke:none;stroke-width:2;stroke-linecap:round;stroke-linejoin:round;stroke-miterlimit:4;stroke-opacity:1"
       id="path2421" />
    <path
       sodipodi:nodetypes="ccccc"
       d="M 25.132139,39.993072 L 25.173259,29.444086 L 22.368489,30.852496 L 22.327369,41.395455 L 25.132139,39.993072 z"
       style="opacity:1;fill:url(#linearGradient3345);fill-opacity:1;stroke:none;stroke-width:2;stroke-linecap:round;stroke-linejoin:round;stroke-miterlimit:4;stroke-opacity:1"
       id="path2426" />
    <path
       id="path2447"
       style="opacity:0.3;fill:url(#linearGradient3347);fill-opacity:1;stroke:none;stroke-width:2;stroke-linecap:round;stroke-linejoin:round;stroke-miterlimit:4;stroke-opacity:1"
       d="M 22.364812,41.395455 L 22.385373,30.870762 C 21.314297,30.80493 20.301089,30.535247 18.838164,30.16957 L 12.678672,28.299724 C 11.830403,28.042214 10.811797,27.572777 10.066386,27.13107 L 10.045827,37.655763 C 10.791238,38.09747 11.809843,38.566908 12.658113,38.824417 L 18.817605,40.694263 C 20.28053,41.059941 21.293738,41.329623 22.364812,41.395455 z"
       sodipodi:nodetypes="ccccccccc" />
    <path
       id="path2546"
       style="opacity:1;fill:none;fill-opacity:1;stroke:url(#linearGradient3349);stroke-width:1.50901127;stroke-linecap:round;stroke-linejoin:round;stroke-miterlimit:4;stroke-opacity:1"
       d="M 25.188744,31.467419 L 25.188744,34.485567 L 22.359348,35.884546 C 21.288273,35.834433 20.269809,35.574313 18.806884,35.208634 L 12.645088,33.353808 C 11.796819,33.096299 10.781166,32.600883 10.035756,32.159175 L 10.035756,29.141027 C 10.781166,29.582734 11.796819,30.07815 12.645088,30.335661 L 18.806884,32.190487 C 20.269809,32.556164 21.288273,32.816284 22.359348,32.866398 L 25.188744,31.467419 z"
       sodipodi:nodetypes="ccccccccccc" />
    <path
       sodipodi:nodetypes="ccccccccccc"
       d="M 25.188744,31.467419 L 25.188744,34.485567 L 22.359348,35.884546 C 21.288273,35.834433 20.269809,35.574313 18.806884,35.208634 L 12.645088,33.353808 C 11.796819,33.096299 10.781166,32.600883 10.035756,32.159175 L 10.035756,29.141027 C 10.781166,29.582734 11.796819,30.07815 12.645088,30.335661 L 18.806884,32.190487 C 20.269809,32.556164 21.288273,32.816284 22.359348,32.866398 L 25.188744,31.467419 z"
       style="opacity:1;fill:url(#linearGradient3351);fill-opacity:1;stroke:none;stroke-width:0.75;stroke-linecap:round;stroke-linejoin:round;stroke-miterlimit:4;stroke-opacity:1"
       id="path2514" />
    <path
       d="M 10.03651,27.142985 C 10.781921,27.584691 11.800526,28.054129 12.648796,28.311638 L 18.808288,30.181484 C 20.271213,30.547162 21.284421,30.816844 22.355496,30.882677 M 25.173259,29.444086 L 22.368489,30.852496 L 22.327369,41.395455"
       style="opacity:0.72080002;fill:none;fill-opacity:1;stroke:url(#linearGradient3353);stroke-width:0.75450563000000004;stroke-linecap:round;stroke-linejoin:round;stroke-miterlimit:4;stroke-opacity:1"
       id="path2498" />
    <path
       style="fill:url(#radialGradient3239);fill-opacity:1;fill-rule:evenodd;stroke:url(#linearGradient3255);stroke-width:0.75000000000000000;stroke-linecap:round;stroke-linejoin:round;stroke-opacity:1"
       d="M 16.34375,19.375 C 15.694239,19.405433 15.074004,19.581185 14.5,19.90625 C 13.351992,20.556381 12.587571,21.872867 12.53125,23.5625 L 12.4375,25.90625 C 12.411612,26.458535 12.83834,26.927237 13.390625,26.953125 C 13.94291,26.979013 14.411612,26.552285 14.4375,26 L 14.53125,23.625 C 14.570648,22.443056 14.972659,21.92364 15.5,21.625 C 16.027341,21.32636 16.833817,21.282127 17.71875,21.5625 C 18.682434,21.867824 19.356727,22.282232 19.8125,22.875 C 20.268273,23.467768 20.5625,24.278731 20.5625,25.625 L 20.5625,28.15625 C 20.5574,28.516886 20.746875,28.852331 21.058373,29.034138 C 21.36987,29.215944 21.75513,29.215944 22.066627,29.034138 C 22.378125,28.852331 22.5676,28.516886 22.5625,28.15625 L 22.5625,25.625 C 22.5625,23.97421 22.177746,22.65964 21.40625,21.65625 C 20.634754,20.65286 19.519893,20.038787 18.3125,19.65625 C 17.669427,19.452506 16.993261,19.344567 16.34375,19.375 z"
       id="path2556" />
  </g>
  <rect
     style="opacity:0.12755101999999999;fill:#3d0800;fill-opacity:1;stroke:none;stroke-width:0.76637924000000002;stroke-linecap:round;stroke-linejoin:round;stroke-miterlimit:4;stroke-dasharray:none;stroke-opacity:1"
     id="rect2469"
     width="11.72223"
     height="7.4515915"
     x="12.552938"
     y="5.3406138"
     transform="matrix(0.9577123,0.2877277,0,1,0,0)" />
  <rect
     style="opacity:0.12755101999999999;fill:#3d0a00;fill-opacity:1;stroke:none;stroke-width:0.76637924000000002;stroke-linecap:round;stroke-linejoin:round;stroke-miterlimit:4;stroke-dasharray:none;stroke-opacity:1"
     id="rect3243"
     width="11.72223"
     height="7.4515915"
     x="25.013573"
     y="21.55645"
     transform="matrix(0.9577123,0.2877277,0,1,0,0)" />
  <rect
     style="opacity:0.12755103;fill:#ffffff;fill-opacity:1;stroke:none;stroke-width:0.75;stroke-linecap:round;stroke-linejoin:round;stroke-miterlimit:4;stroke-dasharray:none;stroke-opacity:1"
     id="rect3245"
     width="5.5190964"
     height="6.8576283"
     x="31.617878"
     y="12.37569"
     transform="matrix(0.9449861,0.3271106,0,1,0,0)" />
  <path
     style="fill:#3c0000;fill-rule:evenodd;stroke:none;stroke-width:1px;stroke-linecap:butt;stroke-linejoin:miter;stroke-opacity:1;fill-opacity:1;opacity:0.12755102"
     d="M 12.375691,8.6629834 L 17.237569,6.8950276 L 27.58011,9.9005525 L 23.248619,11.756906 L 12.375691,8.6629834 z"
     id="path3249" />
  <rect
     transform="matrix(-0.9331096,0.359592,0,1,0,0)"
     y="38.184116"
     x="-43.009521"
     height="6.7488313"
     width="4.8314652"
     id="rect3251"
     style="opacity:0.06122449;fill:#ffffff;fill-opacity:1;stroke:none;stroke-width:0.75000000000000000;stroke-linecap:round;stroke-linejoin:round;stroke-miterlimit:4;stroke-dasharray:none;stroke-opacity:1" />
</svg>
