<?xml version="1.0" encoding="UTF-8" standalone="no"?>
<!-- Created with Inkscape (http://www.inkscape.org/) -->
<svg
   xmlns:dc="http://purl.org/dc/elements/1.1/"
   xmlns:cc="http://creativecommons.org/ns#"
   xmlns:rdf="http://www.w3.org/1999/02/22-rdf-syntax-ns#"
   xmlns:svg="http://www.w3.org/2000/svg"
   xmlns="http://www.w3.org/2000/svg"
   xmlns:xlink="http://www.w3.org/1999/xlink"
   xmlns:sodipodi="http://sodipodi.sourceforge.net/DTD/sodipodi-0.dtd"
   xmlns:inkscape="http://www.inkscape.org/namespaces/inkscape"
   width="48"
   height="48"
   id="svg2"
   sodipodi:version="0.32"
   inkscape:version="0.46"
   version="1.0"
   sodipodi:docname="preferences-system-users48d.svg"
   inkscape:output_extension="org.inkscape.output.svg.inkscape"
   inkscape:export-filename="/home/luya/Modèles/echo-icon-devel/applications/preferences-system-users48d.png"
   inkscape:export-xdpi="90"
   inkscape:export-ydpi="90">
  <defs
     id="defs4">
    <radialGradient
       inkscape:collect="always"
       xlink:href="#linearGradient3314"
       id="radialGradient3205"
       cx="28.088192"
       cy="40.411793"
       fx="28.088192"
       fy="40.411793"
       r="18.355053"
       gradientTransform="matrix(1.4402781,-5.699503e-8,2.1367964e-8,0.4121627,-12.366617,21.390565)"
       gradientUnits="userSpaceOnUse"
       spreadMethod="reflect" />
    <radialGradient
       inkscape:collect="always"
       xlink:href="#linearGradient3314"
       id="radialGradient3229"
       gradientUnits="userSpaceOnUse"
       gradientTransform="matrix(1.4402781,-5.699503e-8,2.1367964e-8,0.4121627,-12.366617,21.390565)"
       spreadMethod="reflect"
       cx="28.088192"
       cy="40.411793"
       fx="28.088192"
       fy="40.411793"
       r="18.355053" />
    <linearGradient
       id="linearGradient3299">
      <stop
         id="stop3301"
         offset="0"
         style="stop-color:#9ade00;stop-opacity:1;" />
      <stop
         id="stop3303"
         offset="1"
         style="stop-color:#009100;stop-opacity:1;" />
    </linearGradient>
    <linearGradient
       id="linearGradient3199">
      <stop
         id="stop3201"
         offset="0"
         style="stop-color:#eccd84;stop-opacity:1;" />
      <stop
         id="stop3203"
         offset="1"
         style="stop-color:#804d00;stop-opacity:1;" />
    </linearGradient>
    <linearGradient
       id="linearGradient3314">
      <stop
         style="stop-color:#2d2d2d;stop-opacity:1"
         offset="0"
         id="stop3316" />
      <stop
         style="stop-color:#2d2d2d;stop-opacity:0;"
         offset="1"
         id="stop3318" />
    </linearGradient>
    <linearGradient
       id="linearGradient3267">
      <stop
         style="stop-color:#ffffff;stop-opacity:1;"
         offset="0"
         id="stop3269" />
      <stop
         style="stop-color:#666666;stop-opacity:1;"
         offset="1"
         id="stop3271" />
    </linearGradient>
    <linearGradient
       id="linearGradient3244">
      <stop
         id="stop3246"
         offset="0"
         style="stop-color:#19aeff;stop-opacity:1;" />
      <stop
         id="stop3248"
         offset="1"
         style="stop-color:#005c94;stop-opacity:1" />
    </linearGradient>
    <linearGradient
       id="linearGradient3222">
      <stop
         style="stop-color:#ffc022;stop-opacity:1;"
         offset="0"
         id="stop3224" />
      <stop
         style="stop-color:#804d00;stop-opacity:1;"
         offset="1"
         id="stop3226" />
    </linearGradient>
    <linearGradient
       id="linearGradient3214">
      <stop
         style="stop-color:#ffc022;stop-opacity:1;"
         offset="0"
         id="stop3216" />
      <stop
         style="stop-color:#ffc022;stop-opacity:0;"
         offset="1"
         id="stop3218" />
    </linearGradient>
    <linearGradient
       id="linearGradient3208">
      <stop
         id="stop3210"
         offset="0"
         style="stop-color:#b88100;stop-opacity:1;" />
      <stop
         id="stop3212"
         offset="1"
         style="stop-color:#804d00;stop-opacity:1;" />
    </linearGradient>
    <linearGradient
       id="linearGradient3200">
      <stop
         style="stop-color:#b88100;stop-opacity:1;"
         offset="0"
         id="stop3202" />
      <stop
         style="stop-color:#b88100;stop-opacity:0;"
         offset="1"
         id="stop3204" />
    </linearGradient>
    <inkscape:perspective
       sodipodi:type="inkscape:persp3d"
       inkscape:vp_x="0 : 526.18109 : 1"
       inkscape:vp_y="0 : 1000 : 0"
       inkscape:vp_z="744.09448 : 526.18109 : 1"
       inkscape:persp3d-origin="372.04724 : 350.78739 : 1"
       id="perspective10" />
    <linearGradient
       inkscape:collect="always"
       xlink:href="#linearGradient3314"
       id="linearGradient3320"
       x1="18.637173"
       y1="37.404007"
       x2="18.50832"
       y2="37.096855"
       gradientUnits="userSpaceOnUse"
       spreadMethod="reflect" />
    <filter
       inkscape:collect="always"
       id="filter3486"
       x="-0.086785993"
       width="1.173572"
       y="-0.30285001"
       height="1.6057">
      <feGaussianBlur
         inkscape:collect="always"
         stdDeviation="1.3274679"
         id="feGaussianBlur3488" />
    </filter>
    <radialGradient
       inkscape:collect="always"
       xlink:href="#linearGradient3267"
       id="radialGradient2470"
       gradientUnits="userSpaceOnUse"
       gradientTransform="matrix(1.5616968,4.0922357e-2,-7.6347171e-2,2.002821,22.912519,-14.707782)"
       cx="9.6222763"
       cy="22.813292"
       fx="9.604146"
       fy="22.442429"
       r="7.4999995" />
    <radialGradient
       inkscape:collect="always"
       xlink:href="#linearGradient3222"
       id="radialGradient2472"
       gradientUnits="userSpaceOnUse"
       gradientTransform="matrix(1.5149871,1.0085176e-2,-1.0509901e-2,1.5787892,-8.3973066,-10.698014)"
       cx="16.677139"
       cy="18.192846"
       fx="16.677139"
       fy="18.192846"
       r="5.7911654" />
    <radialGradient
       inkscape:collect="always"
       xlink:href="#linearGradient3244"
       id="radialGradient2478"
       gradientUnits="userSpaceOnUse"
       gradientTransform="matrix(1.8014437,-3.7745633e-2,6.154338e-2,2.0190565,-6.6182428,-16.367033)"
       cx="9.6843719"
       cy="22.684328"
       fx="9.6843719"
       fy="22.684328"
       r="7.4999995" />
    <radialGradient
       inkscape:collect="always"
       xlink:href="#linearGradient3199"
       id="radialGradient2480"
       gradientUnits="userSpaceOnUse"
       gradientTransform="matrix(1.5149871,1.0085176e-2,-1.0509901e-2,1.5787892,-8.3973066,-10.698014)"
       cx="16.677139"
       cy="18.192846"
       fx="16.677139"
       fy="18.192846"
       r="5.7911654" />
    <radialGradient
       inkscape:collect="always"
       xlink:href="#linearGradient3244"
       id="radialGradient2477"
       gradientUnits="userSpaceOnUse"
       gradientTransform="matrix(1.8014437,-3.7745633e-2,6.154338e-2,2.0190565,-6.6182428,-16.367033)"
       cx="9.6843719"
       cy="22.684328"
       fx="9.6843719"
       fy="22.684328"
       r="7.4999995" />
    <radialGradient
       inkscape:collect="always"
       xlink:href="#linearGradient3199"
       id="radialGradient2479"
       gradientUnits="userSpaceOnUse"
       gradientTransform="matrix(1.5149871,1.0085176e-2,-1.0509901e-2,1.5787892,-8.3973066,-10.698014)"
       cx="16.677139"
       cy="18.192846"
       fx="16.677139"
       fy="18.192846"
       r="5.7911654" />
    <radialGradient
       inkscape:collect="always"
       xlink:href="#linearGradient3244"
       id="radialGradient2483"
       gradientUnits="userSpaceOnUse"
       gradientTransform="matrix(1.8014437,-3.7745633e-2,6.154338e-2,2.0190565,-8.2618111,-20.867034)"
       cx="9.6843719"
       cy="22.684328"
       fx="9.6843719"
       fy="22.684328"
       r="7.4999995" />
    <radialGradient
       inkscape:collect="always"
       xlink:href="#linearGradient3267"
       id="radialGradient2487"
       gradientUnits="userSpaceOnUse"
       gradientTransform="matrix(1.5616968,4.0922357e-2,-7.6347171e-2,2.002821,22.912519,-14.707782)"
       cx="9.6222763"
       cy="22.813292"
       fx="9.604146"
       fy="22.442429"
       r="7.4999995" />
    <radialGradient
       inkscape:collect="always"
       xlink:href="#linearGradient3222"
       id="radialGradient2489"
       gradientUnits="userSpaceOnUse"
       gradientTransform="matrix(1.5149871,1.0085176e-2,-1.0509901e-2,1.5787892,-8.3973066,-10.698014)"
       cx="16.677139"
       cy="18.192846"
       fx="16.677139"
       fy="18.192846"
       r="5.7911654" />
    <radialGradient
       inkscape:collect="always"
       xlink:href="#linearGradient3199"
       id="radialGradient2491"
       gradientUnits="userSpaceOnUse"
       gradientTransform="matrix(1.5149871,1.0085176e-2,-1.0509901e-2,1.5787892,-8.3973066,-10.698014)"
       cx="16.677139"
       cy="18.192846"
       fx="16.677139"
       fy="18.192846"
       r="5.7911654" />
    <radialGradient
       inkscape:collect="always"
       xlink:href="#linearGradient3199"
       id="radialGradient2497"
       gradientUnits="userSpaceOnUse"
       gradientTransform="matrix(1.5149871,1.0085176e-2,-1.0509901e-2,1.5787892,-8.3973066,-10.698014)"
       cx="16.677139"
       cy="18.192846"
       fx="16.677139"
       fy="18.192846"
       r="5.7911654" />
    <radialGradient
       inkscape:collect="always"
       xlink:href="#linearGradient3244"
       id="radialGradient2499"
       gradientUnits="userSpaceOnUse"
       gradientTransform="matrix(1.8014437,-3.7745633e-2,6.154338e-2,2.0190565,-8.2618111,-20.867034)"
       cx="9.6843719"
       cy="22.684328"
       fx="9.6843719"
       fy="22.684328"
       r="7.4999995" />
    <radialGradient
       inkscape:collect="always"
       xlink:href="#linearGradient3267"
       id="radialGradient2507"
       gradientUnits="userSpaceOnUse"
       gradientTransform="matrix(1.8014437,-3.7745633e-2,6.154338e-2,2.0190565,-8.2618111,-20.867034)"
       cx="9.6843719"
       cy="22.684328"
       fx="9.6843719"
       fy="22.684328"
       r="7.4999995" />
    <radialGradient
       inkscape:collect="always"
       xlink:href="#linearGradient3222"
       id="radialGradient2509"
       gradientUnits="userSpaceOnUse"
       gradientTransform="matrix(1.5149871,1.0085176e-2,-1.0509901e-2,1.5787892,-8.3973066,-10.698014)"
       cx="16.677139"
       cy="18.192846"
       fx="16.677139"
       fy="18.192846"
       r="5.7911654" />
    <radialGradient
       inkscape:collect="always"
       xlink:href="#linearGradient3244"
       id="radialGradient3289"
       gradientUnits="userSpaceOnUse"
       gradientTransform="matrix(1.8014437,-3.7745633e-2,6.154338e-2,2.0190565,-8.2618111,-20.867034)"
       cx="9.6843719"
       cy="22.684328"
       fx="9.6843719"
       fy="22.684328"
       r="7.4999995" />
    <radialGradient
       inkscape:collect="always"
       xlink:href="#linearGradient3199"
       id="radialGradient3291"
       gradientUnits="userSpaceOnUse"
       gradientTransform="matrix(1.5149871,1.0085176e-2,-1.0509901e-2,1.5787892,-8.3973066,-10.698014)"
       cx="16.677139"
       cy="18.192846"
       fx="16.677139"
       fy="18.192846"
       r="5.7911654" />
    <radialGradient
       inkscape:collect="always"
       xlink:href="#linearGradient3299"
       id="radialGradient3293"
       gradientUnits="userSpaceOnUse"
       gradientTransform="matrix(1.8014437,-3.7745633e-2,6.154338e-2,2.0190565,-8.2618111,-20.867034)"
       cx="9.6843719"
       cy="22.684328"
       fx="9.6843719"
       fy="22.684328"
       r="7.4999995" />
    <radialGradient
       inkscape:collect="always"
       xlink:href="#linearGradient3222"
       id="radialGradient3295"
       gradientUnits="userSpaceOnUse"
       gradientTransform="matrix(1.5149871,1.0085176e-2,-1.0509901e-2,1.5787892,-8.3973066,-10.698014)"
       cx="16.677139"
       cy="18.192846"
       fx="16.677139"
       fy="18.192846"
       r="5.7911654" />
    <linearGradient
       inkscape:collect="always"
       xlink:href="#linearGradient3314"
       id="linearGradient3297"
       gradientUnits="userSpaceOnUse"
       spreadMethod="reflect"
       x1="18.637173"
       y1="37.404007"
       x2="18.50832"
       y2="37.096855" />
    <linearGradient
       inkscape:collect="always"
       xlink:href="#linearGradient3244"
       id="linearGradient6102"
       x1="20.106962"
       y1="17.379259"
       x2="13.183582"
       y2="27.056679"
       gradientUnits="userSpaceOnUse" />
    <linearGradient
       inkscape:collect="always"
       xlink:href="#linearGradient3299"
       id="linearGradient6110"
       x1="22.88773"
       y1="8.8130388"
       x2="5.6351943"
       y2="28.282484"
       gradientUnits="userSpaceOnUse" />
  </defs>
  <sodipodi:namedview
     id="base"
     pagecolor="#ffffff"
     bordercolor="#666666"
     borderopacity="1.0"
     inkscape:pageopacity="0.0"
     inkscape:pageshadow="2"
     inkscape:zoom="15.5"
     inkscape:cx="24"
     inkscape:cy="24"
     inkscape:document-units="px"
     inkscape:current-layer="layer1"
     showgrid="true"
     showguides="true"
     inkscape:guide-bbox="true"
     inkscape:window-width="1280"
     inkscape:window-height="951"
     inkscape:window-x="0"
     inkscape:window-y="25">
    <inkscape:grid
       type="axonomgrid"
       id="grid2383"
       units="px"
       visible="true"
       enabled="true"
       spacingy="1px"
       gridanglex="16.25"
       gridanglez="24.5" />
    <sodipodi:guide
       orientation="0,1"
       position="3.2910737,12.915912"
       id="guide2485" />
  </sodipodi:namedview>
  <metadata
     id="metadata7">
    <rdf:RDF>
      <cc:Work
         rdf:about="">
        <dc:format>image/svg+xml</dc:format>
        <dc:type
           rdf:resource="http://purl.org/dc/dcmitype/StillImage" />
        <dc:title>preference-system-user</dc:title>
        <dc:date>2008-08-16</dc:date>
        <dc:creator>
          <cc:Agent>
            <dc:title>Luya Tshimbalanga</dc:title>
          </cc:Agent>
        </dc:creator>
        <dc:contributor>
          <cc:Agent>
            <dc:title>Martin Sourada
Nicu Buculei</dc:title>
          </cc:Agent>
        </dc:contributor>
        <dc:subject>
          <rdf:Bag>
            <rdf:li>echo icon theme</rdf:li>
          </rdf:Bag>
        </dc:subject>
        <cc:license
           rdf:resource="http://creativecommons.org/licenses/by-sa/3.0/" />
      </cc:Work>
      <cc:License
         rdf:about="http://creativecommons.org/licenses/by-sa/3.0/">
        <cc:permits
           rdf:resource="http://creativecommons.org/ns#Reproduction" />
        <cc:permits
           rdf:resource="http://creativecommons.org/ns#Distribution" />
        <cc:requires
           rdf:resource="http://creativecommons.org/ns#Notice" />
        <cc:requires
           rdf:resource="http://creativecommons.org/ns#Attribution" />
        <cc:permits
           rdf:resource="http://creativecommons.org/ns#DerivativeWorks" />
        <cc:requires
           rdf:resource="http://creativecommons.org/ns#ShareAlike" />
      </cc:License>
    </rdf:RDF>
  </metadata>
  <g
     inkscape:groupmode="layer"
     id="layer2"
     inkscape:label="shadow" />
  <g
     inkscape:label="object"
     inkscape:groupmode="layer"
     id="layer1">
    <path
       sodipodi:type="arc"
       style="fill:url(#radialGradient3229);fill-opacity:1;stroke:none;stroke-width:0.50004888;stroke-linecap:round;stroke-linejoin:round;stroke-miterlimit:4;stroke-dasharray:none;stroke-opacity:1;filter:url(#filter3486)"
       id="path3227"
       sodipodi:cx="28.088192"
       sodipodi:cy="37.096855"
       sodipodi:rx="18.355053"
       sodipodi:ry="5.2599025"
       d="M 46.443245,37.096855 A 18.355053,5.2599025 0 1 1 9.733139,37.096855 A 18.355053,5.2599025 0 1 1 46.443245,37.096855 z"
       transform="matrix(0.7432049,0,0,1.1970859,-4.2337166,-8.6047897)" />
    <path
       transform="matrix(0.7115957,0,0,1.153461,13.852464,-2.3562995)"
       d="M 46.443245,37.096855 A 18.355053,5.2599025 0 1 1 9.733139,37.096855 A 18.355053,5.2599025 0 1 1 46.443245,37.096855 z"
       sodipodi:ry="5.2599025"
       sodipodi:rx="18.355053"
       sodipodi:cy="37.096855"
       sodipodi:cx="28.088192"
       id="path3304"
       style="fill:url(#radialGradient3205);fill-opacity:1;stroke:none;stroke-width:0.50004888;stroke-linecap:round;stroke-linejoin:round;stroke-miterlimit:4;stroke-dasharray:none;stroke-opacity:1;filter:url(#filter3486)"
       sodipodi:type="arc" />
    <g
       id="g2493"
       transform="translate(2.9797838,0.9659826)">
      <path
         sodipodi:nodetypes="czzcc"
         id="rect2389"
         d="M 12,38.5 C 4.3464974,38.61513 1.054037,36.424937 1,33 C 0.94593867,29.573522 1.9799299,17.129965 12,17.285975 C 22.020069,17.441986 23.057366,31.752281 23,33 C 22.979765,36.856845 18.816533,38.6258 12,38.5 z"
         style="fill:url(#radialGradient3289);fill-opacity:1;stroke:url(#linearGradient6102);stroke-width:0.75000000000000000;stroke-linecap:round;stroke-linejoin:round;stroke-miterlimit:4;stroke-opacity:1;stroke-dasharray:none" />
      <path
         sodipodi:type="arc"
         style="fill:url(#radialGradient3291);fill-opacity:1;stroke:#804d00;stroke-width:0.5;stroke-linecap:round;stroke-linejoin:round;stroke-miterlimit:4;stroke-dasharray:none;stroke-opacity:1"
         id="path3182"
         sodipodi:cx="17.48077"
         sodipodi:cy="20.192308"
         sodipodi:rx="5.5411654"
         sodipodi:ry="5.5411654"
         d="M 23.021935,20.192308 A 5.5411654,5.5411654 0 1 1 11.939605,20.192308 A 5.5411654,5.5411654 0 1 1 23.021935,20.192308 z"
         transform="matrix(2.0686502,0,0,2.0686502,-24.161487,-29.702322)" />
    </g>
    <g
       transform="translate(20.758307,5.8243668)"
       id="g2501">
      <path
         style="fill:url(#radialGradient3293);fill-opacity:1;stroke:url(#linearGradient6110);stroke-width:0.75000000000000000;stroke-linecap:round;stroke-linejoin:round;stroke-miterlimit:4;stroke-opacity:1;stroke-dasharray:none"
         d="M 12,38.5 C 4.3464974,38.61513 1.054037,36.424937 1,33 C 0.94593867,29.573522 1.9799299,17.129965 12,17.285975 C 22.020069,17.441986 23.057366,31.752281 23,33 C 22.979765,36.856845 18.816533,38.6258 12,38.5 z"
         id="path2503"
         sodipodi:nodetypes="czzcc" />
      <path
         transform="matrix(2.0686502,0,0,2.0686502,-24.161487,-29.702322)"
         d="M 23.021935,20.192308 A 5.5411654,5.5411654 0 1 1 11.939605,20.192308 A 5.5411654,5.5411654 0 1 1 23.021935,20.192308 z"
         sodipodi:ry="5.5411654"
         sodipodi:rx="5.5411654"
         sodipodi:cy="20.192308"
         sodipodi:cx="17.48077"
         id="path2505"
         style="fill:url(#radialGradient3295);fill-opacity:1;stroke:#804d00;stroke-width:0.5;stroke-linecap:round;stroke-linejoin:round;stroke-miterlimit:4;stroke-dasharray:none;stroke-opacity:1"
         sodipodi:type="arc" />
    </g>
  </g>
</svg>
