<?xml version="1.0" encoding="UTF-8"?>
<svg xmlns="http://www.w3.org/2000/svg" xmlns:dc="http://purl.org/dc/elements/1.1/" xmlns:cc="http://web.resource.org/cc/" xmlns:rdf="http://www.w3.org/1999/02/22-rdf-syntax-ns#" xmlns:svg="http://www.w3.org/2000/svg" xmlns:xlink="http://www.w3.org/1999/xlink" enable-background="new 0 0 90.562 113.083" height="48" overflow="visible" viewBox="0 0 90.562 113.083" width="48" id="svg2" version="1.0">
  <metadata id="metadata28">
    <rdf:RDF>
      <cc:Work rdf:about="">
        <dc:format>image/svg+xml</dc:format>
        <dc:type rdf:resource="http://purl.org/dc/dcmitype/StillImage"/>
      </cc:Work>
    </rdf:RDF>
  </metadata>
  <defs id="defs67">
    <linearGradient gradientUnits="userSpaceOnUse" id="XMLID_4_" x1="71.292" x2="36.5816" y1="28.461901" y2="65.684303">
      <stop offset="0" style="stop-color:#9EABB0" id="stop16"/>
      <stop offset="0.2956" style="stop-color:#707F86" id="stop18"/>
      <stop offset="0.7758" style="stop-color:#2A3D47" id="stop20"/>
      <stop offset="1" style="stop-color:#0E232E" id="stop22"/>
    </linearGradient>
    <linearGradient gradientUnits="userSpaceOnUse" id="XMLID_5_" x1="41.2271" x2="75.228104" y1="59.9146" y2="25.4135">
      <stop offset="0.1067" style="stop-color:#858585" id="stop27"/>
      <stop offset="0.1429" style="stop-color:#898989" id="stop29"/>
      <stop offset="0.548" style="stop-color:#B6B6B6" id="stop31"/>
      <stop offset="0.7528" style="stop-color:#C7C7C7" id="stop33"/>
      <stop offset="1" style="stop-color:#CFCFCF" id="stop35"/>
    </linearGradient>
    <radialGradient cx="64.977501" cy="1.1665" fx="63.977501" fy="14.8347" gradientUnits="userSpaceOnUse" id="XMLID_6_" r="79.494102">
      <stop offset="0.118" style="stop-color:#FFFFFF" id="stop42"/>
      <stop offset="0.1369" style="stop-color:#F3FBFF" id="stop44"/>
      <stop offset="0.4888" style="stop-color:#19AEFF" id="stop46"/>
    </radialGradient>
  </defs>
  <g id="g2342" transform="matrix(0.8787414,0,0,0.8787414,-1.30594,6.5296665)">
    <path id="path24" d="M 90.062,109.917 C 87.75,111.063 83.841,113.118 83.729,113.083 C 81.354,112.333 2.125,89.25 0,88.625 C 0,86.083 0.25,20.813 0.25,3.063 C 2.562,1.917 6.898,-0.027 7,0 C 9.75,0.75 88.062,23.438 90.562,24.188 C 90.562,27.813 90.438,91.792 90.062,109.917 z " style="fill:url(#XMLID_4_)"/>
    <path id="polygon37" d="M 88.353,108.375 L 83.813,110.5 L 6.088,84.435 L 1.938,3.5 L 6.812,1.25 L 88.812,25.125 L 88.353,108.375 z " style="fill:url(#XMLID_5_)"/>
    <path id="polygon39" d="M 83.728,110.476 L 1.463,86.685 L 1.871,3.483 L 84.135,27.275 L 83.728,110.476 z " style="fill:#ffffff"/>
    <path id="polygon48" d="M 77.926,102.646 L 6.592,81.975 L 6.954,9.877 L 78.301,30.47 L 77.926,102.646 z " style="fill:url(#XMLID_6_)"/>
    <path id="path60" d="M 42.064,34.585 C 42.03,38.625 38.933,40.93 35.144,39.736 C 31.354,38.542 28.31,34.299 28.341,30.26 C 28.374,26.219 31.471,23.914 35.261,25.108 C 39.051,26.303 42.097,30.546 42.064,34.585 z " style="fill:#ffffff"/>
    <path id="polygon62" d="M 38.161,49.874 L 47.999,52.975 L 47.958,58.282 L 38.119,55.148 L 38.09,58.667 L 53.366,63.49 L 60.299,76.68 L 63.42,75.819 L 65.572,80.678 L 58.058,82.705 L 50.502,68.305 L 31.716,62.292 L 31.779,40.896 L 38.108,42.89 L 38.161,49.874 z " style="fill:#ffffff"/>
    <path id="path64" d="M 51.275,77.696 C 50.446,83.972 44.088,89.047 35.198,86.245 C 26.427,83.481 19.376,73.879 19.45,64.799 C 19.502,58.305 23.184,53.837 28.485,52.828 L 28.431,59.476 C 28.431,59.476 24.863,59.874 24.863,65.898 C 24.863,71.138 29.201,78.823 35.242,80.726 C 39.471,82.059 45.791,81.468 47.893,71.31 C 49.171,73.953 51.275,77.696 51.275,77.696 z " style="fill:#ffffff"/>
  </g>
</svg>
