<?xml version="1.0" encoding="UTF-8"?>
<svg xmlns="http://www.w3.org/2000/svg" xmlns:dc="http://purl.org/dc/elements/1.1/" xmlns:cc="http://web.resource.org/cc/" xmlns:rdf="http://www.w3.org/1999/02/22-rdf-syntax-ns#" xmlns:svg="http://www.w3.org/2000/svg" xmlns:xlink="http://www.w3.org/1999/xlink" width="48" height="48" viewBox="0 0 123.791 117.394" overflow="visible" enable-background="new 0 0 123.791 117.394" preserveAspectRatio="xMidYMid meet" zoomAndPan="magnify" version="1.0" contentScriptType="text/ecmascript" contentStyleType="text/css" id="svg2">
  <defs id="defs135">
    <linearGradient id="linearGradient3420">
      <stop style="stop-color:#4ec7dd;stop-opacity:1;" offset="0" id="stop3422"/>
      <stop style="stop-color:#3abdff;stop-opacity:0;" offset="1" id="stop3424"/>
    </linearGradient>
    <linearGradient xlink:href="#linearGradient3420" id="linearGradient3418" x1="24.367725" y1="60.953613" x2="41.573273" y2="60.953613" gradientUnits="userSpaceOnUse"/>
  </defs>
  <metadata id="metadata4">
    <rdf:RDF>
      <cc:Work rdf:about="">
        <dc:format>image/svg+xml</dc:format>
        <dc:type rdf:resource="http://purl.org/dc/dcmitype/StillImage"/>
      </cc:Work>
    </rdf:RDF>
  </metadata>
  <g id="g3440">
    <switch id="switch6">
      <foreignObject id="foreignObject8" content="structured text" height="1" width="1" y="0" x="0" requiredExtensions="http://ns.adobe.com/AdobeIllustrator/10.0/"/>
      <g id="g10">
        <g id="Layer_1">
          <linearGradient xlink:actuate="onLoad" xlink:show="other" xlink:type="simple" gradientTransform="matrix(-1,0,0,1,185.5166,0)" y2="98.386497" x2="87.365501" y1="28.793501" x1="124.0903" gradientUnits="userSpaceOnUse" id="XMLID_10_">
            <stop id="stop14" style="stop-color:#949799" offset="0"/>
            <stop id="stop16" style="stop-color:#111719" offset="1"/>
          </linearGradient>
          <path id="path18" d="M 51.825,56.942 C 57.79,35.939 68.27,24.021 77.298,16.783 C 93.321,3.945 114.322,26.192 116.368,57.283 C 119.026,58.715 118.689,58.582 122.096,61.988 C 126.595,66.489 122.856,98.704 102.049,97.784 C 83.232,111.694 69.111,108.726 62.564,107.499 C 56.02,106.271 52.14,100.853 50.095,95.534 C 47.728,89.376 46.151,76.92 51.825,56.942 z " style="fill:url(#XMLID_10_)"/>
          <radialGradient xlink:actuate="onLoad" xlink:show="other" xlink:type="simple" gradientUnits="userSpaceOnUse" gradientTransform="matrix(-0.9325,-0.361,-0.361,0.9325,241.0349,46.5011)" fy="100.9248" fx="151.57671" r="49.3843" cy="100.9248" cx="151.57671" id="XMLID_11_">
            <stop id="stop21" style="stop-color:#DADFE2" offset="0.264"/>
            <stop id="stop23" style="stop-color:#D0D6DA" offset="0.3579"/>
            <stop id="stop25" style="stop-color:#B4BFC5" offset="0.5193"/>
            <stop id="stop27" style="stop-color:#8799A2" offset="0.7286"/>
            <stop id="stop29" style="stop-color:#4A6573" offset="0.9756"/>
            <stop id="stop31" style="stop-color:#43606E" offset="1"/>
          </radialGradient>
          <path id="path33" d="M 57.278,47.48 C 46.169,77.687 48.97,99.47 61.185,104.945 C 68.075,108.033 89.765,104.069 99.78,78.201 C 109.795,52.333 112.776,36.818 95.061,17.855 C 83.907,5.918 63.998,29.202 57.278,47.48 z " style="fill:url(#XMLID_11_)"/>
          <radialGradient xlink:actuate="onLoad" xlink:show="other" xlink:type="simple" gradientUnits="userSpaceOnUse" gradientTransform="matrix(-1,0,0,1,185.5166,0)" fy="56.874001" fx="100.6499" r="30.663799" cy="56.874001" cx="100.6499" id="XMLID_12_">
            <stop id="stop36" style="stop-color:#FFFFFF" offset="0"/>
            <stop id="stop38" style="stop-color:#021F2E" offset="1"/>
          </radialGradient>
          <path id="path40" d="M 77.42,63.933 C 73.976,73.768 75.525,83.264 80.882,85.14 C 86.24,87.016 93.376,80.564 96.82,70.73 C 100.264,60.894 98.715,51.399 93.358,49.522 C 88,47.645 80.865,54.098 77.42,63.933 z " style="fill:url(#XMLID_12_)"/>
          <radialGradient xlink:actuate="onLoad" xlink:show="other" xlink:type="simple" gradientUnits="userSpaceOnUse" gradientTransform="matrix(-1.2673,-0.3997,-0.3506,0.5974,296.1353,107.6786)" fy="1.9668" fx="141.2769" r="73.170998" cy="1.9668" cx="141.2769" id="XMLID_13_">
            <stop id="stop43" style="stop-color:#A8ACAD" offset="0"/>
            <stop id="stop45" style="stop-color:#1A2226" offset="0.5955"/>
          </radialGradient>
          <path id="path47" d="M 103.277,24.3 C 98.235,39.568 101.594,105.582 64.408,105.805 C 92.208,109.698 100.068,93.727 102.233,94.01 C 104.199,95.175 106.126,94.751 110.889,92.874 C 115.018,91.248 122.248,81.26 121.781,69.775 C 121.255,56.874 114.171,63.572 114.015,53.447 C 114.477,38.567 103.894,22.43 103.277,24.3 z " style="fill:url(#XMLID_13_)"/>
          <linearGradient xlink:actuate="onLoad" xlink:show="other" xlink:type="simple" gradientTransform="matrix(-0.9325,-0.361,-0.361,0.9325,241.0349,46.5011)" y2="92.862503" x2="132.9984" y1="31.854" x1="123.5151" gradientUnits="userSpaceOnUse" id="XMLID_14_">
            <stop id="stop50" style="stop-color:#9DABB1" offset="0"/>
            <stop id="stop52" style="stop-color:#ACB7BD" offset="0.0376"/>
            <stop id="stop54" style="stop-color:#C5CDD1" offset="0.1174"/>
            <stop id="stop56" style="stop-color:#D5DADE" offset="0.1896"/>
            <stop id="stop58" style="stop-color:#DADFE2" offset="0.2472"/>
            <stop id="stop60" style="stop-color:#28353B" offset="1"/>
          </linearGradient>
          <path id="path62" d="M 62.777,105.431 C 87.148,111.742 102.261,86.258 107.5,80.484 C 112.736,74.71 103.376,89.366 107.388,89.961 C 109.711,90.302 114.474,87.771 117.21,79.989 C 120.445,70.784 118.448,68.023 115.454,64.726 C 114.99,64.215 110.232,66.694 105.527,78.352 C 109.259,64.187 111.255,64.034 111.868,59.431 C 112.636,42.403 108.8,21.284 92.278,15.696 C 111.416,32.486 94.214,104.112 62.777,105.431 z " style="fill:url(#XMLID_14_)"/>
          <linearGradient xlink:actuate="onLoad" xlink:show="other" xlink:type="simple" gradientTransform="matrix(-0.9325,-0.361,-0.361,0.9325,241.0349,46.5011)" y2="72.295898" x2="155.2397" y1="72.295898" x1="125.9243" gradientUnits="userSpaceOnUse" id="XMLID_15_">
            <stop id="stop65" style="stop-color:#A1A7AA" offset="0"/>
            <stop id="stop67" style="stop-color:#1A2226" offset="0.8933"/>
          </linearGradient>
          <path id="path69" d="M 97.448,61.047 C 92.64,79.15 70.831,117.65 54.339,98.781 C 71.443,124.093 97.293,74.542 99.308,62.397 C 105.219,42.76 100.618,13.51 89.163,15.556 C 97.141,15.454 102.357,40.26 97.448,61.047 z " style="fill:url(#XMLID_15_)"/>
          <linearGradient xlink:actuate="onLoad" xlink:show="other" xlink:type="simple" gradientTransform="matrix(0.9618,0.2738,-0.2738,0.9618,45.6307,-18.7395)" y2="66.872101" x2="54.440899" y1="66.872101" x1="28.6479" gradientUnits="userSpaceOnUse" id="XMLID_16_">
            <stop id="stop72" style="stop-color:#A1A7AA" offset="0"/>
            <stop id="stop74" style="stop-color:#1A2226" offset="0.8933"/>
          </linearGradient>
          <path id="path76" d="M 57.988,51.301 C 50.228,72.281 48.88,95.718 62.548,104.074 C 40.968,98.345 52.614,58.738 56.853,47.976 C 62.572,33.454 79.652,9.112 92.386,15.862 C 81.034,12.641 65.616,30.675 57.988,51.301 z " style="fill:url(#XMLID_16_)"/>
        </g>
      </g>
    </switch>
    <g transform="matrix(0.9887937,-0.149288,0.149288,0.9887937,-7.3119092,4.8799905)" id="g3407">
      <path style="opacity:1;fill:none;fill-opacity:1;stroke:url(#linearGradient3418);stroke-width:9.58014774;stroke-linecap:round;stroke-linejoin:round;stroke-miterlimit:4;stroke-dasharray:none;stroke-opacity:1" id="path3405" d="M 38.477683,88.586293 A 17.529617,30.178576 0 0 1 37.46437,33.320932" transform="matrix(0.6078165,0.4258788,-0.3290329,0.8425099,43.972952,-7.9796039)"/>
    </g>
  </g>
</svg>
