<?xml version="1.0" encoding="UTF-8" standalone="no"?>
<!-- Created with Inkscape (http://www.inkscape.org/) -->
<svg
   xmlns:svg="http://www.w3.org/2000/svg"
   xmlns="http://www.w3.org/2000/svg"
   xmlns:xlink="http://www.w3.org/1999/xlink"
   xmlns:inkscape="http://www.inkscape.org/namespaces/inkscape"
   version="1.0"
   width="48"
   height="48"
   viewBox="0 0 104.743 103.465"
   id="svg2">
  <defs
     id="defs71">
    <foreignObject
       requiredExtensions="http://ns.adobe.com/AdobeIllustrator/10.0/"
       x="0"
       y="0"
       width="1"
       height="1"
       content="structured text"
       id="foreignObject8" />
    <linearGradient
       x1="40.559101"
       y1="87.120102"
       x2="60.540501"
       y2="12.5486"
       id="XMLID_5_"
       gradientUnits="userSpaceOnUse"
       gradientTransform="matrix(1.0196,3.5e-3,-0.1096,0.9804,11.6655,1.9719)">
      <stop
         style="stop-color:#875800;stop-opacity:1"
         offset="0.1067"
         id="stop15" />
      <stop
         style="stop-color:#ffc022;stop-opacity:1"
         offset="1"
         id="stop17" />
    </linearGradient>
    <linearGradient
       x1="46.3657"
       y1="69.792999"
       x2="62.0037"
       y2="11.4314"
       id="XMLID_6_"
       gradientUnits="userSpaceOnUse">
      <stop
         style="stop-color:#804d00;stop-opacity:1"
         offset="0.0056"
         id="stop22" />
      <stop
         style="stop-color:#eca900;stop-opacity:1"
         offset="1"
         id="stop34" />
    </linearGradient>
    <linearGradient
       x1="41.942402"
       y1="82.419899"
       x2="54.4883"
       y2="40.065399"
       id="XMLID_7_"
       gradientUnits="userSpaceOnUse">
      <stop
         style="stop-color:#b88100;stop-opacity:1"
         offset="0.0056"
         id="stop39" />
      <stop
         style="stop-color:#d2980c;stop-opacity:1"
         offset="0.15000001"
         id="stop43" />
      <stop
         style="stop-color:#d8a72e;stop-opacity:1"
         offset="0.44"
         id="stop45" />
      <stop
         style="stop-color:#f0c966;stop-opacity:1"
         offset="1"
         id="stop49" />
    </linearGradient>
    <linearGradient
       x1="57.443401"
       y1="84.984398"
       x2="48.105"
       y2="46.466301"
       id="XMLID_8_"
       gradientUnits="userSpaceOnUse">
      <stop
         style="stop-color:#804d00;stop-opacity:1"
         offset="0.0056"
         id="stop54" />
      <stop
         style="stop-color:#ff9900;stop-opacity:1"
         offset="1"
         id="stop66" />
    </linearGradient>
    <linearGradient
       x1="79.216064"
       y1="64.288002"
       x2="-27.216642"
       y2="8.80548"
       id="linearGradient2351"
       xlink:href="#XMLID_8_"
       gradientUnits="userSpaceOnUse"
       gradientTransform="matrix(0.8768376,0,0,0.8768376,2.2034945,5.6990514)" />
    <linearGradient
       x1="41.942402"
       y1="82.419899"
       x2="54.4883"
       y2="40.065399"
       id="linearGradient2354"
       xlink:href="#XMLID_7_"
       gradientUnits="userSpaceOnUse"
       gradientTransform="matrix(0.8768376,0,0,0.8768376,2.2034945,5.6990514)" />
    <linearGradient
       x1="46.3657"
       y1="69.792999"
       x2="62.0037"
       y2="11.4314"
       id="linearGradient2357"
       xlink:href="#XMLID_6_"
       gradientUnits="userSpaceOnUse"
       gradientTransform="matrix(0.8768376,0,0,0.8768376,2.2034945,5.6990514)" />
    <linearGradient
       x1="40.559101"
       y1="87.120102"
       x2="60.540501"
       y2="12.5486"
       id="linearGradient2360"
       xlink:href="#XMLID_5_"
       gradientUnits="userSpaceOnUse"
       gradientTransform="matrix(0.8940236,3.0689316e-3,-9.6101401e-2,0.8596516,12.432244,7.4280875)" />
    <filter
       id="filter4797"
       height="1.4078947"
       y="-0.20394737"
       width="1.1324786"
       x="-0.066239312">
      <feGaussianBlur
         id="feGaussianBlur4799"
         stdDeviation="2.497824"
         inkscape:collect="always" />
    </filter>
    <linearGradient
       x1="41.790001"
       y1="82.392601"
       x2="54.335999"
       y2="40.038101"
       id="linearGradient2388"
       xlink:href="#XMLID_6_"
       gradientUnits="userSpaceOnUse" />
    <linearGradient
       x1="41.51223"
       y1="71.070488"
       x2="-8.7665567"
       y2="3.7742782"
       id="linearGradient2386"
       xlink:href="#linearGradient2292"
       gradientUnits="userSpaceOnUse" />
    <linearGradient
       x1="48.272591"
       y1="76.581291"
       x2="55.147446"
       y2="1.3826841"
       id="linearGradient2384"
       xlink:href="#XMLID_5_"
       gradientUnits="userSpaceOnUse"
       gradientTransform="matrix(1.0196,3.5e-3,-0.1096,0.9804,11.6667,1.9721)" />
    <linearGradient
       x1="55.550026"
       y1="77.960251"
       x2="9.1474981"
       y2="-26.127092"
       id="linearGradient2382"
       xlink:href="#XMLID_4_"
       gradientUnits="userSpaceOnUse"
       gradientTransform="matrix(1.0196,3.5e-3,-0.1096,0.9804,11.6667,1.9721)" />
    <linearGradient
       x1="41.790001"
       y1="82.392601"
       x2="54.335999"
       y2="40.038101"
       id="linearGradient5467"
       gradientUnits="userSpaceOnUse">
      <stop
         style="stop-color:#b88100;stop-opacity:1"
         offset="0.0056"
         id="stop617" />
      <stop
         style="stop-color:#d2980c;stop-opacity:1"
         offset="0.15459782"
         id="stop619" />
      <stop
         style="stop-color:#d8a72e;stop-opacity:1"
         offset="0.44"
         id="stop621" />
      <stop
         style="stop-color:#f0c966;stop-opacity:1"
         offset="1"
         id="stop627" />
    </linearGradient>
    <linearGradient
       x1="48.272591"
       y1="76.581291"
       x2="55.147446"
       y2="1.3826841"
       id="linearGradient5462"
       gradientUnits="userSpaceOnUse"
       gradientTransform="matrix(1.0196,3.5e-3,-0.1096,0.9804,11.6667,1.9721)">
      <stop
         style="stop-color:#875800;stop-opacity:1"
         offset="0.1067"
         id="stop606" />
      <stop
         style="stop-color:#c38c11;stop-opacity:1"
         offset="0.58692271"
         id="stop608" />
      <stop
         style="stop-color:#ffc022;stop-opacity:1"
         offset="0.92129999"
         id="stop610" />
    </linearGradient>
    <linearGradient
       x1="55.550026"
       y1="77.960251"
       x2="9.1474981"
       y2="-26.127092"
       id="XMLID_4_"
       gradientUnits="userSpaceOnUse"
       gradientTransform="matrix(1.0196,3.5e-3,-0.1096,0.9804,11.6667,1.9721)">
      <stop
         style="stop-color:#804d00;stop-opacity:1"
         offset="0.0056"
         id="stop587" />
      <stop
         style="stop-color:#eca900;stop-opacity:1"
         offset="1"
         id="stop601" />
    </linearGradient>
    <foreignObject
       id="foreignObject580"
       content="structured text"
       height="1"
       width="1"
       y="0"
       x="0"
       requiredExtensions="http://ns.adobe.com/AdobeIllustrator/10.0/" />
    <linearGradient
       id="linearGradient2292">
      <stop
         style="stop-color:#804d00;stop-opacity:1"
         offset="0"
         id="stop2294" />
      <stop
         style="stop-color:#ff9900;stop-opacity:1"
         offset="1"
         id="stop2296" />
    </linearGradient>
  </defs>
  <path
     d="M 7.747755,76.006372 L 82.779166,97.664924 L 96.96036,91.218926 L 23.733828,69.302535 L 7.747755,76.006372 z "
     style="opacity:0.5;fill:#2d2d2d;fill-rule:evenodd;stroke:none;stroke-width:1px;stroke-linecap:butt;stroke-linejoin:miter;stroke-opacity:1;filter:url(#filter4797)"
     id="path2390" />
  <path
     d="M 81.839639,93.580977 C 78.352456,92.868985 16.801087,75.009556 15.074594,73.787245 C 13.673407,72.792911 18.406577,33.627206 20.139208,15.509987 C 20.522386,11.504593 22.419862,7.9121895 22.765336,7.3308462 C 23.085382,6.7933447 35.09718,10.250715 41.925991,12.605901 C 43.167593,13.033798 43.482378,19.133957 44.858136,19.387363 C 56.139529,21.468099 91.232323,32.200591 91.907488,33.523739 C 93.009673,35.676375 87.378622,94.71122 81.839639,93.580977 z "
     style="opacity:0.5;fill:url(#linearGradient2360)"
     id="path19" />
  <path
     d="M 82.565661,96.414039 C 78.571665,96.003679 19.618366,78.202999 15.94354,77.014007 C 14.491497,76.544022 12.359904,75.519876 11.391876,73.741649 C 10.346685,71.823128 9.8819614,70.507872 9.4189911,68.151809 C 8.2335067,62.128812 3.0022936,39.301222 2.2087555,31.763049 C 1.9895461,29.681437 9.3339379,29.570955 16.640626,30.009374 C 16.929982,25.981182 17.178127,20.647379 18.021645,16.312294 C 19.129091,10.620741 20.894165,6.3294976 21.450957,5.7621837 C 22.081403,5.1203386 37.69262,9.4729604 44.334664,12.076291 C 45.177305,12.406859 46.083079,18.451777 47.612283,18.751656 C 59.919576,21.158575 93.112263,31.534194 93.868097,32.993252 C 95.100054,35.365098 89.788172,97.155844 82.565661,96.414039 z M 91.908365,33.522862 C 91.232323,32.199714 56.140406,21.467222 44.859013,19.386486 C 43.484132,19.13308 43.16847,13.032921 41.926868,12.605024 C 35.098934,10.249839 23.086259,6.7924679 22.766213,7.3299693 C 22.362868,8.006888 21.030951,10.190214 20.233029,15.285517 C 19.564879,19.558347 18.991427,26.538851 18.726622,32.019962 C 17.419257,32.200591 6.4859693,30.610008 4.8831102,32.501346 C 3.2802511,34.392685 11.766285,71.185668 13.003503,72.792034 C 14.240721,74.398401 78.352456,92.868108 81.839639,93.5801 C 87.378622,94.71122 93.009673,35.676375 91.908365,33.522862 z "
     style="opacity:0.8;fill:url(#linearGradient2357);fill-opacity:1"
     id="path36" />
  <path
     d="M 78.908371,88.429556 C 79.34679,90.786495 79.693141,92.594534 82.049203,93.580977 C 75.582526,92.26572 15.921619,74.984128 14.240721,73.887204 C 13.542758,73.431249 11.500604,72.535997 10.404557,63.548412 C 8.2124626,53.903198 3.5082288,34.441788 4.7217721,32.719679 C 6.1115597,30.746794 16.588015,31.041412 35.358478,34.575067 C 52.822452,37.863208 72.884497,50.97193 73.208927,53.683112 C 73.939332,59.785902 78.454169,85.986686 78.908371,88.429556 z "
     style="opacity:0.5;fill:url(#linearGradient2354)"
     id="path51" />
  <path
     d="M 78.761939,75.276115 C 79.914104,84.687213 81.099588,83.898059 82.414844,84.044491 C 84.186933,84.241779 88.516757,70.343903 88.333498,71.987974 C 87.091896,81.121991 84.826148,94.128123 81.829994,93.54415 C 80.277114,93.241641 16.444214,74.24057 14.818557,73.174335 C 14.09955,72.70172 18.270667,34.466339 18.781863,30.557397 C 22.654855,30.958989 29.659033,31.398285 38.573841,33.18791 C 56.527968,36.791713 74.810909,50.06528 75.109034,52.879052 C 75.547452,57.008957 77.885101,68.115859 78.761939,75.276115 z M 73.208927,53.683112 C 72.884497,50.97193 52.844373,37.741328 35.358478,34.575067 C 19.830561,31.763049 16.652024,31.763049 16.652024,31.763049 C 16.652024,31.763049 12.925465,68.227217 12.706255,70.162398 C 12.487046,72.097579 13.10434,72.957756 13.802302,73.412835 C 15.4832,74.509759 75.582526,92.26572 82.049203,93.580977 C 79.692264,92.594534 79.34679,90.785618 78.908371,88.429556 C 78.454169,85.986686 73.939332,59.785902 73.208927,53.683112 z "
     style="opacity:0.8;fill:url(#linearGradient2351)"
     id="path68" />
</svg>
