<?xml version="1.0" encoding="UTF-8"?>
<svg xmlns="http://www.w3.org/2000/svg" xmlns:dc="http://purl.org/dc/elements/1.1/" xmlns:cc="http://web.resource.org/cc/" xmlns:rdf="http://www.w3.org/1999/02/22-rdf-syntax-ns#" xmlns:svg="http://www.w3.org/2000/svg" xmlns:xlink="http://www.w3.org/1999/xlink" enable-background="new 0 0 120.011 98.723" height="48" id="svg2" overflow="visible" version="1.0" viewBox="0 0 120.011 98.723" width="48">
  <defs id="defs73"/>
  <metadata id="metadata4">
    <rdf:RDF>
      <cc:Work rdf:about="">
        <dc:format>image/svg+xml</dc:format>
        <dc:type rdf:resource="http://purl.org/dc/dcmitype/StillImage"/>
      </cc:Work>
    </rdf:RDF>
  </metadata>
  <g id="g2218" transform="translate(0,-5.3219986)">
    <switch id="switch6" transform="translate(0,-2.6252e-6)">
      <g id="g10">
        <g id="Layer_1">
          <g id="g13">
            <linearGradient gradientUnits="userSpaceOnUse" id="XMLID_8_" x1="16.1157" x2="120.0107" y1="49.361801" y2="49.361801">
              <stop id="stop16" offset="0" style="stop-color:#D19500"/>
              <stop id="stop18" offset="1" style="stop-color:#804D00"/>
            </linearGradient>
            <polygon id="polygon20" points="64.305,98.723 16.116,83.989 16.154,18.054 55.64,0 103.869,13.992 120.011,41.01 103.869,48.514 103.869,80.524 64.305,98.723 " style="fill:url(#XMLID_8_)"/>
            <linearGradient gradientTransform="matrix(0.8809,-0.4357,0.436,0.8816,-18.1705,92.2781)" gradientUnits="userSpaceOnUse" id="XMLID_9_" x1="39.936501" x2="108.3018" y1="-21.964399" y2="-21.964399">
              <stop id="stop23" offset="0" style="stop-color:#D19500"/>
              <stop id="stop25" offset="1" style="stop-color:#804D00"/>
            </linearGradient>
            <polygon id="polygon27" points="55.328,63.574 55.304,0.749 17.092,18.166 20.376,81.682 55.328,63.574 " style="fill:url(#XMLID_9_)"/>
            <linearGradient gradientTransform="matrix(0.8809,-0.4357,0.436,0.8816,-18.1705,92.2781)" gradientUnits="userSpaceOnUse" id="XMLID_10_" x1="73.305702" x2="145.2139" y1="12.3726" y2="12.3726">
              <stop id="stop30" offset="0" style="stop-color:#D19500"/>
              <stop id="stop32" offset="1" style="stop-color:#804D00"/>
            </linearGradient>
            <polygon id="polygon34" points="102.687,79.22 102.554,14.458 64.306,31.916 64.41,96.743 102.687,79.22 " style="fill:url(#XMLID_10_)"/>
            <linearGradient gradientUnits="userSpaceOnUse" id="XMLID_11_" x1="45.305199" x2="39.767799" y1="101.7827" y2="49.098598">
              <stop id="stop37" offset="0.0899" style="stop-color:#D19500"/>
              <stop id="stop39" offset="0.2282" style="stop-color:#CB9000"/>
              <stop id="stop41" offset="0.4219" style="stop-color:#B88100"/>
              <stop id="stop43" offset="0.6484" style="stop-color:#9A6900"/>
              <stop id="stop45" offset="0.8977" style="stop-color:#714800"/>
              <stop id="stop47" offset="1" style="stop-color:#5E3900"/>
            </linearGradient>
            <polygon id="polygon49" points="16.988,83.011 16.988,18.185 64.306,31.916 64.41,96.743 16.988,83.011 " style="fill:url(#XMLID_11_)"/>
            <linearGradient gradientUnits="userSpaceOnUse" id="XMLID_12_" x1="64.197304" x2="49.6152" y1="21.090799" y2="46.049301">
              <stop id="stop52" offset="0" style="stop-color:#D19500"/>
              <stop id="stop54" offset="1" style="stop-color:#523100"/>
            </linearGradient>
            <polygon id="polygon56" points="17.01,54.609 16.936,50.519 0,45.804 16.116,18.054 64.305,32.02 76.654,26.418 96.874,50.494 70.56,64.721 64.514,36.71 63.263,67.962 17.01,54.609 " style="fill:url(#XMLID_12_)"/>
            <linearGradient gradientTransform="matrix(0.8809,-0.4357,0.436,0.8816,-18.1705,92.2781)" gradientUnits="userSpaceOnUse" id="XMLID_13_" x1="102.4521" x2="147.6709" y1="-1.7837" y2="-1.7837">
              <stop id="stop59" offset="0" style="stop-color:#E0B23F"/>
              <stop id="stop61" offset="1" style="stop-color:#804D00"/>
            </linearGradient>
            <polygon id="polygon63" points="118.135,40.515 102.763,14.38 64.306,31.916 79.6,58.545 118.135,40.515 " style="fill:url(#XMLID_13_)"/>
            <linearGradient gradientUnits="userSpaceOnUse" id="XMLID_14_" x1="45.416" x2="5.6717" y1="35.2402" y2="49.407299">
              <stop id="stop66" offset="0" style="stop-color:#E0B03A"/>
              <stop id="stop68" offset="1" style="stop-color:#804D00"/>
            </linearGradient>
            <polygon id="polygon70" points="1.512,44.867 16.988,18.185 64.306,31.916 52.945,59.744 1.512,44.867 " style="fill:url(#XMLID_14_)"/>
          </g>
        </g>
      </g>
    </switch>
    <switch id="switch5247" transform="matrix(0.7332307,0,0,0.7332307,60.005599,44.922273)">
      <foreignObject height="1" id="foreignObject5249" requiredExtensions="http://ns.adobe.com/AdobeIllustrator/10.0/" width="1" x="0" y="0"/>
      <g id="g5251">
        <g id="g5299">
          <linearGradient gradientUnits="userSpaceOnUse" id="XMLID_4_" x1="43.725101" x2="37.225101" y1="12.8252" y2="81.325203">
            <stop id="stop5255" offset="0" style="stop-color:#9EABB0"/>
            <stop id="stop5257" offset="0.0973" style="stop-color:#8E9CA1"/>
            <stop id="stop5259" offset="0.529" style="stop-color:#495B63"/>
            <stop id="stop5261" offset="0.8412" style="stop-color:#1E323D"/>
            <stop id="stop5263" offset="1" style="stop-color:#0E232E"/>
          </linearGradient>
          <path d="M 81.837,50.5 C 81.837,75.93 61.796,92.215 38.165,86.879 C 15.288,81.715 -0.325,58.983 0.005,33.553 C 0.33,8.135 21.837,0 38.837,0 C 63.337,0 81.837,26.5 81.837,50.5 z " id="path5265" style="fill:url(#XMLID_4_)"/>
          <linearGradient gradientUnits="userSpaceOnUse" id="XMLID_5_" x1="54.533699" x2="37.961102" y1="12.3379" y2="57.041901">
            <stop id="stop5268" offset="0" style="stop-color:#FFFFFF"/>
            <stop id="stop5270" offset="1" style="stop-color:#3E525C"/>
          </linearGradient>
          <path d="M 76.861,52.479 C 76.591,73.249 58.136,86.575 37.859,83.067 C 18.986,79.803 10.289,52.942 10.56,32.174 C 10.826,11.412 23.833,-1.092 44.199,4.736 C 62.607,10.006 77.128,31.719 76.861,52.479 z " id="path5272" style="fill:url(#XMLID_5_)"/>
          <path d="M 69.105,55.123 C 68.835,75.893 53.777,88.178 35.47,82.568 C 17.156,76.961 2.531,55.586 2.802,34.818 C 3.07,14.057 18.128,1.773 36.443,7.381 C 54.75,12.988 69.373,34.363 69.105,55.123 z " id="path5274" style="fill:#ffffff"/>
          <linearGradient gradientTransform="matrix(0.9372,0.287,-1.37e-2,1.0628,14.9735,-67.7581)" gradientUnits="userSpaceOnUse" id="XMLID_6_" x1="51.559101" x2="0.85589999" y1="67.774399" y2="125.3648">
            <stop id="stop5277" offset="0" style="stop-color:#FFF59E"/>
            <stop id="stop5279" offset="0.25" style="stop-color:#FF5900"/>
            <stop id="stop5281" offset="0.5" style="stop-color:#B50000"/>
            <stop id="stop5283" offset="0.75" style="stop-color:#610000"/>
            <stop id="stop5285" offset="1" style="stop-color:#000000"/>
          </linearGradient>
          <path d="M 63.988,53.373 C 63.759,71.035 50.951,81.482 35.377,76.713 C 19.802,71.941 7.365,53.764 7.591,36.102 C 7.82,18.441 20.628,7.992 36.205,12.764 C 51.777,17.531 64.216,35.713 63.988,53.373 z " id="path5287" style="fill:url(#XMLID_6_)"/>
          <polygon id="polygon5289" points="55.431,57.377 16.187,45.357 16.351,32.611 55.595,44.633 55.431,57.377 " style="fill:#ffffff"/>
        </g>
      </g>
    </switch>
  </g>
</svg>
