<?xml version="1.0" encoding="UTF-8"?>
<svg xmlns="http://www.w3.org/2000/svg" xmlns:dc="http://purl.org/dc/elements/1.1/" xmlns:cc="http://web.resource.org/cc/" xmlns:rdf="http://www.w3.org/1999/02/22-rdf-syntax-ns#" xmlns:svg="http://www.w3.org/2000/svg" xmlns:xlink="http://www.w3.org/1999/xlink" version="1.0" width="48" height="48" viewBox="0 0 111.504 107.233" id="svg2294">
  <metadata id="metadata61073">
    <rdf:RDF>
      <cc:Work rdf:about="">
        <dc:format>image/svg+xml</dc:format>
        <dc:type rdf:resource="http://purl.org/dc/dcmitype/StillImage"/>
      </cc:Work>
    </rdf:RDF>
  </metadata>
  <defs id="defs2441"/>
  <g id="switch2298">
    <foreignObject id="foreignObject2300" content="structured text" height="1" width="1" y="0" x="0" requiredExtensions="http://ns.adobe.com/AdobeIllustrator/10.0/"/>
    <g id="g2302">
      <g id="Layer_1">
        <linearGradient x1="0.64109999" y1="57.352501" x2="115.2868" y2="47.3223" id="XMLID_1_" gradientUnits="userSpaceOnUse">
          <stop style="stop-color:#2a3d47;stop-opacity:1" offset="0" id="stop2306"/>
          <stop style="stop-color:#9eabb0;stop-opacity:1" offset="0.59549999" id="stop2308"/>
          <stop style="stop-color:#99a6ac;stop-opacity:1" offset="0.65509999" id="stop2310"/>
          <stop style="stop-color:#8b999f;stop-opacity:1" offset="0.72409999" id="stop2312"/>
          <stop style="stop-color:#74838a;stop-opacity:1" offset="0.79769999" id="stop2314"/>
          <stop style="stop-color:#53656d;stop-opacity:1" offset="0.87459999" id="stop2316"/>
          <stop style="stop-color:#2a3e47;stop-opacity:1" offset="0.95319998" id="stop2318"/>
          <stop style="stop-color:#0e232e;stop-opacity:1" offset="1" id="stop2320"/>
        </linearGradient>
        <path d="M 106.082,21.537 C 109.487,22.547 111.505,23.182 111.505,26.093 C 111.505,27.266 111.451,76.487 111.451,88.484 C 111.451,90.313 111.417,92.733 109.524,93.679 C 107.965,94.458 88.124,103.567 86.336,104.267 C 84.843,104.851 82.828,105.046 79.71,104.137 C 76.183,103.106 11.297,84.44 9.473,83.806 C 7.652,83.172 6.928,81.662 6.877,79.845 C 6.806,77.375 6.835,11.879 6.835,11.879 C 6.601,7.593 29.175,-0.375 31.255,0.014 C 33.375,0.6 104.913,21.188 106.082,21.537 z " style="fill:url(#XMLID_1_)" id="path2322"/>
        <linearGradient x1="77.374496" y1="28.7925" x2="21.996599" y2="77.935402" id="XMLID_2_" gradientUnits="userSpaceOnUse">
          <stop style="stop-color:#ffffff;stop-opacity:1" offset="0" id="stop2325"/>
          <stop style="stop-color:#4a636e;stop-opacity:1" offset="1" id="stop2327"/>
        </linearGradient>
        <path d="M 106.601,23.787 L 82.037,101.408 C 80.837,102.366 12.635,81.077 9.473,80.081 L 9.473,13.222 C 9.387,9.584 27.099,2.267 31.514,2.006 C 31.514,2.006 101.665,22.749 106.601,23.787 z " style="fill:url(#XMLID_2_)" id="path2329"/>
        <linearGradient x1="74.564903" y1="57.564499" x2="84.6856" y2="60.188301" id="XMLID_3_" gradientUnits="userSpaceOnUse">
          <stop style="stop-color:#027abb;stop-opacity:1" offset="0" id="stop2332"/>
          <stop style="stop-color:#025887;stop-opacity:1" offset="0.32089999" id="stop2334"/>
          <stop style="stop-color:#013e5e;stop-opacity:1" offset="0.62190002" id="stop2336"/>
          <stop style="stop-color:#012d44;stop-opacity:1" offset="0.85799998" id="stop2338"/>
          <stop style="stop-color:#01273b;stop-opacity:1" offset="1" id="stop2340"/>
        </linearGradient>
        <path d="M 99.846,21.904 C 101.491,22.424 102.965,22.813 106.211,23.657 L 83.401,101.864 C 80.186,101.213 80.802,101.31 77.587,100.562 C 77.587,100.562 76.581,100.077 76.517,97.088 C 76.491,95.886 76.506,37.896 76.506,37.896 C 76.462,32.397 79.581,31.228 83.001,29.711 L 99.846,21.904 z " style="fill:url(#XMLID_3_)" id="path2342"/>
        <linearGradient x1="80.651901" y1="62.627899" x2="107.9878" y2="62.627899" id="XMLID_4_" gradientUnits="userSpaceOnUse">
          <stop style="stop-color:#ffffff;stop-opacity:1" offset="0" id="stop2345"/>
          <stop style="stop-color:#4a626e;stop-opacity:1" offset="1" id="stop2347"/>
        </linearGradient>
        <path d="M 104.877,23.441 C 107.889,22.91 107.986,24.633 107.986,30.932 L 107.986,85.624 C 107.986,87.487 108.08,91.015 105.261,92.28 C 103.989,93.038 85.74,101.471 85.74,101.471 C 81.678,103.063 80.79,100.108 80.79,94.935 L 80.662,39.396 C 80.488,33.887 82.567,33.497 86.182,31.81 L 104.877,23.441 z " style="fill:url(#XMLID_4_)" id="path2349"/>
        <linearGradient x1="11.335" y1="22.5972" x2="74.599098" y2="22.5972" id="XMLID_5_" gradientUnits="userSpaceOnUse">
          <stop style="stop-color:#ffffff;stop-opacity:1" offset="0" id="stop2352"/>
          <stop style="stop-color:#565656;stop-opacity:1" offset="1" id="stop2354"/>
        </linearGradient>
        <line x1="11.335" y1="13.352" x2="74.598999" y2="31.843" id="line2356" style="fill:url(#XMLID_5_);stroke:#ffffff;stroke-width:2.02399993;stroke-linecap:round"/>
        <linearGradient x1="93.445801" y1="53.4268" x2="96.721001" y2="35.4739" id="XMLID_6_" gradientUnits="userSpaceOnUse">
          <stop style="stop-color:#027abb;stop-opacity:1" offset="0" id="stop2359"/>
          <stop style="stop-color:#025887;stop-opacity:1" offset="0.32089999" id="stop2361"/>
          <stop style="stop-color:#013e5e;stop-opacity:1" offset="0.62190002" id="stop2363"/>
          <stop style="stop-color:#012d44;stop-opacity:1" offset="0.85799998" id="stop2365"/>
          <stop style="stop-color:#01273b;stop-opacity:1" offset="1" id="stop2367"/>
        </linearGradient>
        <polygon points="102.786,47.985 87.671,55.208 87.671,39.329 102.786,32.403 102.786,47.985 " style="fill:url(#XMLID_6_)" id="polygon2369"/>
        <linearGradient x1="-2.2632" y1="36.576199" x2="52.796299" y2="36.576199" id="_x3C_Path_x3E__1_" gradientUnits="userSpaceOnUse" gradientTransform="matrix(1.005,0,0,-1,1.2051,104.9141)">
          <stop style="stop-color:#fbfeff;stop-opacity:1" offset="0" id="stop2372"/>
          <stop style="stop-color:#dfe4e4;stop-opacity:1" offset="0.1472" id="stop2374"/>
          <stop style="stop-color:#98a0a0;stop-opacity:1" offset="0.46520001" id="stop2376"/>
          <stop style="stop-color:#2f3b3b;stop-opacity:1" offset="0.89889997" id="stop2378"/>
        </linearGradient>
        <path d="M 53.143,96.552 C 46.938,109.496 7.301,112.118 0,96.325 C 0,81.071 0.054,43.469 0.054,43.469 C 0.054,32.35 16.47,29.441 26.598,29.441 C 38.291,29.441 53.197,34.688 53.197,41.131 C 53.145,90.295 53.143,86.645 53.143,96.552 z " style="fill:url(#_x3C_Path_x3E__1_)" id="_x3C_Path_x3E__208_"/>
        <linearGradient x1="0.3628" y1="36.936501" x2="50.907501" y2="36.936501" id="_x3C_Path_x3E__2_" gradientUnits="userSpaceOnUse" gradientTransform="matrix(1.005,0,0,-1,1.2051,104.9141)">
          <stop style="stop-color:#dadfe2;stop-opacity:1" offset="0.0056" id="stop2382"/>
          <stop style="stop-color:#4c6570;stop-opacity:1" offset="1" id="stop2384"/>
        </linearGradient>
        <path d="M 51.386,42.557 C 51.386,46.036 51.277,83.241 51.277,94.728 C 46.555,106.531 9.304,109.067 2.717,95.64 C 2.717,81.786 2.551,50.654 2.551,45.407 C 2.551,33.49 10.683,31.267 27.834,31.267 C 31.676,31.267 51.386,33.662 51.386,42.557 z " style="opacity:0.51000001;fill:url(#_x3C_Path_x3E__2_)" id="_x3C_Path_x3E__12_"/>
        <radialGradient cx="4.2656002" cy="-76.179703" r="40.680199" fx="4.2656002" fy="-76.179703" id="_x3C_Path_x3E__3_" gradientUnits="userSpaceOnUse" gradientTransform="matrix(0.5791,0,0,-0.2411,24.3642,76.1663)">
          <stop style="stop-color:#000000;stop-opacity:1" offset="0" id="stop2388"/>
          <stop style="stop-color:#000000;stop-opacity:1" offset="1" id="stop2390"/>
        </radialGradient>
        <path d="M 26.103,103.551 C 13.514,103.551 4.042,99.566 4.037,94.575 C 4.037,94.571 4.037,94.57 4.037,94.57 C 4.031,89.576 14.235,85.273 26.824,85.527 C 36.286,85.717 49.633,89.586 49.633,94.56 C 49.632,99.004 39.198,103.551 26.103,103.551 z " style="opacity:0.7857;fill:url(#_x3C_Path_x3E__3_)" id="_x3C_Path_x3E__7_"/>
        <path d="M 51.494,41.244 C 51.494,42.847 51.44,45.234 51.44,47.287 C 48.199,51.392 39.535,56.525 23.512,55.556 C 13.537,54.952 3.897,49.797 2.428,48.315 C 2.428,46.293 2.192,41.857 2.386,40.084 C 2.865,35.751 9.66,30.361 27.75,30.42 C 32.087,30.435 51.494,33.718 51.494,41.244 z " style="opacity:0.41760003;fill:#ffffff" id="_x3C_Path_x3E__96_"/>
        <radialGradient cx="4.2656002" cy="148.9053" r="41.5923" fx="4.2656002" fy="148.9053" id="_x3C_Path_x3E__4_" gradientUnits="userSpaceOnUse" gradientTransform="matrix(0.5791,0,0,-0.2411,24.3642,76.1663)">
          <stop style="stop-color:#000000;stop-opacity:1" offset="0" id="stop2395"/>
          <stop style="stop-color:#000000;stop-opacity:1" offset="1" id="stop2397"/>
        </radialGradient>
        <path d="M 26.078,49.683 C 13.493,49.327 4.043,44.876 4.037,39.886 C 4.037,39.882 4.037,39.881 4.037,39.881 C 4.031,34.887 14.235,30.584 26.824,30.838 C 36.286,31.029 49.633,34.897 49.633,39.872 C 49.632,46.034 38.167,50.025 26.078,49.683 z " style="opacity:0.7857;fill:url(#_x3C_Path_x3E__4_)" id="_x3C_Path_x3E__19_"/>
        <path d="M 38.18,37.609 C 38.18,38.101 38.178,39.385 38.178,39.802 C 38.178,42.323 32.361,44.708 25.767,44.364 C 20.415,44.085 16.463,41.8 16.463,39.471 C 16.463,39.148 16.345,37.385 16.559,37.052 C 17.588,35.447 21.079,35.294 27.743,35.315 C 29.421,35.32 38.18,34.603 38.18,37.609 z " style="opacity:0.7857;fill:#8a8a8a" id="_x3C_Path_x3E__225_"/>
        <path d="M 38.177,37.528 C 38.177,40.049 32.905,42.307 25.766,42.09 C 20.41,41.927 16.207,39.443 16.462,37.198 C 16.676,35.334 19.697,33.016 27.742,33.042 C 29.67,33.047 38.177,34.292 38.177,37.528 z " style="fill:#b2b2b2" id="_x3C_Path_x3E__17_"/>
        <path d="M 49.627,50.595 L 49.574,92.989 C 45.455,104.963 9.716,105.134 4.282,94.699 L 4.069,50.823 C 18.153,59.547 40.617,58.463 49.627,50.595 z " style="opacity:0.53850002;fill:none;stroke:#ffffff;stroke-linecap:round;stroke-linejoin:round" id="_x3C_Path_x3E__8_"/>
        <linearGradient x1="6.4194002" y1="31.4902" x2="44.627701" y2="31.4902" id="_x3C_Path_x3E__10_" gradientUnits="userSpaceOnUse" gradientTransform="matrix(1,0,0,-1,1.7422,104.9141)">
          <stop style="stop-color:#dadfe2;stop-opacity:1" offset="0.0056" id="stop2404"/>
          <stop style="stop-color:#4c6570;stop-opacity:1" offset="1" id="stop2406"/>
        </linearGradient>
        <path d="M 52.19,41.13 L 52.16,95.298 C 46.664,109.209 4.145,109.3 1.401,94.911 L 1.431,42.612 C 6.92,56.354 49.057,56.981 52.19,41.13 z " style="opacity:0.33999999;fill:url(#_x3C_Path_x3E__10_)" id="_x3C_Path_x3E__11_"/>
        <g id="_x36__1_">
          <radialGradient cx="25.0776" cy="21.8818" r="22.407" fx="25.0776" fy="21.8818" id="_x3C_Path_x3E__13_" gradientUnits="userSpaceOnUse" gradientTransform="matrix(1,0,0,-1,1.7422,104.9141)">
            <stop style="stop-color:#92bb47;stop-opacity:1" offset="0.0112" id="stop2411"/>
            <stop style="stop-color:#6ea31b;stop-opacity:1" offset="0.5" id="stop2413"/>
            <stop style="stop-color:#4c7013;stop-opacity:1" offset="1" id="stop2415"/>
          </radialGradient>
          <path d="M 49.655,61.188 C 49.655,61.188 49.951,95.566 49.612,96.808 C 48.586,100.557 38.579,104.962 26.563,104.876 C 17.011,104.808 6.764,102.438 4.069,96.979 C 3.663,96.154 3.984,61.245 3.984,61.245 C 7.063,74.415 48.372,71.45 49.655,61.188 z " style="opacity:0.77399998;fill:url(#_x3C_Path_x3E__13_)" id="_x3C_Path_x3E__6_"/>
          <g id="g2418">
            <defs id="defs2420">
              <path d="M 50.825,72.935 C 50.825,60.505 51.281,50.476 51.281,44.854 C 51.337,50.928 38.623,55.702 29.386,55.717 C 15.488,55.741 8.403,52.238 3.842,49.046 C 3.842,55.375 3.842,67.119 3.842,72.593 C 8.126,72.593 44.151,75.885 50.825,72.935 z " id="XMLID_7_"/>
            </defs>
            <clipPath id="XMLID_8_">
              <use id="use2424" x="0" y="0" width="111.504" height="107.233" xlink:href="#XMLID_7_"/>
            </clipPath>
            <radialGradient cx="4.2656002" cy="62.401402" r="38.395901" fx="4.2656002" fy="62.401402" id="_x3C_Path_x3E__14_" gradientUnits="userSpaceOnUse" gradientTransform="matrix(0.5791,0,0,-0.2411,24.3642,76.1663)">
              <stop style="stop-color:#92bb47;stop-opacity:1" offset="0.0112" id="stop2427"/>
              <stop style="stop-color:#6ea31b;stop-opacity:1" offset="0.5" id="stop2429"/>
              <stop style="stop-color:#4c7013;stop-opacity:1" offset="1" id="stop2431"/>
            </radialGradient>
            <path d="M 26.103,70.139 C 13.514,70.139 4.042,66.155 4.037,61.164 C 4.037,61.16 4.037,61.158 4.037,61.158 C 4.031,56.165 14.235,51.861 26.824,52.115 C 36.286,52.306 49.633,56.174 49.633,61.149 C 49.632,65.593 39.198,70.139 26.103,70.139 z " style="opacity:0.77399998;fill:url(#_x3C_Path_x3E__14_)" clip-path="url(#XMLID_8_)" id="_x3C_Path_x3E__5_"/>
          </g>
        </g>
        <linearGradient x1="14.7891" y1="45.340801" x2="16.580799" y2="-3.8051" id="_x3C_Path_x3E__15_" gradientUnits="userSpaceOnUse" gradientTransform="matrix(1,0,0,-1,1.7422,99.2891)">
          <stop style="stop-color:#ffffff;stop-opacity:1" offset="0" id="stop2435"/>
          <stop style="stop-color:#ffffff;stop-opacity:1" offset="1" id="stop2437"/>
        </linearGradient>
        <path d="M 23.114,49.568 C 21.289,49.397 17.332,48.798 16.101,48.428 C 15.672,48.3 13.555,49.968 13.249,51.107 C 12.956,56.22 11.172,100.542 11.584,102.594 C 13.313,104.305 21.657,105.217 23.304,104.875 C 20.504,102.48 21.658,56.895 21.794,53.104 C 21.793,51.963 22.372,50.881 23.114,49.568 z " style="opacity:0.25;fill:url(#_x3C_Path_x3E__15_)" id="_x3C_Path_x3E__9_"/>
      </g>
    </g>
  </g>
</svg>
