<?xml version="1.0" encoding="UTF-8"?>
<svg xmlns="http://www.w3.org/2000/svg" xmlns:dc="http://purl.org/dc/elements/1.1/" xmlns:cc="http://web.resource.org/cc/" xmlns:rdf="http://www.w3.org/1999/02/22-rdf-syntax-ns#" xmlns:svg="http://www.w3.org/2000/svg" xmlns:xlink="http://www.w3.org/1999/xlink" width="48px" height="48px" id="svg2258">
  <defs id="defs2260">
    <linearGradient id="linearGradient3352">
      <stop id="stop3354" offset="0" style="stop-color:#999999;stop-opacity:1;"/>
      <stop style="stop-color:#cccccc;stop-opacity:0.94117647;" offset="0.96774191" id="stop3358"/>
      <stop id="stop3356" offset="1" style="stop-color:#cccccc;stop-opacity:0;"/>
    </linearGradient>
    <linearGradient id="linearGradient3290">
      <stop style="stop-color:#cccccc;stop-opacity:1;" offset="0" id="stop3292"/>
      <stop id="stop3310" offset="0" style="stop-color:#ffffff;stop-opacity:1;"/>
      <stop style="stop-color:#cccccc;stop-opacity:1;" offset="1" id="stop3294"/>
    </linearGradient>
    <radialGradient gradientUnits="userSpaceOnUse" gradientTransform="matrix(1.6093304,-4.5942053e-2,5.085385e-2,1.7813886,-9.4870099,-5.7217655)" r="19.643983" fy="9.9921341" fx="11.678523" cy="9.9921341" cx="11.678523" id="radialGradient3212" xlink:href="#linearGradient3204"/>
    <linearGradient gradientUnits="userSpaceOnUse" y2="10.639088" x2="41.42939" y1="8.197753" x1="7.6459045" id="linearGradient3207" xlink:href="#linearGradient3197"/>
    <linearGradient id="linearGradient3855">
      <stop id="stop3857" offset="0" style="stop-color:#fe3;stop-opacity:1;"/>
      <stop style="stop-color:#f70;stop-opacity:1;" offset="1" id="stop3863"/>
      <stop id="stop3859" offset="1" style="stop-color:#f70;stop-opacity:0;"/>
    </linearGradient>
    <linearGradient id="linearGradient3197">
      <stop id="stop3199" offset="0" style="stop-color:#ff7d13;stop-opacity:1;"/>
      <stop style="stop-color:#666666;stop-opacity:0.94117647;" offset="0.77419353" id="stop2222"/>
      <stop id="stop3201" offset="1" style="stop-color:#ff7d13;stop-opacity:0;"/>
    </linearGradient>
    <linearGradient id="linearGradient3204">
      <stop style="stop-color:#fe3;stop-opacity:1;" offset="0" id="stop3206"/>
      <stop id="stop3208" offset="1" style="stop-color:#ff7700;stop-opacity:1;"/>
      <stop style="stop-color:#ff7700;stop-opacity:1;" offset="1" id="stop3210"/>
    </linearGradient>
    <radialGradient xlink:href="#linearGradient3855" id="radialGradient4083" gradientUnits="userSpaceOnUse" gradientTransform="matrix(2.3187015,-0.7658253,0.6901547,2.089594,-51.785934,-7.5920211)" cx="23.912374" cy="24.336325" fx="23.912374" fy="24.336325" r="12.971118"/>
    <radialGradient xlink:href="#linearGradient3197" id="radialGradient4085" gradientUnits="userSpaceOnUse" gradientTransform="matrix(1.589152,-0.136049,0.137962,1.611496,-13.92217,-15.97214)" spreadMethod="reflect" cx="18.389334" cy="31.590776" fx="18.389334" fy="31.590776" r="12.971118"/>
    <linearGradient gradientUnits="userSpaceOnUse" y2="10.531941" x2="16.130852" y1="40.750526" x1="16.149033" id="linearGradient4248" xlink:href="#linearGradient4238"/>
    <linearGradient gradientUnits="userSpaceOnUse" y2="7.8165803" x2="20.348295" y1="38.244099" x1="26.220997" id="linearGradient3267" xlink:href="#linearGradient3352"/>
    <radialGradient gradientUnits="userSpaceOnUse" gradientTransform="matrix(1.7972054,-0.5443587,0.2500193,0.8254398,-10.431089,6.4783235)" r="20.153416" fy="24.020744" fx="12.890421" cy="24.020744" cx="12.890421" id="radialGradient3310" xlink:href="#linearGradient3290"/>
    <linearGradient y2="27.357143" x2="31.348429" y1="27.357143" x1="8.3658575" gradientTransform="matrix(0.807506,0,0,0.807506,-4.308737,53.193391)" gradientUnits="userSpaceOnUse" id="linearGradient2320" xlink:href="#linearGradient3381"/>
    <linearGradient id="linearGradient3381">
      <stop style="stop-color:#999999;stop-opacity:1;" offset="0" id="stop3383"/>
      <stop id="stop3385" offset="1" style="stop-color:#666666;stop-opacity:1;"/>
      <stop id="stop3387" offset="1" style="stop-color:#333333;stop-opacity:1;"/>
    </linearGradient>
    <linearGradient id="linearGradient4238">
      <stop id="stop4240" offset="0" style="stop-color:#000000;stop-opacity:1;"/>
      <stop id="stop4242" offset="1" style="stop-color:#000000;stop-opacity:0;"/>
    </linearGradient>
  </defs>
  <metadata id="metadata2263">
    <rdf:RDF>
      <cc:Work rdf:about="">
        <dc:format>image/svg+xml</dc:format>
        <dc:type rdf:resource="http://purl.org/dc/dcmitype/StillImage"/>
      </cc:Work>
    </rdf:RDF>
  </metadata>
  <g id="layer1" style="display:inline"/>
  <g id="layer2" style="display:inline">
    <g id="g2993" transform="matrix(1.0731782,0,0,1.0731782,-3.3906455,-1.7338587)">
      <g transform="translate(-1.3429895e-6,1.3723969e-6)" id="g4013" style="display:inline">
        <path transform="translate(9.1146069,15.802247)" d="M 15.494879,28.310797 L 11.483273,20.245084 L 3.5563267,24.827794 L 5.0517766,15.944533 L -4.0549069,14.99268 L 2.3763873,8.6849746 L -4.4315896,2.5621358 L 4.4790131,1.2393144 L 2.5701585,-7.7157947 L 10.556522,-3.5484588 L 14.275908,-11.915291 L 18.287513,-3.8495783 L 26.21446,-8.4322879 L 24.71901,0.45097321 L 33.825693,1.4028254 L 27.394399,7.7105313 L 34.202376,13.83337 L 25.291773,15.156191 L 27.200628,24.111301 L 19.214264,19.943965 L 15.494879,28.310797 z " id="path2225" style="fill:url(#radialGradient3212);fill-opacity:1;stroke:url(#linearGradient3207);stroke-width:1.55400002;stroke-linejoin:round;stroke-miterlimit:4;stroke-dasharray:none;stroke-opacity:0.73888885"/>
        <path transform="translate(0.411764,-4.058823)" d="M 35.882354 28.058823 A 12.294118 12.294118 0 1 1  11.294118,28.058823 A 12.294118 12.294118 0 1 1  35.882354 28.058823 z" id="path1872" style="opacity:1;fill:url(#radialGradient4083);fill-opacity:1;stroke:url(#radialGradient4085);stroke-width:1.5;stroke-miterlimit:4;stroke-dasharray:none;stroke-opacity:1"/>
      </g>
      <g transform="matrix(0.6533351,0,0,0.6533351,17.411513,21.524979)" id="g2928">
        <g id="g2930" style="display:inline"/>
        <g id="g2932" style="display:inline"/>
        <g id="g2934" style="display:inline">
          <path style="fill:url(#radialGradient3310);fill-opacity:1;stroke:url(#linearGradient2320);stroke-width:1.25486445;stroke-linejoin:round;stroke-miterlimit:4;stroke-dasharray:none;stroke-opacity:1" d="M 29.370934,13.475139 C 26.924619,13.475139 24.778754,14.108353 23.348978,15.102697 C 22.083329,14.655047 20.652546,14.34317 19.117333,14.34317 C 15.38554,14.34317 12.185797,15.84153 10.816799,17.978044 C 6.4818427,18.262117 3.0587837,20.481248 3.0587837,23.186222 C 3.0587857,25.31898 5.1993112,27.139392 8.2127105,27.960387 C 8.930813,29.053074 10.209783,29.958413 11.793331,30.40172 C 12.947788,32.799732 16.649276,34.524861 21.016148,34.524861 C 25.251395,34.524861 28.864323,32.9059 30.130459,30.618728 C 30.507109,30.659585 30.87888,30.727232 31.269748,30.727232 C 33.968116,30.727232 36.358878,29.684203 37.888474,28.123142 C 38.103618,28.141072 38.318615,28.177393 38.539497,28.177393 C 42.073608,28.177393 44.941216,25.812296 44.941216,22.914964 C 44.941219,20.017632 42.073606,17.652534 38.539497,17.652534 C 38.055255,17.652534 37.582521,17.731641 37.12895,17.815289 C 37.078791,15.414304 33.643443,13.475139 29.370934,13.475139 z " id="path3435"/>
          <path style="opacity:0.59139781;fill:url(#linearGradient3267);fill-opacity:1;fill-rule:evenodd;stroke:url(#linearGradient4248);stroke-width:1px;stroke-linecap:butt;stroke-linejoin:miter;stroke-opacity:1" d="M 3.2923833,21.818181 C 4.6885749,23.219287 7.9244472,28.210688 15.117936,26.056511 C 18.065725,29.917076 23.853808,28.693489 28.764128,25.348894 C 33.028476,27.083734 34.52027,27.254914 38.061425,22.938575 C 41.800132,24.784301 41.741402,24.078624 44.579853,22 C 46.592752,24.756757 40.800378,29.321093 37.97543,28.068796 C 35.654604,30.480168 32.594595,30.722899 30.117936,30.528255 C 27.296627,34.450022 25.989108,33.972616 21.464373,34.174447 C 15.536253,34.438877 14.96322,33.192484 12.235873,30.646191 C 9.2989272,29.13918 10.302405,30.72557 8,28 C 3.8785885,26.64963 2.1320639,24.426904 3.2923833,21.818181 z " id="path2290"/>
        </g>
      </g>
    </g>
  </g>
</svg>
