<?xml version="1.0" encoding="UTF-8" standalone="no"?>
<!-- Created with Inkscape (http://www.inkscape.org/) -->
<svg
   xmlns:svg="http://www.w3.org/2000/svg"
   xmlns="http://www.w3.org/2000/svg"
   xmlns:xlink="http://www.w3.org/1999/xlink"
   xmlns:inkscape="http://www.inkscape.org/namespaces/inkscape"
   version="1.0"
   width="48"
   height="48"
   id="svg2567">
  <defs
     id="defs2569">
    <linearGradient
       id="linearGradient3695">
      <stop
         id="stop3697"
         style="stop-color:#f6f6f6;stop-opacity:1"
         offset="0" />
      <stop
         id="stop3699"
         style="stop-color:#999999;stop-opacity:1"
         offset="1" />
    </linearGradient>
    <linearGradient
       id="linearGradient5057">
      <stop
         id="stop5059"
         style="stop-color:#002142;stop-opacity:1"
         offset="0" />
      <stop
         id="stop5061"
         style="stop-color:#005a8d;stop-opacity:1"
         offset="1" />
    </linearGradient>
    <linearGradient
       id="linearGradient5024">
      <stop
         id="stop5026"
         style="stop-color:#cacaca;stop-opacity:1"
         offset="0" />
      <stop
         id="stop5028"
         style="stop-color:#f5f5f5;stop-opacity:1"
         offset="1" />
    </linearGradient>
    <linearGradient
       id="linearGradient4984">
      <stop
         id="stop4986"
         style="stop-color:#e6e6e6;stop-opacity:1"
         offset="0" />
      <stop
         id="stop4988"
         style="stop-color:#999999;stop-opacity:1"
         offset="1" />
    </linearGradient>
    <linearGradient
       id="linearGradient4941">
      <stop
         id="stop4943"
         style="stop-color:#364e59;stop-opacity:1"
         offset="0" />
      <stop
         id="stop4945"
         style="stop-color:#667b85;stop-opacity:1"
         offset="1" />
    </linearGradient>
    <linearGradient
       id="linearGradient19399">
      <stop
         id="stop19401"
         style="stop-color:#d5d5d5;stop-opacity:1"
         offset="0" />
      <stop
         id="stop19403"
         style="stop-color:#ffffff;stop-opacity:1"
         offset="1" />
    </linearGradient>
    <linearGradient
       id="linearGradient19271">
      <stop
         id="stop19273"
         style="stop-color:#bcbcbc;stop-opacity:1"
         offset="0" />
      <stop
         id="stop19275"
         style="stop-color:#5e5e5e;stop-opacity:1"
         offset="1" />
    </linearGradient>
    <radialGradient
       cx="33.536598"
       cy="106.6025"
       r="27.563499"
       fx="33.536598"
       fy="106.6025"
       id="XMLID_30_"
       gradientUnits="userSpaceOnUse"
       gradientTransform="matrix(0.8747857,0,0,0.8747857,6.837369,4.2733556)">
      <stop
         id="stop131"
         style="stop-color:#ffffff;stop-opacity:1"
         offset="0.0056" />
      <stop
         id="stop133"
         style="stop-color:#9e9e9e;stop-opacity:1"
         offset="0.75279999" />
    </radialGradient>
    <filter
       id="filter5132"
       x="-0.10646796"
       width="1.2129359"
       y="-0.30596688"
       height="1.6119337">
      <feGaussianBlur
         inkscape:collect="always"
         stdDeviation="1.2805134"
         id="feGaussianBlur5134" />
    </filter>
    <linearGradient
       x1="18.792158"
       y1="31.447292"
       x2="20.546085"
       y2="26.982624"
       id="linearGradient2518"
       xlink:href="#linearGradient19271"
       gradientUnits="userSpaceOnUse"
       gradientTransform="matrix(0.8362696,0.2763068,0,0.8807339,2.183486,5.7404169)" />
    <linearGradient
       x1="19.435953"
       y1="39.25"
       x2="24.346531"
       y2="35.319923"
       id="linearGradient2521"
       xlink:href="#linearGradient19271"
       gradientUnits="userSpaceOnUse"
       gradientTransform="matrix(0.8807339,0,0,0.8807339,2.183486,5.7404169)" />
    <linearGradient
       x1="25.201283"
       y1="31.180136"
       x2="14.980989"
       y2="39.434883"
       id="linearGradient2524"
       xlink:href="#linearGradient4941"
       gradientUnits="userSpaceOnUse"
       gradientTransform="matrix(0.8807339,0,0,0.8807339,2.183486,5.7404169)" />
    <radialGradient
       cx="33.536598"
       cy="106.6025"
       r="27.563499"
       fx="33.536598"
       fy="106.6025"
       id="radialGradient2527"
       xlink:href="#XMLID_30_"
       gradientUnits="userSpaceOnUse"
       gradientTransform="matrix(0.4453315,1.0249457e-2,0,0.4453315,2.4100278,-7.5533921)" />
    <linearGradient
       x1="26.597219"
       y1="37.090164"
       x2="10.077019"
       y2="40.559406"
       id="linearGradient2562"
       xlink:href="#linearGradient4941"
       gradientUnits="userSpaceOnUse"
       gradientTransform="translate(-1.7e-6,0.9995912)" />
    <filter
       height="1.2715985"
       y="-0.13579923"
       width="1.0979722"
       x="-0.048986074"
       id="filter4216">
      <feGaussianBlur
         id="feGaussianBlur4218"
         stdDeviation="0.84976711"
         inkscape:collect="always" />
    </filter>
    <linearGradient
       x1="40.563217"
       y1="33.381779"
       x2="8.5033102"
       y2="39.947926"
       id="linearGradient2556"
       xlink:href="#linearGradient4941"
       gradientUnits="userSpaceOnUse"
       gradientTransform="translate(-2.350435,-0.3091043)" />
    <linearGradient
       x1="5.9942465"
       y1="40.431747"
       x2="41.620815"
       y2="38.150875"
       id="linearGradient2558"
       xlink:href="#linearGradient4984"
       gradientUnits="userSpaceOnUse"
       gradientTransform="translate(-2.350435,-0.3091043)" />
    <linearGradient
       x1="67.888374"
       y1="54.719658"
       x2="64.585236"
       y2="35.892139"
       id="linearGradient2560"
       xlink:href="#linearGradient19399"
       gradientUnits="userSpaceOnUse"
       gradientTransform="translate(-1.9358067,0.5484166)" />
    <filter
       id="filter4052"
       x="-0.32831082"
       width="1.6566216"
       y="-0.49867859"
       height="1.9973572">
      <feGaussianBlur
         inkscape:collect="always"
         stdDeviation="0.70610588"
         id="feGaussianBlur4054" />
    </filter>
    <filter
       id="filter4056"
       x="-0.30343151"
       width="1.606863"
       y="-0.32388481"
       height="1.6477696">
      <feGaussianBlur
         inkscape:collect="always"
         stdDeviation="0.70610588"
         id="feGaussianBlur4058" />
    </filter>
    <filter
       id="filter4060"
       x="-0.23982336"
       width="1.4796467"
       y="-0.193472"
       height="1.3869441">
      <feGaussianBlur
         inkscape:collect="always"
         stdDeviation="0.70610588"
         id="feGaussianBlur4062" />
    </filter>
    <filter
       id="filter4064"
       x="-0.31538123"
       width="1.6307625"
       y="-0.14998884"
       height="1.2999777">
      <feGaussianBlur
         inkscape:collect="always"
         stdDeviation="0.70610588"
         id="feGaussianBlur4066" />
    </filter>
    <filter
       id="filter4068"
       x="-0.49867862"
       width="1.9973572"
       y="-0.13953523"
       height="1.2790705">
      <feGaussianBlur
         inkscape:collect="always"
         stdDeviation="0.70610588"
         id="feGaussianBlur4070" />
    </filter>
    <filter
       id="filter4072"
       x="-0.33285952"
       width="1.6657192"
       y="-0.11430724"
       height="1.2286144">
      <feGaussianBlur
         inkscape:collect="always"
         stdDeviation="0.70610588"
         id="feGaussianBlur4074" />
    </filter>
    <filter
       id="filter4076"
       x="-0.19826183"
       width="1.3965237"
       y="-0.10813339"
       height="1.2162668">
      <feGaussianBlur
         inkscape:collect="always"
         stdDeviation="0.70610588"
         id="feGaussianBlur4078" />
    </filter>
    <filter
       id="filter4080"
       x="-0.17905279"
       width="1.3581057"
       y="-0.12372606"
       height="1.2474521">
      <feGaussianBlur
         inkscape:collect="always"
         stdDeviation="0.70610588"
         id="feGaussianBlur4082" />
    </filter>
    <filter
       id="filter4084"
       x="-0.20859005"
       width="1.4171801"
       y="-0.20859005"
       height="1.4171801">
      <feGaussianBlur
         inkscape:collect="always"
         stdDeviation="0.70610588"
         id="feGaussianBlur4086" />
    </filter>
    <filter
       id="filter4096"
       x="-0.072586"
       width="1.145172"
       y="-0.14037673"
       height="1.2807535">
      <feGaussianBlur
         inkscape:collect="always"
         stdDeviation="0.46293918"
         id="feGaussianBlur4098" />
    </filter>
    <filter
       id="filter4120"
       x="-0.12786947"
       width="1.2557389"
       y="-0.15654892"
       height="1.3130978">
      <feGaussianBlur
         inkscape:collect="always"
         stdDeviation="1.0748411"
         id="feGaussianBlur4122" />
    </filter>
    <linearGradient
       x1="60.580154"
       y1="14.868811"
       x2="65.692848"
       y2="-1.8353047"
       id="linearGradient4125"
       xlink:href="#linearGradient5057"
       gradientUnits="userSpaceOnUse"
       gradientTransform="matrix(0.9682697,2.9882959e-8,0,0.9682695,-28.399996,2.0968954)" />
    <linearGradient
       x1="50.465889"
       y1="16.253052"
       x2="64.247955"
       y2="-2.3113921"
       id="linearGradient4128"
       xlink:href="#linearGradient5024"
       gradientUnits="userSpaceOnUse"
       gradientTransform="matrix(1.1416087,1.951376e-8,0,1.1416087,-36.599137,-0.9146255)" />
    <linearGradient
       x1="71.695824"
       y1="14.94009"
       x2="78.031487"
       y2="37.662525"
       id="linearGradient4131"
       xlink:href="#linearGradient3695"
       gradientUnits="userSpaceOnUse"
       gradientTransform="matrix(1.1010924,0,0,1.1010924,-39.978802,-13.372155)" />
    <linearGradient
       x1="76.215782"
       y1="20.346161"
       x2="54.837452"
       y2="36.772018"
       id="linearGradient4134"
       xlink:href="#linearGradient4941"
       gradientUnits="userSpaceOnUse"
       gradientTransform="matrix(1.1010924,0,0,1.1010924,-39.978802,-13.372155)" />
    <mask
       id="mask4138">
      <path
         d="M 34.493039,10.15641 C 34.494005,12.240947 31.067195,13.931051 26.839676,13.931051 C 22.612157,13.931051 19.185347,12.240947 19.186313,10.15641 C 19.185347,8.071873 22.612157,6.3817691 26.839676,6.3817691 C 31.067195,6.3817691 34.494005,8.071873 34.493039,10.15641 L 34.493039,10.15641 z"
         transform="matrix(1.0367964,-0.1355153,0,1,0,-3.7105543)"
         id="path4140"
         style="opacity:0.3;fill:#00314b;fill-opacity:1;stroke:none;stroke-width:1.5;stroke-linecap:round;stroke-linejoin:round;stroke-miterlimit:4;stroke-dasharray:none;stroke-opacity:1;filter:url(#filter4096)" />
    </mask>
    <mask
       id="mask4144">
      <path
         d="M 39.783382,12.977927 C 39.785136,16.893978 35.268554,20.069219 29.696461,20.069219 C 24.124367,20.069219 19.607785,16.893978 19.609539,12.977927 C 19.607785,9.0618756 24.124367,5.8866346 29.69646,5.8866346 C 35.268554,5.8866346 39.785136,9.0618756 39.783382,12.977927 L 39.783382,12.977927 z"
         transform="matrix(1.0367964,5.4907071e-2,0,1,-0.7313345,-9.7083431)"
         id="path4146"
         style="opacity:0.3;fill:#0084c8;fill-opacity:1;stroke:none;stroke-width:1.5;stroke-linecap:round;stroke-linejoin:round;stroke-miterlimit:4;stroke-dasharray:none;stroke-opacity:1;filter:url(#filter4120)" />
    </mask>
  </defs>
  <path
     d="M 38.156184,39.209497 C 38.156184,41.646311 31.128514,43.420319 23.352862,43.420319 C 15.57721,43.420319 9.3336449,40.299745 9.3454429,37.862954 C 9.3719134,32.39565 15.656116,33.448436 23.431768,33.448436 C 31.20742,33.448436 38.156184,36.772683 38.156184,39.209497 z"
     transform="matrix(0.8783296,-5.4379929e-2,6.0642923e-2,0.9794877,11.013564,-4.6749862)"
     id="path5093"
     style="opacity:0.5;fill:#2d2d2d;fill-opacity:1;stroke:none;stroke-width:0.75;stroke-linecap:round;stroke-linejoin:round;stroke-miterlimit:4;stroke-opacity:1;filter:url(#filter5132)" />
  <g
     transform="translate(12,-8.0004147)"
     id="g3732">
    <path
       d="M 16.281248,35.874591 C 13.313942,36.052643 11.072537,37.022676 10.843748,38.405841 C 10.805672,38.63637 10.835138,38.863734 10.906248,39.093341 C 10.908927,39.101991 10.903422,39.115947 10.906248,39.124591 C 10.893727,39.216929 10.882125,39.309009 10.874998,39.405841 C 10.899047,41.51415 14.800352,43.076548 18.749998,43.530841 C 23.018947,44.021875 26.941904,42.788985 27.281248,40.937091 C 27.305741,40.138284 27.051873,39.695462 26.906248,39.374591 C 26.887989,39.334536 26.822448,39.275499 26.718748,39.187091 C 25.926257,37.711669 23.04243,36.379852 19.437498,35.968341 C 18.328177,35.84172 17.27035,35.81524 16.281248,35.874591 z"
       id="path5042"
       style="fill:none;stroke:url(#linearGradient2562);stroke-width:1.5" />
    <path
       d="M 26.900748,39.373686 C 27.046372,39.694558 27.312679,40.13444 27.288186,40.933247 C 26.948843,42.78514 23.027701,44.014857 18.758752,43.523823 C 14.809107,43.069529 10.88351,41.500683 10.859461,39.392374 C 10.895979,38.896224 10.992617,38.462468 11.258924,38.056222 C 12.195456,36.630894 15.248206,36.007773 19.681034,36.511484 C 23.765169,36.97466 26.75468,39.053248 26.900748,39.373686 z"
       id="path128"
       style="fill:#999999" />
    <path
       d="M 26.918846,40.235426 C 26.613794,42.080095 22.770136,43.16508 18.3333,42.65905 C 13.896017,42.15256 10.546233,40.246488 10.850841,38.402257 C 11.155893,36.558035 14.999548,35.472606 19.436831,35.979091 C 23.87367,36.485566 27.223898,38.391205 26.918846,40.235426 z"
       id="path135"
       style="fill:url(#radialGradient2527)" />
  </g>
  <g
     transform="translate(12,-8.0004147)"
     id="g3726">
    <path
       d="M 17.816512,31.281701 L 16.660548,31.887206 L 16.660548,38.933077 C 17.834861,39.075914 19.009173,39.190789 20.183484,40.089041 L 21.339448,39.483536 L 21.339448,32.437664 L 17.816512,31.281701 z"
       id="path5080"
       style="fill:none;fill-opacity:1;stroke:url(#linearGradient2524);stroke-width:1.32110095;stroke-linecap:round;stroke-linejoin:round;stroke-miterlimit:4;stroke-opacity:1" />
    <path
       d="M 17.816512,31.281701 L 16.660548,31.887206 L 16.660548,38.933077 C 17.834861,39.075914 19.009173,39.190789 20.183484,40.089041 L 21.339448,39.483536 L 21.339448,32.437664 L 17.816512,31.281701 z"
       id="path5065"
       style="fill:url(#linearGradient2521);fill-opacity:1;stroke:none;stroke-width:0.5;stroke-linecap:round;stroke-linejoin:round;stroke-miterlimit:4;stroke-opacity:1" />
    <path
       d="M 16.64943,31.880734 L 20.172366,33.044727 L 20.172366,40.090598 C 18.998054,39.192348 17.823742,39.069442 16.64943,38.926606 L 16.64943,31.880734 z"
       id="rect4974"
       style="fill:url(#linearGradient2518);fill-opacity:1;stroke:none;stroke-width:0.51312035;stroke-linecap:round;stroke-linejoin:round;stroke-miterlimit:4;stroke-opacity:1" />
    <path
       d="M 20.212926,39.874116 L 20.121671,34.170694"
       id="path5091"
       style="opacity:0.5;fill:none;fill-rule:evenodd;stroke:#364e59;stroke-width:0.75;stroke-linecap:round;stroke-linejoin:miter;stroke-opacity:1" />
  </g>
  <path
     d="M 17.130686,2.3734937 C 16.909812,2.4095644 16.71417,2.5175618 16.58014,2.683176 L 15.557548,3.2474594 C 15.523522,3.2651727 15.485391,3.2942768 15.45432,3.3162777 C 15.386459,3.3643305 15.334045,3.4213373 15.282274,3.4883234 C 15.247117,3.5358069 15.205073,3.5701852 15.179047,3.62596 C 15.174633,3.6348579 15.183214,3.6512631 15.179047,3.6603691 C 15.124047,3.7888897 15.07582,3.9431296 15.07582,4.1076879 L 15.07582,23.204759 C 15.07582,23.381379 15.116151,23.55074 15.179047,23.720896 C 15.243934,23.898242 15.336126,24.051903 15.45432,24.202625 C 15.678828,24.495305 15.973847,24.728717 16.314549,24.82199 L 43.566586,32.288772 C 43.651762,32.312091 43.726998,32.318835 43.807451,32.323181 C 43.887227,32.328094 43.975063,32.335144 44.048315,32.323181 C 44.196386,32.296794 44.314562,32.239072 44.426815,32.151135 L 44.495634,32.116726 L 45.724681,31.345988 C 45.949185,31.178718 46.103181,30.907817 46.103181,30.554579 L 46.103181,11.491915 C 46.103182,10.785438 45.545853,10.061231 44.864452,9.8746854 L 17.612414,2.4079028 C 17.442064,2.3612672 17.277937,2.3494458 17.130686,2.3734937 z"
     id="path3701"
     style="fill:none;fill-opacity:1;stroke:url(#linearGradient4134);stroke-width:1.65163863;stroke-linecap:round;stroke-linejoin:round;stroke-miterlimit:4;stroke-dasharray:none;stroke-opacity:1" />
  <path
     d="M 17.018825,2.3734937 C 16.797949,2.4095644 16.608699,2.5179647 16.474668,2.6835789 L 15.439658,3.3082815 C 15.215151,3.4755518 15.07582,3.7544486 15.07582,4.1076879 L 15.07582,23.204759 C 15.07582,23.911237 15.633144,24.635446 16.314549,24.82199 L 43.566586,32.288772 C 43.907289,32.382044 44.216972,32.3178 44.441479,32.141928 L 45.627482,31.353985 C 45.85199,31.186715 45.99132,30.907817 45.99132,30.554579 L 45.99132,11.491915 C 45.99132,10.785438 45.433992,10.061231 44.752591,9.8746854 L 17.500553,2.4079028 C 17.330202,2.3612672 17.166076,2.3494458 17.018825,2.3734937 z"
     id="rect2574"
     style="fill:url(#linearGradient4131);fill-opacity:1;stroke:none;stroke-width:1.01665974;stroke-linecap:round;stroke-linejoin:round;stroke-miterlimit:4;stroke-dasharray:none;stroke-opacity:1" />
  <rect
     width="30.823435"
     height="21.630127"
     ry="1.2752299"
     x="15.630552"
     y="-1.280687"
     transform="matrix(0.9645095,0.2640482,0,1,0,0)"
     id="rect2566"
     style="fill:url(#linearGradient4128);fill-opacity:1;stroke:none;stroke-width:1.01665974;stroke-linecap:round;stroke-linejoin:round;stroke-miterlimit:4;stroke-dasharray:none;stroke-opacity:1" />
  <rect
     width="28.952641"
     height="18.095402"
     x="16.755283"
     y="0.56960803"
     transform="matrix(0.9645095,0.2640482,0,1,0,0)"
     id="rect2570"
     style="fill:url(#linearGradient4125);fill-opacity:1;stroke:none;stroke-width:0.87359422;stroke-linecap:round;stroke-linejoin:round;stroke-miterlimit:4;stroke-dasharray:none;stroke-opacity:1" />
  <g
     transform="translate(0.1825095,0.3569997)"
     id="g2504">
    <path
       d="M 0.46387833,37.678707 L 27.368821,45.796578 L 30.38403,45.680608 L 42.096958,39.940114 L 11.13308,30.778517 L 0.46387833,37.678707 z"
       id="path4190"
       style="fill:#2d2d2d;fill-rule:evenodd;stroke:none;stroke-width:1px;stroke-linecap:butt;stroke-linejoin:miter;stroke-opacity:1;filter:url(#filter4216)" />
    <path
       d="M 11.149565,30.628396 C 10.477375,30.683434 9.804593,30.856031 9.305815,31.097146 L 1.524565,34.847146 C 1.097241,35.053719 0.8614831,35.288937 0.8152789,35.515059 L 0.81,36.835009 C 0.8722972,37.062991 1.1415328,37.268978 1.618315,37.409646 L 27.055815,44.909646 C 28.118527,45.223185 29.77701,45.079377 30.774565,44.597146 L 38.555815,40.815896 C 38.983139,40.609323 39.218897,40.381917 39.265101,40.163608 L 39.27038,38.859284 C 39.208083,38.631301 38.938847,38.425315 38.462065,38.284646 L 13.024565,30.784646 C 12.493209,30.627877 11.821755,30.573358 11.149565,30.628396 z"
       id="path4039"
       style="fill:none;fill-opacity:1;stroke:url(#linearGradient2556);stroke-width:1.5;stroke-linecap:round;stroke-linejoin:round;stroke-miterlimit:4;stroke-dasharray:none;stroke-opacity:1" />
    <path
       d="M 11.149565,30.628396 C 10.477375,30.683434 9.804593,30.856031 9.305815,31.097146 L 1.524565,34.847146 C 1.097241,35.053719 0.8614831,35.288937 0.8152789,35.515059 L 0.81,36.835009 C 0.8722972,37.062991 1.1415328,37.268978 1.618315,37.409646 L 27.055815,44.909646 C 28.118527,45.223185 29.77701,45.079377 30.774565,44.597146 L 38.555815,40.815896 C 38.983139,40.609323 39.218897,40.381917 39.265101,40.163608 L 39.27038,38.859284 C 39.208083,38.631301 38.938847,38.425315 38.462065,38.284646 L 13.024565,30.784646 C 12.493209,30.627877 11.821755,30.573358 11.149565,30.628396 z"
       id="rect4032"
       style="fill:url(#linearGradient2558);fill-opacity:1;stroke:none;stroke-width:0.49999997;stroke-linecap:round;stroke-linejoin:round;stroke-miterlimit:4;stroke-dasharray:none;stroke-opacity:1" />
    <rect
       width="30.512112"
       height="12.65234"
       rx="1.9999998"
       ry="2"
       x="47.664032"
       y="38.440891"
       transform="matrix(0.9591266,0.2829772,-0.9003215,0.4352255,0,0)"
       id="rect4034"
       style="fill:url(#linearGradient2560);fill-opacity:1;stroke:none;stroke-width:0.60984367;stroke-linecap:round;stroke-linejoin:round;stroke-miterlimit:4;stroke-dasharray:none;stroke-opacity:1" />
    <rect
       width="16.432331"
       height="8.7845306"
       rx="0.2"
       x="48.620468"
       y="40.99519"
       transform="matrix(0.9591266,0.2829772,-0.9003215,0.4352255,0,0)"
       id="rect4085"
       style="opacity:0.8;fill:none;fill-opacity:1;stroke:#666666;stroke-width:0.30492187;stroke-linecap:round;stroke-linejoin:round;stroke-miterlimit:4;stroke-dasharray:none;stroke-opacity:1" />
    <rect
       width="5.7808151"
       height="8.7224407"
       rx="0.2"
       x="71.054565"
       y="41.019226"
       transform="matrix(0.9591266,0.2829772,-0.9003215,0.4352255,0,0)"
       id="rect4087"
       style="opacity:0.8;fill:none;fill-opacity:1;stroke:#666666;stroke-width:0.30492187;stroke-linecap:round;stroke-linejoin:round;stroke-miterlimit:4;stroke-dasharray:none;stroke-opacity:1" />
    <rect
       width="4.0408072"
       height="3.1838272"
       rx="0.2"
       x="66.070557"
       y="41.08358"
       transform="matrix(0.9591266,0.2829772,-0.9003215,0.4352255,0,0)"
       id="rect4089"
       style="opacity:0.8;fill:none;fill-opacity:1;stroke:#666666;stroke-width:0.30492187;stroke-linecap:round;stroke-linejoin:round;stroke-miterlimit:4;stroke-dasharray:none;stroke-opacity:1" />
    <path
       d="M 8.3732179,32.241242 L 23.914606,36.941223"
       id="path4094"
       style="opacity:0.8;fill:none;fill-rule:evenodd;stroke:#666666;stroke-width:0.25;stroke-linecap:round;stroke-linejoin:round;stroke-opacity:1" />
    <path
       d="M 3.6632199,34.591232 L 19.17823,39.264835"
       id="path4102"
       style="opacity:0.8;fill:none;fill-rule:evenodd;stroke:#666666;stroke-width:0.25;stroke-linecap:round;stroke-linejoin:round;stroke-opacity:1" />
    <path
       d="M 5.2038371,33.761824 L 20.82436,38.461805"
       id="path4104"
       style="opacity:0.8;fill:none;fill-rule:evenodd;stroke:#666666;stroke-width:0.25;stroke-linecap:round;stroke-linejoin:round;stroke-opacity:1" />
    <path
       d="M 6.809897,33.001533 L 20.623892,37.099338"
       id="path4106"
       style="opacity:0.8;fill:none;fill-rule:evenodd;stroke:#666666;stroke-width:0.25;stroke-linecap:round;stroke-linejoin:round;stroke-opacity:1" />
    <path
       d="M 24.951366,37.217692 L 28.752821,38.392687"
       id="path4108"
       style="opacity:0.8;fill:none;fill-rule:evenodd;stroke:#666666;stroke-width:0.25;stroke-linecap:butt;stroke-linejoin:miter;stroke-opacity:1" />
    <path
       d="M 28.238,39.468005 L 32.108572,40.643"
       id="path4110"
       style="opacity:0.8;fill:none;fill-rule:evenodd;stroke:#666666;stroke-width:0.25;stroke-linecap:round;stroke-linejoin:round;stroke-opacity:1" />
    <path
       d="M 26.632447,40.212003 L 31.793984,41.90654"
       id="path4112"
       style="opacity:0.8;fill:none;fill-rule:evenodd;stroke:#666666;stroke-width:0.25;stroke-linecap:round;stroke-linejoin:round;stroke-opacity:1" />
    <path
       d="M 25.19,40.987887 L 28.966868,42.174015"
       id="path4114"
       style="opacity:0.8;fill:none;fill-rule:evenodd;stroke:#666666;stroke-width:0.25;stroke-linecap:round;stroke-linejoin:round;stroke-opacity:1" />
    <path
       d="M 27.646943,37.01034 L 24.882249,38.32357"
       id="path4116"
       style="opacity:0.8;fill:none;fill-rule:evenodd;stroke:#666666;stroke-width:0.25;stroke-linecap:round;stroke-linejoin:round;stroke-opacity:1" />
    <path
       d="M 28.960173,37.355927 L 26.195479,38.669157"
       id="path4118"
       style="opacity:0.8;fill:none;fill-rule:evenodd;stroke:#666666;stroke-width:0.25;stroke-linecap:round;stroke-linejoin:round;stroke-opacity:1" />
    <path
       d="M 32.623393,38.392688 L 26.333713,41.364733"
       id="path4120"
       style="opacity:0.8;fill:none;fill-rule:evenodd;stroke:#666666;stroke-width:0.25;stroke-linecap:round;stroke-linejoin:round;stroke-opacity:1" />
    <path
       d="M 33.798389,38.807392 L 26.264596,42.470611"
       id="path4122"
       style="opacity:0.8;fill:none;fill-rule:evenodd;stroke:#666666;stroke-width:0.25;stroke-linecap:round;stroke-linejoin:round;stroke-opacity:1" />
    <path
       d="M 35.111618,39.222096 L 27.646943,42.885315"
       id="path4124"
       style="opacity:0.8;fill:none;fill-rule:evenodd;stroke:#666666;stroke-width:0.25;stroke-linecap:round;stroke-linejoin:round;stroke-opacity:1" />
    <path
       d="M 29.720463,38.738274 L 34.997969,40.316841"
       id="path4126"
       style="opacity:0.8;fill:none;fill-rule:evenodd;stroke:#666666;stroke-width:0.25;stroke-linecap:round;stroke-linejoin:round;stroke-opacity:1" />
    <path
       d="M 67.45624,46.687337 L 68.787727,46.597029 L 68.805544,48.120798 L 70.129354,48.222078 L 70.129354,49.613992 C 70.129354,49.724792 70.040154,49.813992 69.929354,49.813992 L 66.288547,49.813992 C 66.177747,49.813992 66.088547,49.724792 66.088547,49.613992 L 66.070554,48.121483 L 67.501116,48.154314 L 67.45624,46.687337 z"
       transform="matrix(0.9591266,0.2829772,-0.9003215,0.4352255,0,0)"
       id="rect4128"
       style="opacity:0.8;fill:none;fill-opacity:1;stroke:#666666;stroke-width:0.30492187;stroke-linecap:round;stroke-linejoin:round;stroke-miterlimit:4;stroke-opacity:1" />
    <path
       d="M 19.974916,39.6368 L 23.776371,40.811795"
       id="path4130"
       style="opacity:0.8;fill:none;fill-rule:evenodd;stroke:#666666;stroke-width:0.25;stroke-linecap:butt;stroke-linejoin:miter;stroke-opacity:1" />
    <path
       d="M 21.448659,40.040365 L 19.905799,40.742678"
       id="path4132"
       style="opacity:0.8;fill:none;fill-rule:evenodd;stroke:#666666;stroke-width:0.25;stroke-linecap:round;stroke-linejoin:round;stroke-opacity:1" />
    <path
       d="M 22.615269,40.434825 L 21.219029,41.088265"
       id="path4134"
       style="opacity:0.8;fill:none;fill-rule:evenodd;stroke:#666666;stroke-width:0.25;stroke-linecap:round;stroke-linejoin:round;stroke-opacity:1" />
    <path
       d="M 4.9828805,34.970353 L 3.2339976,35.780577 M 11.195699,32.056593 L 9.948212,32.648229"
       id="path4137"
       style="opacity:0.8;fill:none;fill-rule:evenodd;stroke:#666666;stroke-width:0.25;stroke-linecap:round;stroke-linejoin:round;stroke-opacity:1" />
    <path
       d="M 12.620129,32.452268 L 4.6056706,36.20263"
       id="path4139"
       style="opacity:0.8;fill:none;fill-rule:evenodd;stroke:#666666;stroke-width:0.25;stroke-linecap:round;stroke-linejoin:round;stroke-opacity:1" />
    <path
       d="M 14.097315,32.874321 L 6.0828569,36.624683"
       id="path4141"
       style="opacity:0.8;fill:none;fill-rule:evenodd;stroke:#666666;stroke-width:0.25;stroke-linecap:round;stroke-linejoin:round;stroke-opacity:1" />
    <path
       d="M 15.468988,33.296374 L 9.2451501,36.151426"
       id="path4143"
       style="opacity:0.8;fill:none;fill-rule:evenodd;stroke:#666666;stroke-width:0.25;stroke-linecap:round;stroke-linejoin:round;stroke-opacity:1" />
    <path
       d="M 16.972553,33.744805 L 10.604022,36.648088"
       id="path4145"
       style="opacity:0.8;fill:none;fill-rule:evenodd;stroke:#666666;stroke-width:0.25;stroke-linecap:round;stroke-linejoin:round;stroke-opacity:1" />
    <path
       d="M 18.528874,34.245994 L 12.234953,37.149277"
       id="path4147"
       style="opacity:0.8;fill:none;fill-rule:evenodd;stroke:#666666;stroke-width:0.25;stroke-linecap:round;stroke-linejoin:round;stroke-opacity:1" />
    <path
       d="M 20.16433,34.694425 L 12.202629,38.418409"
       id="path4149"
       style="opacity:0.8;fill:none;fill-rule:evenodd;stroke:#666666;stroke-width:0.25;stroke-linecap:round;stroke-linejoin:round;stroke-opacity:1" />
    <path
       d="M 21.799787,35.195614 L 13.785329,38.945976"
       id="path4151"
       style="opacity:0.8;fill:none;fill-rule:evenodd;stroke:#666666;stroke-width:0.25;stroke-linecap:round;stroke-linejoin:round;stroke-opacity:1" />
    <path
       d="M 17.134238,38.720601 L 15.579055,39.473543 M 21.984434,36.382639 L 20.640279,37.056446"
       id="path4153"
       style="opacity:0.8;fill:none;fill-rule:evenodd;stroke:#666666;stroke-width:0.25;stroke-linecap:round;stroke-linejoin:round;stroke-opacity:1" />
    <rect
       width="1.311018"
       height="1.18731"
       rx="0.2"
       x="48.614918"
       y="39.061718"
       transform="matrix(0.9591266,0.2829772,-0.9003215,0.4352255,0,0)"
       id="rect4155"
       style="opacity:0.8;fill:none;fill-opacity:1;stroke:#666666;stroke-width:0.30492187;stroke-linecap:round;stroke-linejoin:round;stroke-miterlimit:4;stroke-dasharray:none;stroke-opacity:1" />
    <rect
       width="4.5906391"
       height="1.2834929"
       rx="0.2"
       x="51.204987"
       y="38.920532"
       transform="matrix(0.9591266,0.2829772,-0.9003215,0.4352255,0,0)"
       id="rect4157"
       style="opacity:0.8;fill:none;fill-opacity:1;stroke:#666666;stroke-width:0.30492187;stroke-linecap:round;stroke-linejoin:round;stroke-miterlimit:4;stroke-dasharray:none;stroke-opacity:1" />
    <rect
       width="4.5906391"
       height="1.2834929"
       rx="0.2"
       x="57.271217"
       y="38.919167"
       transform="matrix(0.9591266,0.2829772,-0.9003215,0.4352255,0,0)"
       id="rect4159"
       style="opacity:0.8;fill:none;fill-opacity:1;stroke:#666666;stroke-width:0.30492187;stroke-linecap:round;stroke-linejoin:round;stroke-miterlimit:4;stroke-dasharray:none;stroke-opacity:1" />
    <rect
       width="4.5906391"
       height="1.2834929"
       rx="0.2"
       x="63.337448"
       y="38.917801"
       transform="matrix(0.9591266,0.2829772,-0.9003215,0.4352255,0,0)"
       id="rect4161"
       style="opacity:0.8;fill:none;fill-opacity:1;stroke:#666666;stroke-width:0.30492187;stroke-linecap:round;stroke-linejoin:round;stroke-miterlimit:4;stroke-dasharray:none;stroke-opacity:1" />
    <path
       d="M 15.030735,31.749256 L 14.007541,32.178868"
       id="path4163"
       style="opacity:0.8;fill:none;fill-rule:evenodd;stroke:#666666;stroke-width:0.25;stroke-linecap:round;stroke-linejoin:round;stroke-opacity:1" />
    <path
       d="M 16.085868,32.118553 L 15.062674,32.548165"
       id="path4165"
       style="opacity:0.8;fill:none;fill-rule:evenodd;stroke:#666666;stroke-width:0.25;stroke-linecap:round;stroke-linejoin:round;stroke-opacity:1" />
    <path
       d="M 17.246514,32.435093 L 16.22332,32.864705"
       id="path4167"
       style="opacity:0.8;fill:none;fill-rule:evenodd;stroke:#666666;stroke-width:0.25;stroke-linecap:round;stroke-linejoin:round;stroke-opacity:1" />
    <path
       d="M 21.044994,33.490226 L 20.0218,33.919838"
       id="path4169"
       style="opacity:0.8;fill:none;fill-rule:evenodd;stroke:#666666;stroke-width:0.25;stroke-linecap:round;stroke-linejoin:round;stroke-opacity:1" />
    <path
       d="M 22.100127,33.859523 L 21.076933,34.289135"
       id="path4171"
       style="opacity:0.8;fill:none;fill-rule:evenodd;stroke:#666666;stroke-width:0.25;stroke-linecap:round;stroke-linejoin:round;stroke-opacity:1" />
    <path
       d="M 23.260773,34.176063 L 22.237579,34.605675"
       id="path4173"
       style="opacity:0.8;fill:none;fill-rule:evenodd;stroke:#666666;stroke-width:0.25;stroke-linecap:round;stroke-linejoin:round;stroke-opacity:1" />
    <path
       d="M 26.742713,35.231196 L 25.719519,35.660808"
       id="path4175"
       style="opacity:0.8;fill:none;fill-rule:evenodd;stroke:#666666;stroke-width:0.25;stroke-linecap:round;stroke-linejoin:round;stroke-opacity:1" />
    <path
       d="M 27.797846,35.600493 L 26.774652,36.030105"
       id="path4177"
       style="opacity:0.8;fill:none;fill-rule:evenodd;stroke:#666666;stroke-width:0.25;stroke-linecap:round;stroke-linejoin:round;stroke-opacity:1" />
    <path
       d="M 28.958492,35.917033 L 27.935298,36.346645"
       id="path4179"
       style="opacity:0.8;fill:none;fill-rule:evenodd;stroke:#666666;stroke-width:0.25;stroke-linecap:round;stroke-linejoin:round;stroke-opacity:1" />
    <rect
       width="1.4406158"
       height="0.73939687"
       rx="0.2"
       x="70.757164"
       y="39.211178"
       transform="matrix(0.9591266,0.2829772,-0.9003215,0.4352255,0,0)"
       id="rect4181"
       style="fill:#009100;fill-opacity:1;stroke:none;stroke-width:0.30492187;stroke-linecap:round;stroke-linejoin:round;stroke-miterlimit:4;stroke-dasharray:none;stroke-opacity:1" />
    <rect
       width="1.4406158"
       height="0.73939687"
       rx="0.2"
       x="72.486145"
       y="39.177971"
       transform="matrix(0.9591266,0.2829772,-0.9003215,0.4352255,0,0)"
       id="rect4183"
       style="opacity:0.3;fill:#009100;fill-opacity:1;stroke:none;stroke-width:0.30492187;stroke-linecap:round;stroke-linejoin:round;stroke-miterlimit:4;stroke-dasharray:none;stroke-opacity:1" />
    <rect
       width="1.4406158"
       height="0.73939687"
       rx="0.2"
       x="74.319946"
       y="39.19783"
       transform="matrix(0.9591266,0.2829772,-0.9003215,0.4352255,0,0)"
       id="rect4185"
       style="opacity:0.3;fill:#009100;fill-opacity:1;stroke:none;stroke-width:0.30492187;stroke-linecap:round;stroke-linejoin:round;stroke-miterlimit:4;stroke-dasharray:none;stroke-opacity:1" />
  </g>
  <path
     d="M 21.302449,9.6519 L 17.140712,12.050189"
     transform="matrix(1.137471,0,0,1.137471,-3.3871986,-2.8872056)"
     id="path2758"
     style="opacity:0.2;fill:none;fill-rule:evenodd;stroke:#ffffff;stroke-width:1px;stroke-linecap:butt;stroke-linejoin:miter;stroke-opacity:1;filter:url(#filter4052)" />
  <path
     d="M 21.584601,11.133196 L 16.999637,15.36547"
     transform="matrix(1.137471,0,0,1.137471,-3.3871986,-2.8872056)"
     id="path2760"
     style="opacity:0.2;fill:none;fill-rule:evenodd;stroke:#ffffff;stroke-width:1px;stroke-linecap:butt;stroke-linejoin:miter;stroke-opacity:1;filter:url(#filter4056)" />
  <path
     d="M 22.854283,13.390409 L 16.788023,21.149579"
     transform="matrix(1.137471,0,0,1.137471,-3.3871986,-2.8872056)"
     id="path2762"
     style="opacity:0.2;fill:none;fill-rule:evenodd;stroke:#ffffff;stroke-width:1px;stroke-linecap:butt;stroke-linejoin:miter;stroke-opacity:1;filter:url(#filter4060)" />
  <path
     d="M 25.746338,13.531485 L 23.348049,24.676475"
     transform="matrix(1.137471,0,0,1.137471,-3.3871986,-2.8872056)"
     id="path2764"
     style="opacity:0.2;fill:none;fill-rule:evenodd;stroke:#ffffff;stroke-width:1px;stroke-linecap:butt;stroke-linejoin:miter;stroke-opacity:1;filter:url(#filter4068)" />
  <path
     d="M 24.265042,13.884174 L 19.891691,24.182709"
     transform="matrix(1.137471,0,0,1.137471,-3.3871986,-2.8872056)"
     id="path2766"
     style="opacity:0.2;fill:none;fill-rule:evenodd;stroke:#ffffff;stroke-width:1px;stroke-linecap:butt;stroke-linejoin:miter;stroke-opacity:1;filter:url(#filter4064)" />
  <path
     d="M 27.933013,14.236864 L 32.024212,28.062295"
     transform="matrix(1.137471,0,0,1.137471,-3.3871986,-2.8872056)"
     id="path2768"
     style="opacity:0.2;fill:none;fill-rule:evenodd;stroke:#ffffff;stroke-width:1px;stroke-linecap:butt;stroke-linejoin:miter;stroke-opacity:1;filter:url(#filter4072)" />
  <path
     d="M 30.613454,14.519016 L 38.16101,29.190901"
     transform="matrix(1.137471,0,0,1.137471,-3.3871986,-2.8872056)"
     id="path2770"
     style="opacity:0.2;fill:none;fill-rule:evenodd;stroke:#ffffff;stroke-width:1px;stroke-linecap:butt;stroke-linejoin:miter;stroke-opacity:1;filter:url(#filter4076)" />
  <path
     d="M 35.198418,14.871705 L 42.322747,21.996034"
     transform="matrix(1.116201,0,0,1.116201,-3.0407527,-2.6890047)"
     id="path2772"
     style="opacity:0.2;fill:none;fill-rule:evenodd;stroke:#ffffff;stroke-width:1px;stroke-linecap:butt;stroke-linejoin:miter;stroke-opacity:1;filter:url(#filter4084)" />
  <path
     d="M 33.858197,15.436008 L 42.322747,28.132832"
     transform="matrix(1.116201,0,0,1.116201,-3.0407527,-2.6890047)"
     id="path2774"
     style="opacity:0.2;fill:none;fill-rule:evenodd;stroke:#ffffff;stroke-width:1px;stroke-linecap:butt;stroke-linejoin:miter;stroke-opacity:1;filter:url(#filter4080)" />
  <rect
     width="25.45352"
     height="15.908449"
     x="17.817701"
     y="0.22422528"
     transform="matrix(1.0971015,0.3003472,0,1.137471,-3.3871986,-0.6127352)"
     mask="url(#mask4138)"
     id="rect4136"
     style="fill:#ffffff;fill-opacity:1;stroke:none;stroke-width:0.87359422;stroke-linecap:round;stroke-linejoin:round;stroke-miterlimit:4;stroke-dasharray:none;stroke-opacity:1" />
  <rect
     width="25.45352"
     height="15.908449"
     x="17.817701"
     y="0.22422528"
     transform="matrix(1.0971015,0.3003472,0,1.137471,-3.3871986,-0.6127352)"
     mask="url(#mask4144)"
     id="rect4142"
     style="fill:#ffffff;fill-opacity:1;stroke:none;stroke-width:0.87359422;stroke-linecap:round;stroke-linejoin:round;stroke-miterlimit:4;stroke-dasharray:none;stroke-opacity:1" />
  <path
     d="M 43.710644,30.396833 L 16.350568,22.934993 L 16.430805,5.283332"
     id="path4148"
     style="fill:none;fill-rule:evenodd;stroke:#364e59;stroke-width:0.56873554;stroke-linecap:round;stroke-linejoin:miter;stroke-opacity:1" />
</svg>
