<?xml version="1.0" encoding="UTF-8" standalone="no"?>
<!-- Created with Inkscape (http://www.inkscape.org/) -->
<svg
   xmlns:dc="http://purl.org/dc/elements/1.1/"
   xmlns:cc="http://web.resource.org/cc/"
   xmlns:rdf="http://www.w3.org/1999/02/22-rdf-syntax-ns#"
   xmlns:svg="http://www.w3.org/2000/svg"
   xmlns="http://www.w3.org/2000/svg"
   xmlns:xlink="http://www.w3.org/1999/xlink"
   xmlns:sodipodi="http://sodipodi.sourceforge.net/DTD/sodipodi-0.dtd"
   xmlns:inkscape="http://www.inkscape.org/namespaces/inkscape"
   version="1.0"
   width="48"
   height="48"
   viewBox="0 0 91.494 105.535"
   id="svg634"
   sodipodi:version="0.32"
   inkscape:version="0.45.1"
   sodipodi:docname="folder48.svg"
   sodipodi:docbase="/home/mso/projects/graphics/echo"
   inkscape:output_extension="org.inkscape.output.svg.inkscape"
   inkscape:export-filename="/home/mso/projects/graphics/echo/folder48.png"
   inkscape:export-xdpi="90"
   inkscape:export-ydpi="90">
  <metadata
     id="metadata44">
    <rdf:RDF>
      <cc:Work
         rdf:about="">
        <dc:format>image/svg+xml</dc:format>
        <dc:type
           rdf:resource="http://purl.org/dc/dcmitype/StillImage" />
      </cc:Work>
    </rdf:RDF>
  </metadata>
  <sodipodi:namedview
     inkscape:window-height="612"
     inkscape:window-width="772"
     inkscape:pageshadow="2"
     inkscape:pageopacity="0.0"
     guidetolerance="10.0"
     gridtolerance="10.0"
     objecttolerance="10.0"
     borderopacity="1.0"
     bordercolor="#666666"
     pagecolor="#ffffff"
     id="base"
     inkscape:zoom="8.4583333"
     inkscape:cx="24"
     inkscape:cy="25.307577"
     inkscape:window-x="0"
     inkscape:window-y="25"
     inkscape:current-layer="svg634"
     showguides="true"
     inkscape:guide-bbox="true">
    <sodipodi:guide
       orientation="horizontal"
       position="50.364532"
       id="guide2207" />
  </sodipodi:namedview>
  <defs
     id="defs692">
    <linearGradient
       id="linearGradient6326">
      <stop
         style="stop-color:#eca900;stop-opacity:1;"
         offset="0"
         id="stop6328" />
      <stop
         style="stop-color:#804d00;stop-opacity:1"
         offset="1"
         id="stop6330" />
    </linearGradient>
    <linearGradient
       id="linearGradient3285">
      <stop
         style="stop-color:#ff9900;stop-opacity:1"
         offset="0"
         id="stop3287" />
      <stop
         style="stop-color:#804d00;stop-opacity:1"
         offset="1"
         id="stop3289" />
    </linearGradient>
    <linearGradient
       id="linearGradient2308">
      <stop
         style="stop-color:#ffc022;stop-opacity:1;"
         offset="0"
         id="stop2310" />
      <stop
         id="stop2199"
         offset="0.41484717"
         style="stop-color:#c38c11;stop-opacity:1;" />
      <stop
         style="stop-color:#875800;stop-opacity:1;"
         offset="1"
         id="stop2312" />
    </linearGradient>
    <foreignObject
       id="foreignObject640"
       content="structured text"
       height="1"
       width="1"
       y="0"
       x="0"
       requiredExtensions="http://ns.adobe.com/AdobeIllustrator/10.0/" />
    <linearGradient
       x1="41.389599"
       y1="72.375999"
       x2="56.914001"
       y2="14.4383"
       id="XMLID_4_"
       gradientUnits="userSpaceOnUse">
      <stop
         style="stop-color:#1f1600;stop-opacity:1"
         offset="0.0056"
         id="stop647" />
      <stop
         style="stop-color:#392900;stop-opacity:1"
         offset="0.0571"
         id="stop649" />
      <stop
         style="stop-color:#543c00;stop-opacity:1"
         offset="0.1247"
         id="stop651" />
      <stop
         style="stop-color:#6a4b00;stop-opacity:1"
         offset="0.2024"
         id="stop653" />
      <stop
         style="stop-color:#7b5700;stop-opacity:1"
         offset="0.29319999"
         id="stop655" />
      <stop
         style="stop-color:#866000;stop-opacity:1"
         offset="0.40540001"
         id="stop657" />
      <stop
         style="stop-color:#8d6500;stop-opacity:1"
         offset="0.56290001"
         id="stop659" />
      <stop
         style="stop-color:#8f6600;stop-opacity:1"
         offset="1"
         id="stop661" />
    </linearGradient>
    <linearGradient
       x1="36.630901"
       y1="89.5205"
       x2="56.6828"
       y2="14.6858"
       id="XMLID_5_"
       gradientUnits="userSpaceOnUse">
      <stop
         style="stop-color:#3b2a00;stop-opacity:1"
         offset="0.1067"
         id="stop666" />
      <stop
         style="stop-color:#b58d2b;stop-opacity:1"
         offset="0.5169"
         id="stop668" />
      <stop
         style="stop-color:#e5b847;stop-opacity:1"
         offset="1"
         id="stop670" />
    </linearGradient>
    <linearGradient
       x1="39.376484"
       y1="89.435249"
       x2="53.383114"
       y2="36.629227"
       id="XMLID_6_"
       gradientUnits="userSpaceOnUse"
       gradientTransform="matrix(0.8395811,0,0,0.8395811,4.6179065,8.3548254)">
      <stop
         style="stop-color:#b88100;stop-opacity:1;"
         offset="0.0056"
         id="stop677" />
      <stop
         style="stop-color:#d2980c;stop-opacity:1;"
         offset="0.14921585"
         id="stop2205" />
      <stop
         style="stop-color:#d8a72e;stop-opacity:1;"
         offset="0.44410706"
         id="stop2197" />
      <stop
         style="stop-color:#f0c966;stop-opacity:1;"
         offset="1"
         id="stop687" />
    </linearGradient>
    <linearGradient
       x1="91.266937"
       y1="15.534128"
       x2="75.594208"
       y2="91.243805"
       id="linearGradient2314"
       xlink:href="#linearGradient2308"
       gradientUnits="userSpaceOnUse"
       gradientTransform="matrix(0.8395811,0,0,0.8395811,4.6179065,8.3548254)" />
    <linearGradient
       x1="17.646318"
       y1="-9.3914032"
       x2="56.740231"
       y2="82.449219"
       id="linearGradient3291"
       xlink:href="#linearGradient6326"
       gradientUnits="userSpaceOnUse"
       gradientTransform="matrix(0.8395811,0,0,0.8395811,4.6179065,8.3548254)" />
    <linearGradient
       x1="14.113135"
       y1="-2.8460209"
       x2="39.516262"
       y2="67.785477"
       id="linearGradient4270"
       xlink:href="#linearGradient3285"
       gradientUnits="userSpaceOnUse" />
    <filter
       id="filter5335"
       height="1.2821585"
       y="-0.14107925"
       width="1.0941393"
       x="-0.047069635">
      <feGaussianBlur
         id="feGaussianBlur5337"
         stdDeviation="1.625855"
         inkscape:collect="always" />
    </filter>
  </defs>
  <path
     d="M 6.9958672,75.57845 L 10.568667,79.426081 L 77.352534,97.83974 L 88.895425,92.068294 L 16.340112,71.181159 L 6.9958672,75.57845 z "
     style="opacity:0.57843137;fill:#2d2d2d;fill-rule:evenodd;stroke:#2d2d2d;stroke-width:1px;stroke-linecap:butt;stroke-linejoin:miter;stroke-opacity:1;filter:url(#filter5335)"
     id="path4348" />
  <path
     d="M 76.287919,96.954235 C 72.49553,96.567175 15.283947,79.386751 11.709848,78.238204 C 10.295994,77.783987 8.6075969,76.71772 7.5119425,74.984824 C 6.3289722,73.114236 5.7866028,70.505656 5.6228838,68.163225 C 5.1888212,61.942772 3.8941887,34.955269 5.1535594,32.016738 C 5.5691508,31.047022 7.6748217,30.976497 7.7218377,29.647441 C 7.9216587,23.96264 8.1584209,18.578405 8.4615099,14.676031 C 8.7192606,11.356326 9.3900863,8.8652938 9.7653793,8.4152743 C 10.290117,7.7855895 25.038202,12.226129 31.544954,14.744878 C 32.370263,15.064755 33.856323,20.964487 35.323064,21.251631 C 47.129263,23.560478 79.377576,33.579196 80.240668,34.999767 C 81.64696,37.311977 83.144772,97.654413 76.287919,96.954235 z "
     style="opacity:1;fill:url(#linearGradient3291);fill-opacity:1"
     id="path663" />
  <path
     d="M 75.308127,94.190237 C 71.960716,93.5077 12.304271,76.278615 10.555425,75.089767 C 9.0886766,74.093185 9.2700266,31.240126 10.192726,15.6575 C 10.370717,12.661038 10.939953,10.42943 11.16496,9.9424712 C 11.409279,9.4152132 22.684016,12.993513 29.341053,15.269614 C 30.550889,15.683525 31.487022,21.638677 32.804322,21.88131 C 43.613934,23.875319 77.683302,34.235754 78.456552,35.524507 C 79.715923,37.623462 80.62603,95.275014 75.308127,94.190237 z "
     style="fill:url(#linearGradient2314);fill-opacity:1"
     id="path672" />
  <path
     d="M 73.908543,76.103983 C 73.646594,85.179856 74.469384,89.118333 75.728757,89.258541 C 77.425551,89.447451 78.422972,82.506635 78.247501,84.080847 C 77.617814,93.665579 75.937808,94.435487 75.167913,94.155867 C 73.743986,93.638639 12.135516,75.67244 10.578933,74.651509 C 9.8904763,74.198976 9.3231838,32.493903 9.1661818,30.761856 C 13.918214,29.452947 24.74293,28.638553 39.286156,31.391534 C 56.514366,34.654149 74.628327,48.171404 74.478885,50.876536 C 74.262273,54.791502 74.053788,71.064817 73.908543,76.103983 z "
     style="opacity:0.66176471;fill:url(#linearGradient4270);fill-opacity:1"
     id="path674" />
  <path
     d="M 72.370429,89.258541 C 72.790222,91.51533 73.121858,93.24663 75.377815,94.191107 C 69.185898,92.931776 12.059954,76.384407 10.450478,75.334087 C 9.7821703,74.897502 7.6252867,73.654928 7.2315225,70.01702 C 6.034279,59.409753 5.4860328,34.304594 6.6480132,32.655659 C 7.9787497,30.766602 20.813426,28.992568 38.78634,32.376074 C 55.508283,35.524507 73.349386,48.761344 73.209172,51.371601 C 72.894328,57.24867 71.935526,86.920316 72.370429,89.258541 z "
     style="fill:url(#XMLID_6_)"
     id="path689" />
</svg>
