<?xml version="1.0" encoding="UTF-8"?>
<svg xmlns="http://www.w3.org/2000/svg" xmlns:dc="http://purl.org/dc/elements/1.1/" xmlns:cc="http://web.resource.org/cc/" xmlns:rdf="http://www.w3.org/1999/02/22-rdf-syntax-ns#" xmlns:svg="http://www.w3.org/2000/svg" xmlns:xlink="http://www.w3.org/1999/xlink" version="1.0" width="48" height="48" viewBox="0 0 63.248 98.438" id="svg2">
  <metadata id="metadata88">
    <rdf:RDF>
      <cc:Work rdf:about="">
        <dc:format>image/svg+xml</dc:format>
        <dc:type rdf:resource="http://purl.org/dc/dcmitype/StillImage"/>
      </cc:Work>
    </rdf:RDF>
  </metadata>
  <defs id="defs169">
    <linearGradient x1="58.582001" y1="19.314501" x2="32.581501" y2="48.065102" id="XMLID_10_" gradientUnits="userSpaceOnUse" gradientTransform="translate(-1.711965,0)">
      <stop style="stop-color:#9eabb0;stop-opacity:1" offset="0" id="stop14"/>
      <stop style="stop-color:#8e9ca1;stop-opacity:1" offset="0.0973" id="stop16"/>
      <stop style="stop-color:#495b63;stop-opacity:1" offset="0.52899998" id="stop18"/>
      <stop style="stop-color:#1e323d;stop-opacity:1" offset="0.84119999" id="stop20"/>
      <stop style="stop-color:#0e232e;stop-opacity:1" offset="1" id="stop22"/>
    </linearGradient>
    <linearGradient x1="39.022499" y1="48.3008" x2="-14.7931" y2="54.238701" id="XMLID_11_" gradientUnits="userSpaceOnUse">
      <stop style="stop-color:#858585;stop-opacity:1" offset="0.0056" id="stop27"/>
      <stop style="stop-color:#898989;stop-opacity:1" offset="0.0612" id="stop29"/>
      <stop style="stop-color:#b6b6b6;stop-opacity:1" offset="0.68480003" id="stop31"/>
      <stop style="stop-color:#c7c7c7;stop-opacity:1" offset="1" id="stop33"/>
    </linearGradient>
    <linearGradient x1="250.9668" y1="170.95309" x2="244.40221" y2="92.1138" id="XMLID_12_" gradientUnits="userSpaceOnUse" gradientTransform="matrix(-1,-0.5798,0,1,276.3398,79.9182)">
      <stop style="stop-color:#c2c5c7;stop-opacity:1" offset="0" id="stop38"/>
      <stop style="stop-color:#c3c5c7;stop-opacity:1" offset="0.1461" id="stop40"/>
      <stop style="stop-color:#dedfe0;stop-opacity:1" offset="0.4531" id="stop42"/>
      <stop style="stop-color:#f6f6f7;stop-opacity:1" offset="0.79079998" id="stop44"/>
      <stop style="stop-color:#ffffff;stop-opacity:1" offset="1" id="stop46"/>
    </linearGradient>
    <linearGradient x1="215.08009" y1="87.157204" x2="223.14461" y2="94.677498" id="XMLID_15_" gradientUnits="userSpaceOnUse" gradientTransform="matrix(-0.9943,-0.5952,-1e-4,1.0057,273.1538,79.8855)">
      <stop style="stop-color:#9ca3a3;stop-opacity:1" offset="0" id="stop111"/>
      <stop style="stop-color:#b4b8ba;stop-opacity:1" offset="0.1011" id="stop113"/>
      <stop style="stop-color:#b7bbbd;stop-opacity:1" offset="0.1311" id="stop115"/>
      <stop style="stop-color:#dee0e1;stop-opacity:0" offset="0.51020002" id="stop117"/>
      <stop style="stop-color:#f6f7f7;stop-opacity:0" offset="0.81309998" id="stop119"/>
      <stop style="stop-color:#ffffff;stop-opacity:0" offset="1" id="stop121"/>
    </linearGradient>
    <linearGradient x1="238.7607" y1="72.373001" x2="211.4801" y2="103.6985" id="XMLID_16_" gradientUnits="userSpaceOnUse" gradientTransform="matrix(-1,-0.5798,0,1,274.6278,79.9182)">
      <stop style="stop-color:#9eabb0;stop-opacity:1" offset="0" id="stop126"/>
      <stop style="stop-color:#8e9ca1;stop-opacity:1" offset="0.0973" id="stop128"/>
      <stop style="stop-color:#495b63;stop-opacity:1" offset="0.52899998" id="stop130"/>
      <stop style="stop-color:#1e323d;stop-opacity:1" offset="0.84119999" id="stop132"/>
      <stop style="stop-color:#0e232e;stop-opacity:1" offset="1" id="stop134"/>
    </linearGradient>
    <linearGradient x1="228.6494" y1="79.196297" x2="223.5536" y2="74.275299" id="XMLID_17_" gradientUnits="userSpaceOnUse" gradientTransform="matrix(-1,-0.5798,0,1,274.6278,79.9182)">
      <stop style="stop-color:#ffffff;stop-opacity:1" offset="0" id="stop139"/>
      <stop style="stop-color:#fcfcfc;stop-opacity:1" offset="0.2554" id="stop141"/>
      <stop style="stop-color:#f4f4f4;stop-opacity:1" offset="0.42230001" id="stop143"/>
      <stop style="stop-color:#e5e5e5;stop-opacity:1" offset="0.56370002" id="stop145"/>
      <stop style="stop-color:#d0d0d0;stop-opacity:1" offset="0.69099998" id="stop147"/>
      <stop style="stop-color:#b4b5b5;stop-opacity:1" offset="0.80879998" id="stop149"/>
      <stop style="stop-color:#939495;stop-opacity:1" offset="0.91820002" id="stop151"/>
      <stop style="stop-color:#757677;stop-opacity:1" offset="1" id="stop153"/>
    </linearGradient>
    <linearGradient x1="233.04691" y1="70.363297" x2="232.8723" y2="84.337601" id="XMLID_18_" gradientUnits="userSpaceOnUse" gradientTransform="matrix(-1,-0.5798,0,1,274.6278,79.9182)">
      <stop style="stop-color:#858585;stop-opacity:1" offset="0.0056" id="stop158"/>
      <stop style="stop-color:#898989;stop-opacity:1" offset="0.0612" id="stop160"/>
      <stop style="stop-color:#b6b6b6;stop-opacity:1" offset="0.68480003" id="stop162"/>
      <stop style="stop-color:#c7c7c7;stop-opacity:1" offset="1" id="stop164"/>
    </linearGradient>
  </defs>
  <g id="g2316" transform="matrix(0.8742162,0,0,0.8742162,-1.7071998,4.4750801)">
    <path id="path24" style="fill:url(#XMLID_10_)" d="M -1.690965,1.188 C -1.784965,15.059 -1.551965,73.981 -1.551965,80.938 C -0.308965,81.695 45.296035,94.792 58.510035,98.438 C 60.010035,97.813 60.698035,97.5 61.510035,97.063 C 61.593035,93.172 61.448035,41.403 61.448035,40.251 C 61.448035,39.063 55.386035,29.74 53.573035,26.939 C 51.972035,24.465 45.573035,14.158 42.823035,12.127 C 38.323035,10.812 13.198035,3.592 1.073035,-6.300516e-15 C 0.386035,0.25 -0.613965,0.75 -1.690965,1.188 z "/>
    <polygon id="polygon35" style="fill:url(#XMLID_11_)" transform="translate(-1.711965,0)" points="0.924,1.698 1.839,80.318 59.66,97.312 61.223,96.562 61.243,39.958 58.785,37.583 43.785,14.667 43.504,13.547 42.223,12.253 2.465,1.044 0.924,1.698 "/>
    <polygon id="polygon48" style="fill:url(#XMLID_12_)" transform="translate(-1.711965,0)" points="0.88,80.391 59.638,97.395 59.68,38.335 42.633,13.399 0.88,1.641 0.88,80.391 "/>
    <g id="g50" transform="translate(-1.711965,0)">
      <polygon id="polygon52" style="fill:#f9d89e" points="52.566,30.084 52.566,88.328 7.735,75.191 7.735,9.876 46.25,21.229 52.566,30.084 "/>
      <linearGradient gradientTransform="matrix(1,1.49e-2,0,1,0,-2.201)" gradientUnits="userSpaceOnUse" id="XMLID_13_" y2="68.252296" x2="28.1089" y1="41.848598" x1="30.4189">
        <stop id="stop55" offset="0.0056" style="stop-color:#425a91;stop-opacity:1"/>
        <stop id="stop57" offset="0.331" style="stop-color:#537bba;stop-opacity:1"/>
        <stop id="stop59" offset="0.5" style="stop-color:#5d8dd1;stop-opacity:1"/>
        <stop id="stop61" offset="1" style="stop-color:#bedaee;stop-opacity:1"/>
      </linearGradient>
      <path id="path63" style="fill:url(#XMLID_13_)" d="M 52.566,29.501 L 52.566,76.456 C 52.566,76.456 27.031,65.187 20.106,64.23 C 13.181,63.272 7.735,64.798 7.735,64.798 L 7.735,9.876 L 46.441,21.279 L 52.566,29.501 z "/>
      <linearGradient gradientTransform="matrix(1,1.49e-2,0,1,0,-2.201)" gradientUnits="userSpaceOnUse" id="XMLID_14_" y2="79.305702" x2="52.6367" y1="79.305702" x1="7.6289001">
        <stop id="stop66" offset="0.0056" style="stop-color:#86704b;stop-opacity:1"/>
        <stop id="stop68" offset="1" style="stop-color:#4b4137;stop-opacity:1"/>
      </linearGradient>
      <path id="path70" style="fill:url(#XMLID_14_)" d="M 7.748,75.164 L 7.629,66.841 C 7.629,66.841 18.019,70.982 19.584,69.297 C 22.431,67.631 52.637,78.614 52.637,78.614 L 52.602,88.264 L 7.748,75.164 z M 10.862,71.951 C 11.313,71.662 12.478,71.934 13.459,72.558 C 14.54,73.247 14.215,73.456 12.637,73.081 C 11.211,72.747 10.411,72.24 10.862,71.951 z M 30.925,76.415 C 30.869,75.091 31.187,74.448 31.639,74.98 C 32.09,75.518 32.137,76.602 31.743,77.387 C 31.31,78.26 30.989,77.879 30.925,76.415 z M 48.917,81.222 C 50.037,80.505 51.28,80.003 51.684,80.112 C 52.086,80.224 52.064,81.06 51.635,81.963 C 51.203,82.868 49.955,83.367 48.87,83.069 C 47.148,82.602 47.153,82.354 48.917,81.222 z M 8.828,69.452 C 9.614,68.95 11.059,68.998 12.036,69.558 C 13.051,70.148 12.438,70.541 10.603,70.481 C 8.352,70.402 7.824,70.1 8.828,69.452 z M 36.951,77.388 C 36.664,76.886 37.602,76.706 39.044,77.001 C 40.482,77.293 41.659,77.962 41.659,78.489 C 41.656,79.631 37.703,78.704 36.951,77.388 z M 44.03,78.444 C 44.961,78.356 46.486,78.77 47.42,79.372 C 48.352,79.969 47.587,80.04 45.724,79.531 C 43.862,79.023 43.103,78.535 44.03,78.444 z "/>
      <path id="path72" style="fill:#edecdb" d="M 39.974,71.077 C 41.65,71.247 44.394,71.993 46.071,72.742 C 47.748,73.499 46.376,73.365 43.025,72.451 C 39.67,71.533 38.294,70.919 39.974,71.077 z M 18.343,63.282 C 20.633,62.899 21.848,63.254 23.015,64.64 C 24.218,66.075 23.487,66.202 19.92,65.161 C 15.534,63.887 15.438,63.771 18.343,63.282 z M 27.754,66.568 C 28.672,66.477 30.497,66.958 31.816,67.633 C 33.134,68.302 32.387,68.379 30.15,67.792 C 27.912,67.211 26.837,66.659 27.754,66.568 z "/>
      <path id="path74" style="fill:#b9e3fb" d="M 36.701,67.767 C 36.701,66.855 37.973,66.458 39.526,66.896 C 41.87,67.546 42.004,67.798 40.312,68.39 C 38.826,68.904 39.372,69.167 42.345,69.385 C 44.584,69.545 46.717,69.764 47.088,69.874 C 51.02,71.013 52.507,71.862 52.507,72.963 C 52.505,73.755 49.412,73.319 44.602,71.847 C 39.037,70.147 36.699,68.938 36.701,67.767 z M 17.649,60.155 C 18.102,59.868 19.269,60.138 20.249,60.767 C 21.327,61.453 21.009,61.663 19.43,61.29 C 18,60.957 17.202,60.447 17.649,60.155 z M 28.241,61.327 C 29.508,60.997 32.01,61.65 34.336,62.925 C 37.982,64.917 37.818,64.956 32.19,63.488 C 27.824,62.346 26.703,61.731 28.241,61.327 z M 48.814,67.415 C 49.265,67.126 50.435,67.404 51.409,68.027 C 52.49,68.718 52.17,68.927 50.596,68.554 C 49.161,68.222 48.366,67.705 48.814,67.415 z "/>
      <path id="path76" style="fill:#c5dbf1" d="M 48.81,73.619 C 49.259,73.328 50.427,73.606 51.403,74.229 C 52.481,74.914 52.165,75.128 50.59,74.752 C 49.157,74.422 48.356,73.908 48.81,73.619 z M 23.386,64.967 C 22.911,64.13 23.455,64.073 24.662,64.827 C 27.009,66.289 27.435,67.294 25.485,66.765 C 24.785,66.572 23.842,65.765 23.386,64.967 z M 33.909,67.07 C 34.358,66.784 35.525,67.056 36.504,67.68 C 37.584,68.37 37.262,68.579 35.684,68.206 C 34.258,67.87 33.455,67.36 33.909,67.07 z M 40.312,68.33 C 41.429,67.971 43.262,67.96 44.377,68.304 C 45.719,68.714 45.487,69.041 43.703,69.252 C 39.976,69.703 37.836,69.116 40.312,68.33 z M 38.625,64.568 C 39.555,64.475 41.082,64.891 42.012,65.49 C 42.947,66.086 42.183,66.163 40.318,65.65 C 38.456,65.145 37.695,64.655 38.625,64.568 z M 11.785,51.875 C 12.705,51.784 17.091,53.452 18.41,54.125 C 19.728,54.801 23.099,54.676 20.864,54.087 C 18.627,53.5 10.868,51.971 11.785,51.875 z "/>
      <path id="path78" style="fill:#ffedc2" d="M 20.665,68.966 C 17.754,67.524 18.461,67.604 23.15,69.239 C 29.081,71.313 29.532,71.293 27.893,69.011 C 26.388,66.916 26.703,67.028 29.813,69.731 C 31.858,71.507 33.533,73.203 33.531,73.482 C 33.531,74.203 25.562,71.402 20.665,68.966 z M 35.53,73.281 C 35.97,72.746 37.381,72.942 38.654,73.71 C 39.936,74.483 40.611,74.62 40.152,74.022 C 39.69,73.427 37.938,72.321 36.246,71.559 C 34.556,70.803 32.797,69.702 32.337,69.112 C 31.879,68.526 33.565,68.973 36.079,70.098 C 38.592,71.22 40.064,71.072 42.924,72.632 C 47.478,75.12 49.044,76.993 49.044,76.993 C 49.044,76.993 47.714,77.793 43.384,76.61 C 38.221,75.203 35.05,73.857 35.53,73.281 z M 9.17,64.811 C 7.914,63.755 8.265,63.339 10.425,63.298 C 14.055,63.235 14.885,63.994 12.599,65.297 C 11.665,65.829 10.124,65.606 9.17,64.811 z "/>
      <path id="path80" style="fill:#c6e1e8" d="M 7.798,59.497 C 7.798,57.533 8.825,57.511 14.917,59.322 C 18.823,60.486 23.192,61.254 24.618,61.027 C 26.19,60.773 26.913,60.981 26.436,61.543 C 25.99,62.078 29.468,63.405 34.682,64.69 C 42.81,66.685 43.237,66.903 38.958,66.886 C 36.348,66.873 30.25,65.929 25.411,64.789 C 20.563,63.646 16.302,62.783 15.924,62.859 C 15.551,62.944 13.57,62.737 11.52,62.397 C 8.641,61.927 7.796,61.269 7.798,59.497 z M 44.868,68.051 C 44.514,67.426 46.086,67.427 48.366,68.048 C 50.644,68.668 52.51,69.728 52.508,70.404 C 52.508,71.812 45.844,69.762 44.868,68.051 z M 26.13,59.29 C 28.861,58.204 38.085,58.009 38.085,62.03 C 38.081,63.232 34.531,62.815 31.945,61.945 C 28.521,60.797 24.075,60.111 26.13,59.29 z M 48.816,66.175 C 49.267,65.891 50.435,66.165 51.409,66.787 C 52.49,67.475 52.17,67.683 50.596,67.313 C 49.163,66.976 48.366,66.467 48.816,66.175 z M 7.802,53.92 C 7.802,53.602 9.175,53.049 10.856,52.689 C 13.62,52.093 13.731,52.179 12.042,53.589 C 10.311,55.04 7.802,55.233 7.802,53.92 z M 17.702,56.083 C 20.415,55.761 22.414,53.767 19.702,52.917 C 17.447,52.213 7.502,51.321 9.195,50.782 C 10.526,50.357 14.069,51.323 17.306,51.046 C 22.285,50.083 24.649,50.927 24.285,54.5 C 24.431,56.34 19.023,57.533 16.861,56.881 C 14.004,56.016 15.087,56.399 17.702,56.083 z "/>
      <path id="path82" style="fill:#ecd193" d="M 9.752,66.718 C 7.51,64.429 7.469,64.231 9.485,65.36 C 10.815,66.106 11.853,66.051 11.856,65.239 C 11.858,64.159 12.27,64.278 13.484,65.727 C 16.224,68.984 12.853,69.877 9.752,66.718 z M 20.322,70.659 C 17.9,69.723 15.919,68.493 15.919,67.929 C 15.921,67.361 18.025,67.904 20.594,69.138 C 23.166,70.373 25.606,71.163 26.015,70.899 C 26.424,70.633 26.763,71.075 26.763,71.869 C 26.76,72.67 26.297,73.099 25.743,72.841 C 25.181,72.573 22.743,71.595 20.322,70.659 z M 33.533,72.382 C 33.533,70.968 34.423,70.739 36.426,71.643 C 38.021,72.357 39.691,73.428 40.153,74.023 C 40.612,74.621 39.993,74.519 38.782,73.787 C 37.568,73.058 35.888,72.902 35.053,73.444 C 33.93,74.167 33.531,73.886 33.533,72.382 z M 23.302,68.799 C 21.61,66.78 23.199,66.396 27.781,67.72 C 30.576,68.532 31.786,69.122 30.475,69.045 C 29.157,68.968 28.41,69.471 28.806,70.168 C 29.528,71.438 24.461,70.17 23.302,68.799 z "/>
      <path id="path84" style="fill:#95c8f2" d="M 7.802,55.91 C 7.802,55.323 9.322,55.52 11.171,56.348 C 13.022,57.177 16.835,58.07 19.639,58.339 C 23.951,58.745 24.318,58.55 22.031,57.072 C 19.792,55.636 20.071,55.519 23.647,56.423 C 43.066,55.273 30.669,60.381 26.09,60.728 C 21.727,61.052 7.8,57.387 7.802,55.91 z M 36.098,62.526 C 36.01,61.99 36.01,61.154 36.098,60.666 C 36.184,60.177 35.496,59.53 34.565,59.231 C 33.636,58.93 34.092,58.563 35.586,58.42 C 38.863,58.106 41.352,59.81 38.774,60.601 C 37.58,60.968 38.986,61.731 42.772,62.775 C 46.323,63.758 48.282,63.816 47.775,62.924 C 47.317,62.109 48.194,61.793 49.731,62.211 C 53.49,63.241 53.281,66.426 49.466,66.323 C 45.147,66.204 36.286,63.687 36.098,62.526 z M 10.883,54.586 C 11.331,54.299 12.499,54.572 13.48,55.197 C 14.558,55.885 14.236,56.094 12.657,55.719 C 11.231,55.385 10.431,54.874 10.883,54.586 z M 7.808,51.976 C 7.808,51.317 8.721,51.027 9.84,51.329 C 10.955,51.635 11.872,52.104 11.87,52.373 C 11.87,52.644 10.955,52.933 9.84,53.017 C 8.719,53.105 7.805,52.639 7.808,51.976 z M 19.015,51.843 C 19.466,51.556 20.635,51.827 21.615,52.452 C 22.693,53.143 22.368,53.349 20.792,52.979 C 19.366,52.643 18.563,52.134 19.015,51.843 z "/>
      <path id="path86" style="fill:#9dbfeb" d="M 14.211,56.67 C 15.132,56.584 16.962,57.064 18.276,57.732 C 19.595,58.408 18.842,58.484 16.606,57.896 C 14.371,57.311 13.295,56.763 14.211,56.67 z M 41.678,61.259 C 45.87,61.592 45.074,60.326 40.662,59.647 C 38.358,59.293 38.536,58.141 41.156,56.461 C 43.16,55.174 43.439,55.258 44.607,57.492 C 45.307,58.829 47.529,60.447 49.534,61.091 C 52.762,62.118 52.833,62.219 50.124,61.958 C 48.438,61.798 47.409,62.276 47.836,63.021 C 48.27,63.792 46.064,63.626 42.773,62.633 L 36.938,60.878 L 41.678,61.259 z M 46.035,56.25 C 45.927,54.885 47.818,52.766 48.66,53.25 C 50.974,54.582 50.169,58.221 48.114,58.382 C 47.011,58.469 46.16,57.755 46.035,56.25 z M 7.829,30.386 C 7.829,30.084 8.438,29.66 9.189,29.442 C 9.932,29.224 10.54,29.635 10.54,30.358 C 10.54,31.077 9.931,31.507 9.186,31.303 C 8.438,31.099 7.829,30.686 7.829,30.386 z "/>
      <path id="path88" style="fill:#74ade8" d="M 20.864,53.091 C 24.564,54.143 23.335,49.497 23.71,50.146 C 24.087,50.792 26.58,55.918 28.812,56.831 C 31.701,58.007 31.007,58.029 26.384,56.899 C 20.904,55.558 19.382,54.147 20.864,53.091 z M 41.341,60.342 C 42.273,60.255 43.798,60.67 44.727,61.266 C 45.657,61.863 44.897,61.939 43.036,61.432 C 41.169,60.92 40.406,60.433 41.341,60.342 z M 7.808,49.539 C 7.81,48.854 10.097,48.924 12.893,49.697 C 16.668,50.745 17.452,51.272 15.938,51.753 C 13.269,52.6 7.808,51.113 7.808,49.539 z M 47.785,60.375 C 48.245,59.818 46.617,57.644 45.825,57.427 C 45.043,57.216 44.391,56.409 44.393,55.644 C 44.395,54.691 45.046,54.929 46.458,56.384 C 49.054,59.062 50.741,58.188 48.62,55.263 C 47.384,53.556 47.509,53.044 49.216,52.912 C 49.837,52.863 52.459,47.679 52.459,47.679 C 52.459,47.679 52.531,53.606 52.524,57.395 C 52.518,61.224 47.467,65.086 44.409,64.25 C 42.443,63.709 47.31,60.948 47.785,60.375 z "/>
      <path id="path90" style="fill:#bb9a71" d="M 11.918,75.429 C 12.861,75.149 14.451,75.434 15.449,76.063 C 18.142,77.744 17.676,77.968 13.735,76.893 C 11.474,76.278 10.817,75.753 11.918,75.429 z M 13.209,69.071 C 13.209,68.767 13.817,68.343 14.569,68.128 C 15.309,67.91 15.919,68.317 15.919,69.042 C 15.919,69.765 15.308,70.189 14.563,69.984 C 13.817,69.782 13.209,69.373 13.209,69.071 z M 18.263,70.185 C 19.184,70.094 21.011,70.57 22.33,71.247 C 23.646,71.925 22.894,71.993 20.662,71.41 C 18.426,70.822 17.344,70.269 18.263,70.185 z M 30.829,70.701 C 29.088,69.201 29.139,69.037 31.167,69.574 C 32.468,69.919 33.533,70.756 33.533,71.439 C 33.533,72.954 33.382,72.914 30.829,70.701 z M 13.58,65.249 C 14.03,64.957 15.2,65.23 16.175,65.859 C 17.255,66.546 16.936,66.753 15.361,66.384 C 13.932,66.046 13.131,65.538 13.58,65.249 z M 14.225,65.186 C 14.227,64.617 19.548,65.144 20.669,65.45 C 21.782,65.752 22.699,66.471 22.697,67.035 C 22.697,67.607 21.782,67.824 20.667,67.516 C 19.548,67.21 14.225,65.752 14.225,65.186 z "/>
      <path id="path92" style="fill:#6e93c9" d="M 9.532,48.014 C 9.986,47.723 11.153,48.001 12.127,48.627 C 13.209,49.315 12.889,49.522 11.314,49.153 C 9.879,48.82 9.083,48.304 9.532,48.014 z M 7.927,36.646 C 7.873,35.323 8.194,34.677 8.646,35.211 C 9.093,35.747 28.613,46.95 12.042,45.56 C 7.914,45.214 7.994,38.105 7.927,36.646 z M 10.138,30.739 C 10.718,29.508 10.483,29.058 9.419,29.374 C 5.637,28.67 10.075,18.01 16.311,15.452 C 18.979,14.357 21.049,20.601 18.143,23.093 C 16.595,24.422 14.461,26.099 12.945,29.429 C 10.078,33.082 8.723,33.718 10.138,30.739 z "/>
      <path id="path94" style="fill:#cbbd9e" d="M 8.461,74.525 C 8,73.718 8.27,73.23 9.056,73.443 C 9.849,73.663 10.489,74.393 10.489,75.078 C 10.489,75.759 10.22,75.957 9.893,75.868 C 9.563,75.776 8.918,75.328 8.461,74.525 z M 13.199,76.528 C 13.199,76.183 14.422,75.641 15.912,75.317 C 17.402,74.995 18.623,75.005 18.623,75.351 C 18.623,75.688 17.402,76.235 15.91,76.557 C 14.422,76.883 13.199,76.866 13.199,76.528 z M 27.089,79.332 C 25.412,78.134 24.058,76.272 24.084,75.187 C 24.122,73.513 24.34,73.608 25.522,75.795 C 26.288,77.21 27.421,78.226 28.036,78.043 C 28.654,77.867 29.908,78.755 30.829,80.02 C 32.76,82.687 31.432,82.438 27.089,79.332 z M 47.827,85.384 C 47.409,84.653 48.29,84.675 49.784,85.438 C 52.948,87.06 53.345,88.014 50.54,87.247 C 49.464,86.953 48.243,86.116 47.827,85.384 z M 42.021,82.934 C 42.47,82.642 43.64,82.918 44.617,83.546 C 45.698,84.233 45.378,84.439 43.801,84.07 C 42.372,83.735 41.567,83.223 42.021,82.934 z M 41.656,79.935 C 41.659,79.21 42.267,78.786 43.014,78.991 C 43.757,79.191 44.367,79.606 44.367,79.907 C 44.367,80.207 43.755,80.634 43.014,80.852 C 42.266,81.066 41.653,80.653 41.656,79.935 z M 46.063,77.728 C 47.366,77.772 49.503,78.354 50.804,79.025 C 52.11,79.689 51.044,79.652 48.434,78.945 C 45.825,78.233 44.759,77.686 46.063,77.728 z "/>
      <path id="path96" style="fill:#6a86b8" d="M 7.824,34.032 C 7.824,33.69 9.048,32.628 10.538,31.673 C 13.542,29.745 13.973,30.293 11.846,33.352 C 10.589,35.153 7.824,35.623 7.824,34.032 z M 8.198,24.953 C 8.318,23.556 9.551,22.387 10.94,22.36 C 14.508,22.296 14.533,23.03 11.033,25.415 C 8.058,27.443 7.986,27.434 8.198,24.953 z M 14.617,20.358 C 14.621,19.754 15.685,18.982 16.993,18.641 C 18.294,18.302 18.823,17.859 18.167,17.662 C 17.506,17.462 16.013,15.944 18.019,15.051 C 21.979,13.283 26.938,15.019 23.929,17.233 C 19.966,20.16 18.866,21.291 19.384,21.907 C 19.678,22.258 18.726,22.303 17.269,22.005 C 15.81,21.71 14.617,20.968 14.617,20.358 z "/>
      <path id="path98" style="fill:#457bc7" d="M 21.562,47.245 C 18.976,44.486 18.876,44.007 20.71,43.113 C 22.458,42.265 22.643,42.402 21.896,43.971 C 21.269,45.296 21.851,46.268 23.899,47.325 C 25.485,48.133 26.786,49.296 26.786,49.893 C 26.781,51.654 24.712,50.603 21.562,47.245 z M 28.59,49.719 C 28.59,48.19 29.771,48.128 33.718,49.457 C 39.452,51.385 38.982,52.644 32.723,52.084 C 29.488,51.795 28.586,51.274 28.59,49.719 z M 9.51,44.181 C 10.814,44.225 12.948,44.809 14.249,45.473 C 15.554,46.143 14.484,46.108 11.876,45.395 C 9.27,44.684 8.205,44.135 9.51,44.181 z M 40.331,52.132 C 40.333,51.412 40.94,51.33 41.687,51.955 C 42.432,52.582 43.046,52.468 43.046,51.706 C 43.046,50.942 43.722,50.885 44.542,51.574 C 45.592,52.453 45.484,53.006 44.199,53.397 C 41.71,54.16 40.331,53.711 40.331,52.132 z M 9.906,42.823 C 5.707,45.405 10.305,34.57 12.577,38.033 C 13.556,39.527 19.225,46.804 18.871,47.227 C 18.158,48.088 13.749,40.462 9.906,42.823 z M 49.485,49.717 C 50.907,48.58 52.039,48.458 52.347,49.396 C 52.627,50.252 52.027,51.208 51.002,51.522 C 47.771,52.512 47.049,51.649 49.485,49.717 z "/>
      <path id="path100" style="fill:#4f71ac" d="M 7.843,17.468 C 7.849,11.572 10.251,10.622 18.263,12.875 L 23.435,14.4 L 18.019,14.907 C 16.257,15.769 17.558,17.476 18.194,17.669 C 18.84,17.867 18.295,18.303 16.994,18.642 C 15.686,18.983 12.471,18.107 12.469,19.095 C 12.469,20.086 14.052,22.702 13.374,22.52 C 12.685,22.332 11.161,22.255 9.984,22.351 C 8.247,22.482 7.838,21.563 7.843,17.468 z M 15.98,13.851 C 15.98,13.553 15.37,13.142 14.626,12.939 C 13.879,12.734 13.27,13.157 13.27,13.881 C 13.268,14.602 13.877,15.012 14.626,14.795 C 15.37,14.58 15.979,14.154 15.98,13.851 z M 21.484,19.796 C 23.373,16.888 26.85,14.293 26.768,15.855 C 26.747,16.204 22.301,21.025 18.582,24.877 C 13.605,29.785 17.591,28.99 27.837,25.443 C 27.064,26.232 16.741,29.126 16.167,29.681 C 15.613,30.219 14.152,29.295 13.89,29.505 C 9.337,33.164 18.854,23.869 21.484,19.796 z "/>
      <path id="path102" style="fill:#877551" d="M 25.593,78.312 C 26.146,78.177 26.328,77.338 25.999,76.439 C 25.67,75.543 26.873,74.584 28.677,74.315 C 31.324,73.917 31.817,74.109 31.242,75.326 C 30.846,76.145 29.68,76.588 28.643,76.309 C 27.6,76.025 26.904,76.464 27.092,77.283 C 27.275,78.101 26.79,78.721 26.005,78.661 C 25.223,78.603 25.038,78.442 25.593,78.312 z M 31.583,79.231 C 32.092,78.145 32.85,77.665 33.267,78.157 C 33.684,78.655 33.265,79.541 32.335,80.13 C 31,80.979 30.842,80.792 31.583,79.231 z M 36.057,80.39 C 36.889,79.702 37.209,78.71 36.774,78.188 C 36.331,77.666 37.408,77.989 39.153,78.9 C 41.697,80.232 41.857,80.525 39.947,80.368 C 38.634,80.263 37.905,80.783 38.335,81.53 C 38.758,82.274 38.079,82.606 36.825,82.265 C 35.071,81.786 34.895,81.354 36.057,80.39 z M 43.697,81.673 C 43.223,80.839 43.767,80.78 44.974,81.532 C 47.317,83 47.747,84 45.796,83.47 C 45.096,83.279 44.149,82.474 43.697,81.673 z "/>
      <path id="path104" style="fill:#a4936f" d="M 32.17,81.232 C 32.172,79.453 36.399,78.591 38.605,79.918 C 39.54,80.482 40.3,81.559 40.3,82.318 C 40.3,83.295 39.818,83.134 38.693,81.796 C 37.454,80.326 36.527,80.201 34.628,81.253 C 33.231,82.026 32.17,82.019 32.17,81.232 z M 21.026,75.529 C 18.999,72.812 19.003,72.575 21.059,72.411 C 22.285,72.314 22.854,72.515 22.326,72.857 C 21.792,73.194 22.052,74.425 22.89,75.587 C 23.737,76.747 24.155,77.877 23.824,78.09 C 23.49,78.304 22.231,77.15 21.026,75.529 z M 28.107,77.404 C 26.885,76.347 26.717,75.813 27.691,76.068 C 28.576,76.299 29.679,77.154 30.139,77.962 C 31.181,79.78 30.707,79.652 28.107,77.404 z M 9.51,70.336 C 9.957,70.052 11.127,70.327 12.105,70.951 C 13.184,71.64 12.867,71.845 11.29,71.478 C 9.856,71.14 9.06,70.627 9.51,70.336 z "/>
      <path id="path106" style="fill:#584f37" d="M 19.976,77.663 C 18.225,76.154 18.263,75.993 20.236,76.512 C 21.497,76.853 22.904,77.783 23.362,78.593 C 24.42,80.45 22.63,79.962 19.976,77.663 z M 46.904,82.842 C 45.289,80.519 45.311,80.419 47.075,82.104 C 48.191,83.168 50.021,84.601 51.136,85.283 C 52.84,86.325 52.811,86.451 50.967,86.023 C 49.752,85.747 47.927,84.316 46.904,82.842 z M 8.461,72.047 C 7.476,70.306 8.801,70.67 12.525,73.154 C 15.136,74.893 15.129,74.934 12.264,74.234 C 10.635,73.84 8.923,72.852 8.461,72.047 z M 40.667,81.324 C 41.117,81.033 42.285,81.305 43.265,81.931 C 44.343,82.62 44.025,82.829 42.444,82.458 C 41.014,82.124 40.218,81.612 40.667,81.324 z M 34.989,77.523 C 34.933,76.198 35.254,75.554 35.703,76.09 C 36.153,76.626 36.196,77.709 35.807,78.498 C 35.375,79.368 35.055,78.986 34.989,77.523 z M 15.241,71.411 C 13.028,69.939 12.952,69.708 14.82,70.146 C 16.083,70.435 17.489,71.344 17.947,72.151 C 18.91,73.839 18.865,73.826 15.241,71.411 z "/>
    </g>
    <polygon id="polygon108" style="fill:none;stroke:#000000;stroke-width:2;stroke-linecap:round" transform="translate(-1.711965,0)" points="8.705,74.494 8.662,11.08 46.16,22.253 51.398,30.875 51.688,87.078 8.705,74.494 "/>
    <polygon id="polygon123" style="fill:url(#XMLID_15_)" transform="translate(-1.751474,4.584633e-7)" points="0.91,80.375 59.66,97.375 59.785,38.438 42.598,13.25 0.83,1.687 0.91,80.375 "/>
    <path id="path136" style="opacity:0.68999999;fill:url(#XMLID_16_)" d="M 40.344035,35.521 C 43.284035,36.699 56.968035,39.402 58.015035,41.634 C 58.015035,40.696 58.046035,38.906 58.015035,38.498 C 54.794035,31.087 41.827035,13.443 40.933035,13.406 C 40.304035,13.218 39.578035,12.995 39.374035,12.956 C 39.780035,13.223 40.214035,13.494 40.683035,13.922 C 43.761035,16.879 38.719035,34.869 40.344035,35.521 z "/>
    <path id="path155" style="fill:url(#XMLID_17_)" d="M 57.938035,38.367 C 57.577035,37.596 55.682035,36.531 54.905035,36.226 C 51.905035,35.048 42.374035,33.122 42.374035,33.122 L 42.515035,17.719 C 42.515035,17.719 42.491035,16.196 42.218035,15.479 C 41.890035,14.617 41.620035,13.351 40.448035,12.234 C 44.276035,13.859 58.983035,38.411 57.938035,38.367 z "/>
    <path id="path166" style="fill:url(#XMLID_18_)" d="M 42.796035,17.986 C 42.932035,21.43 42.480035,31.084 42.390035,33.148 C 42.251035,33.036 41.677035,32.854 41.677035,32.854 C 41.677035,32.854 42.656035,21.02 42.452035,17.621 C 42.422035,17.113 42.178035,16.182 41.948035,15.469 C 41.651035,14.547 40.589035,12.828 40.354035,12.344 C 40.839035,12.453 42.651035,14.328 42.796035,17.986 z "/>
  </g>
</svg>
